<?xml version="1.0" encoding="UTF-8" standalone="no"?>
<svg
   xmlns:dc="http://purl.org/dc/elements/1.1/"
   xmlns:cc="http://creativecommons.org/ns#"
   xmlns:rdf="http://www.w3.org/1999/02/22-rdf-syntax-ns#"
   xmlns:svg="http://www.w3.org/2000/svg"
   xmlns="http://www.w3.org/2000/svg"
   viewBox="0 0 453.78809 272.93613"
   height="272.93613"
   width="453.78809"
   id="svg166"
   version="1.1">
  <metadata
     id="metadata172">
    <rdf:RDF>
      <cc:Work
         rdf:about="">
        <dc:format>image/svg+xml</dc:format>
        <dc:type
           rdf:resource="http://purl.org/dc/dcmitype/StillImage" />
        <dc:title></dc:title>
      </cc:Work>
    </rdf:RDF>
  </metadata>
  <defs
     id="defs170" />
  <path
     id="path608"
     d="m 44.275015,272.19949 c -0.316328,-0.52291 -2.44202,-7.41024 -4.72376,-15.30517 -2.281739,-7.89492 -5.930313,-18.52459 -8.107941,-23.62148 -2.177629,-5.09688 -3.959325,-9.51703 -3.959325,-9.82255 0,-0.30552 -1.612772,-4.04703 -3.583937,-8.31446 -2.642823,-5.72153 -4.708104,-13.15894 -7.864975,-28.32303 -2.354571,-11.31023 -5.480621,-23.85767 -6.9467776,-27.88319 -2.822349,-7.74912 -4.6410967,-13.97214 -7.6516637,-26.18087 -2.477409,-10.04662 -1.73187303,-20.20906 2.090813,-28.5 C 7.4563044,95.727535 17.78264,85.526319 24.748852,83.284459 c 2.879326,-0.92661 6.810137,-2.92339 8.735137,-4.43726 1.925,-1.51388 8,-5.76094 13.5,-9.43792 5.5,-3.67697 11.8,-8.07012 14,-9.76255 2.2,-1.69243 7.15,-4.89593 11,-7.11887 8.720134,-5.03491 23.879376,-13.97636 24.355056,-14.36546 0.19528,-0.15974 -3.071024,-7.06816 -7.258456,-15.35205 -4.187432,-8.283882 -7.174675,-15.0616068 -6.638318,-15.0616068 0.536357,0 4.230382,6.4124998 8.208943,14.2499968 3.978565,7.8375 8.275591,16.28595 9.548956,18.77433 1.27337,2.48837 2.73562,7.10739 3.24945,10.26447 0.51382,3.15709 1.22751,6.21469 1.58596,6.79468 0.35845,0.57998 0.80273,3.16097 0.98729,5.73552 0.6617,9.23072 7.30841,23.09168 13.99308,29.180996 4.57039,4.16334 12.16417,22.333005 14.54547,34.803005 2.10517,11.02402 9.95737,20.67563 21.59524,26.54401 2.84497,1.43457 6.84527,3.74337 8.88955,5.13065 2.04428,1.38729 4.63508,2.52234 5.75733,2.52234 1.65167,0 1.2364,-0.68824 -2.17954,-3.61215 -2.32099,-1.98668 -5.35106,-5.69918 -6.73349,-8.25 -5.25677,-9.69961 -13.54868,-21.80922 -17.8976,-26.13785 -2.4866,-2.475 -4.51835,-5.04583 -4.515,-5.71296 0.0124,-2.47244 11.6736,10.70416 16.50608,18.65108 2.75,4.52232 6.50352,10.69721 8.34116,13.72198 2.02062,3.32596 5.03703,6.57506 7.63197,8.22072 4.30854,2.7324 12.19395,5.80012 12.9316,5.03088 0.21714,-0.22644 -0.74842,-3.87797 -2.14568,-8.11453 -2.21072,-6.70299 -2.97797,-7.91043 -5.91092,-9.30221 -4.59295,-2.1795 -5.74685,-4.31943 -8.89442,-16.49496 -1.49294,-5.775 -3.16989,-11.07337 -3.72657,-11.77417 -0.55668,-0.70079 -0.72302,-1.56329 -0.36964,-1.91666 0.77642,-0.77642 0.32007,-1.31418 6.00127,7.07199 6.06583,8.95395 11.22846,19.61244 13.13549,27.11884 1.99767,7.86321 6.16595,18.70788 8.11005,21.10009 0.84921,1.04495 1.26483,1.34671 0.92361,0.67058 -0.77488,-1.53545 0.93027,-4.84878 2.88049,-5.59714 1.82321,-0.69964 6.18408,2.64943 8.77335,6.73777 l 1.95617,3.0887 -0.63915,-8.5 c -0.58037,-7.7183 -1.23902,-9.7875 -7.16199,-22.5 -7.96071,-17.08612 -9.30968,-21.72109 -9.32491,-32.0399 -0.007,-4.42195 -0.63328,-10.49695 -1.39278,-13.500005 -1.73639,-6.8657 -2.61205,-14.960096 -1.61838,-14.960096 0.41527,0 2.4975,0.74704 4.62717,1.66008 2.12966,0.91304 7.24712,2.00115 11.37212,2.41802 4.125,0.41686 9.83772,1.29956 12.69493,1.96154 6.03249,1.397656 10.77682,0.721356 14.30507,-2.03916 l 2.5,-1.95601 -3.70295,-0.0222 c -6.88365,-0.0413 -10.98333,-3.76726 -9.21515,-8.37506 0.42741,-1.11382 -1.34959,-2.4174 -6.75089,-4.95232 -4.03206,-1.89231 -9.80601,-5.59726 -12.83101,-8.23321 -10.20312,-8.8909 -16.2679,-12.16016 -26.81798,-14.45644 -14.43862,-3.14264 -16.82313,-3.86783 -18.20911,-5.53783 -0.75676,-0.91184 -1.62626,-6.8314 -2.16588,-14.7454 -0.49586,-7.27208 -1.28043,-15.696967 -1.7435,-18.721967 -0.46307,-3.0249998 -0.64234,-5.7119678 -0.39837,-5.9710398 1.07967,-1.146513 2.09741,2.736316 2.67272,10.1967768 0.34217,4.437188 0.78695,8.23244 0.9884,8.43389 0.20146,0.20145 2.79795,-0.6977 5.76999,-1.9981 2.97205,-1.300413 6.52872,-2.651447 7.90372,-3.002302 3.28412,-0.838 7.48437,-4.781925 12.94947,-12.1592248 5.94592,-8.02635253 5.73917,-7.81280853 6.45017,-6.66239653 0.34396,0.55652803 -1.18861,3.18323753 -3.40568,5.83713253 -2.21708,2.653895 -5.56969,6.6694668 -7.45025,8.9234918 -2.73493,3.278064 -4.98264,4.649406 -11.23145,6.852379 -4.29674,1.51478 -8.59976,3.45282 -9.56226,4.30675 -2.00983,1.78314 -2.22701,5.92 -0.68761,13.09794 1.21211,5.65191 2.30623,6.34975 12.81289,8.17227 14.34731,2.48873 21.23069,5.80838 33.12725,15.9763 4.62155,3.95001 12.68998,8.99613 14.38425,8.99613 0.25655,0 1.87488,-2.46168 3.59629,-5.4704 1.72142,-3.00872 5.01695,-7.10287 7.3234,-9.09812 4.08367,-3.53268 22.8001,-13.43148 25.39594,-13.43148 0.71368,0 1.2976,-0.36719 1.2976,-0.81598 0,-0.93363 -9.81061,-5.18402 -11.96558,-5.18402 -1.4845,0 -8.98645,-4.74643 -10.26911,-6.49719 -1.94452,-2.65418 -0.32248,-2.2563 3.87849,0.95139 2.55409,1.95019 5.36659,3.55798 6.25,3.57286 0.88341,0.0149 4.61975,1.31279 8.30298,2.88424 l 6.69678,2.85719 9.80322,-3.35223 c 5.39177,-1.84373 16.28414,-4.70803 24.20528,-6.36512 7.92113,-1.65708 15.23363,-3.27681 16.25,-3.5994 1.01636,-0.32258 1.84794,-0.16467 1.84794,0.35091 0,1.09901 -4.58968,2.36366 -18.97531,5.22852 -5.76143,1.14737 -10.61729,2.22809 -10.7908,2.40161 -0.17352,0.17352 2.96537,1.38457 6.97531,2.69122 4.59808,1.4983 9.61868,4.1301 13.59376,7.12587 5.97034,4.49946 6.63606,4.75013 12.61514,4.75013 9.87078,0 12.49289,-2.60481 34.72904,-34.499997 5.73377,-8.2244398 11.84044,-15.4999998 13.00977,-15.4999998 0.53387,0 -1.84102,3.7125 -5.27753,8.25 -11.88683,15.6951468 -14.50308,19.2779168 -18.8034,25.7499968 -4.84272,7.2884 -9.129,12.13067 -13.57598,15.33698 -2.76238,1.9917 -4.26728,2.17004 -19,2.25157 -11.99271,0.0664 -17.25228,0.50195 -21,1.73917 -2.75,0.90785 -7.72512,1.6555 -11.05583,1.66146 -7.61967,0.0136 -17.75965,3.31716 -19.81632,6.45604 -0.83217,1.27005 -3.56218,3.15194 -6.06669,4.18198 -4.25116,1.74839 -4.55391,2.1198 -4.55741,5.59087 -0.003,3.03201 -0.50773,3.98212 -2.7351,5.14916 l -2.73135,1.43109 4.34398,1.16971 c 5.37529,1.44742 10.3478,0.68385 20.27701,-3.11367 6.89081,-2.63547 8.64062,-2.9002 17.4606,-2.64168 l 9.80232,0.28732 2.43232,7 c 2.4143,6.94815 2.42023,7.05982 0.80088,15.075966 -2.19908,10.885955 -7.25363,26.628245 -10.84372,33.772565 -3.32137,6.60955 -5.77078,19.37582 -5.78503,30.15147 -0.0173,13.11392 3.32,34.67773 3.61655,23.36795 0.12865,-4.90655 3.0928,-9.2521 6.59869,-9.67395 2.39571,-0.28827 2.63775,-0.86783 4.17629,-10 1.71182,-10.16077 8.5223,-37.93673 11.0777,-45.17952 0.82034,-2.32509 1.27888,-4.57152 1.01897,-4.99206 -0.25991,-0.42054 1.20564,-1.02417 3.25679,-1.3414 2.05114,-0.31723 4.85435,-0.85864 6.22935,-1.20312 2.40999,-0.60379 2.43011,-0.56966 0.55887,0.94788 -1.06762,0.86582 -3.21626,1.57422 -4.77475,1.57422 -3.11205,0 -3.72838,1.05558 -6.42262,11 -4.42242,16.32309 -6.5464,24.66639 -7.28265,28.60734 -0.76977,4.12035 -0.68265,4.39266 1.4052,4.39266 2.98913,0 11.55104,-9.15392 15.04256,-16.08267 1.50144,-2.97953 3.50784,-6.54233 4.45868,-7.91733 1.78289,-2.57822 6.55504,-10.88808 8.38962,-14.60904 0.57191,-1.15997 2.40902,-2.70017 4.08246,-3.42268 1.67345,-0.72251 3.38013,-1.49844 3.79263,-1.7243 0.4125,-0.22585 0.75,0.0391 0.75,0.58887 0,0.54973 -1.31075,1.57971 -2.91279,2.28884 -1.60203,0.70913 -3.62373,2.65935 -4.49267,4.33382 -0.86894,1.67447 -3.62716,6.19449 -6.12939,10.04449 -2.50222,3.85 -5.48985,9.025 -6.63917,11.5 -1.14932,2.475 -4.28034,6.83556 -6.95782,9.69014 -6.11004,6.51416 -6.2042,7.72056 -0.5529,7.08357 5.04009,-0.56809 13.98442,-6.2177 17.52318,-11.06835 1.28615,-1.76295 4.33058,-7.3854 6.76541,-12.49433 4.15055,-8.70899 10.96233,-19.02622 12.64615,-19.15408 1.64426,-0.12485 0.57536,2.13059 -2.75866,5.82096 -1.92977,2.13602 -4.87991,6.74981 -6.55587,10.25288 -1.67597,3.50307 -4.72324,9.29421 -6.77171,12.86921 -3.84831,6.71608 -6.94851,16.92124 -5.7363,18.88263 0.8795,1.42306 6.24189,1.46138 7.11366,0.0508 1.04469,-1.69035 -0.34024,-2.34508 -2.01695,-0.95353 -1.27627,1.05921 -1.52417,0.95017 -1.52417,-0.6704 0,-2.22206 4.90132,-7.30577 7.05472,-7.31724 1.74143,-0.009 5.12634,-5.72503 8.09176,-13.66372 3.6035,-9.64689 9.82687,-19.0648 15.48006,-23.4262 9.49908,-7.32849 15.07636,-14.07636 16.96301,-20.523315 0.94626,-3.23349 1.92462,-5.28236 2.17414,-4.55304 0.67646,1.97726 -1.83966,10.330965 -3.9333,13.058835 -2.36821,3.0856 -2.30877,5.19003 0.27005,9.5608 2.1986,3.72635 5.85298,16.38574 5.88242,20.37773 l 0.0171,2.32339 5.75,-3.22392 c 3.1625,-1.77315 7.1,-4.19924 8.75,-5.3913 1.65,-1.19206 6.6,-3.62908 11,-5.4156 4.4,-1.78652 14.3,-6.48096 22,-10.43209 13.81891,-7.09095 14.06211,-7.27441 18.80152,-14.18387 6.55327,-9.553815 12.48476,-21.424221 13.86527,-27.747901 0.63061,-2.88865 1.15342,-8.4021 1.1618,-12.2521 0.0156,-7.15815 -2.9417,-39.07162 -4.02159,-43.39915 -0.40324,-1.615912 -0.23725,-2.175775 0.50842,-1.714921 1.24902,0.771931 1.91375,4.16905 2.66394,13.614071 0.28395,3.575 1.14751,13.25 1.91902,21.5 1.22046,13.05066 1.21316,15.77974 -0.0561,21 -3.21199,13.21027 -19.36055,40.500001 -23.96567,40.500001 -0.70112,0 -8.38518,3.42292 -17.07569,7.60649 -8.6905,4.18358 -18.06158,8.66686 -20.82463,9.96285 -2.76305,1.29598 -8.83805,4.68252 -13.5,7.52563 -10.67125,6.50796 -28.70907,15.90507 -30.52979,15.90507 -0.75823,0 -2.85637,0.63653 -4.66253,1.41452 -1.80616,0.77798 -5.84981,1.93042 -8.98589,2.56096 -4.1564,0.8357 -5.86925,1.67351 -6.3191,3.09088 -1.2274,3.86719 -5.55615,7.93364 -8.44539,7.93364 -4.67548,0 -6.39503,-3.84485 -4.58875,-10.26025 l 0.77716,-2.76026 -6.4993,3.51026 c -3.57461,1.93064 -7.85077,3.51025 -9.50257,3.51025 -3.84922,0 -4.47252,2.20994 -4.27367,15.15257 0.10951,7.12775 0.7903,11.70523 2.60272,17.5 4.11744,13.16455 4.96541,24.65437 3.05302,41.36767 -1.7653,15.42776 -3.30686,20.65136 -2.20739,7.47976 2.32615,-27.86721 1.9353,-34.29884 -3.0385,-50 -2.26342,-7.14512 -2.49801,-9.33385 -2.19525,-20.4822 0.30528,-11.24121 0.16528,-12.51606 -1.40811,-12.82276 -2.04784,-0.39919 -3.7271,3.25646 -4.27433,9.30496 -0.46703,5.16215 -2.77896,14.37206 -4.32724,17.23819 -1.4116,2.61311 -5.7638,3.99367 -8.05612,2.55548 -2.18685,-1.37203 -2.80258,-3.94002 -4.20725,-17.54686 -1.68823,-16.35372 0.36365,-31.22704 6.02046,-43.64018 4.21012,-9.23855 9.83751,-27.66039 10.7757,-35.275345 0.62124,-5.042426 -1.90914,-14.336766 -4.49883,-16.524586 -2.39549,-2.02377 -17.60754,-0.46497 -25.1853,2.58076 -5.15508,2.07198 -8.18781,2.61254 -14.65718,2.61254 -7.63743,0 -8.40203,-0.19817 -12,-3.11025 -6.54645,-5.29848 -4.95724,-7.5201 8.93249,-12.48712 3.17643,-1.1359 7.00143,-3.31723 8.5,-4.84741 3.91519,-3.99776 10.36454,-6.17457 21.22469,-7.16385 5.225,-0.47596 13.8892,-1.65873 19.25377,-2.62838 l 9.75377,-1.76299 -3.63167,-2.89469 c -4.21781,-3.36187 -16.09373,-7.76891 -21.85796,-8.11128 -2.85144,-0.16935 -7.82029,1.2749 -17.5,5.08656 -23.08589,9.09075 -30.56155,13.84948 -35.96311,22.8928 -3.31444,5.54905 -3.37361,5.82033 -1.55887,7.14729 1.03748,0.75863 2.92532,1.37932 4.1952,1.37932 2.77116,0 10.30887,7.18441 10.30887,9.82569 0,5.27056 -10.08557,8.992686 -19.11797,7.055586 -2.76102,-0.59213 -5.13759,-0.92016 -5.28127,-0.72894 -0.90727,1.20743 -5.61984,16.338815 -6.60164,21.196885 -0.65016,3.21707 -1.2459,11.76707 -1.32385,19 -0.13442,12.47081 0.003,13.46101 2.66597,19.15078 1.84746,3.94795 3.09505,8.73607 3.64783,14 0.46205,4.4 0.93183,8.45 1.04394,9 0.66273,3.25132 -0.33696,6.87719 -2.43127,8.81813 -2.13094,1.97489 -2.25761,2.49901 -1.13648,4.70225 2.22085,4.36441 5.49813,19.16965 6.52559,29.47962 0.54812,5.5 1.42964,13.375 1.95895,17.5 0.52931,4.125 0.94346,8.625 0.92033,10 -0.0992,5.90217 -1.96708,-4.12088 -3.91342,-21 -2.78961,-24.19213 -6.95604,-39.66405 -10.96332,-40.71198 -1.03875,-0.27164 -4.37951,-4.19903 -7.4239,-8.72754 -6.13545,-9.12642 -8.64266,-10.55701 -19.36032,-11.04677 -3.67124,-0.16777 -5.96707,-0.86185 -7.5,-2.26743 -1.21505,-1.11411 -4.68418,-3.25909 -7.70918,-4.76662 -3.025,-1.50753 -7.22061,-4.09621 -9.32359,-5.75262 -4.66099,-3.67125 -11.45011,-12.67922 -12.8348,-17.02952 -0.55976,-1.75864 -1.2656,-3.87252 -1.56853,-4.69752 -0.30292,-0.825 -0.63882,-2.175 -0.74643,-3 -0.37196,-2.85152 -5.7868,-19.51053 -7.31339,-22.5 -0.84258,-1.65 -3.38711,-5.025005 -5.65449,-7.500005 -2.26739,-2.475 -5.09446,-6.085686 -6.28238,-8.023756 -2.99241,-4.88205 -7.95554,-18.65386 -8.83424,-24.51346 -0.58689,-3.91366 -1.49617,-5.56263 -4.640285,-8.41512 -4.910116,-4.45468 -9.570778,-7.04766 -12.667596,-7.04766 -3.106096,0 -16.310634,7.05092 -23.785302,12.70081 -16.451855,12.43548 -36.54984,25.23595 -39.685522,25.27583 -1.010104,0.0129 -4.789741,2.83586 -8.399191,6.273356 -9.0416616,8.610935 -13.2791533,17.559105 -13.2286333,27.934465 0.03385,6.95125 1.312426,14.24769 3.8320487,21.8683 0.626872,1.89598 2.72622,8.17224 4.6652166,13.94724 1.938997,5.775 5.323512,19.25258 7.521145,29.95018 2.594111,12.62757 5.189086,22.27385 7.397865,27.5 1.871193,4.4274 5.291194,12.54639 7.600001,18.0422 6.045384,14.39024 15.389693,46.99297 11.739128,40.95837 z M 281.19077,186.12984 c 0.23496,-0.70579 -0.56088,-0.94048 -2.15548,-0.63566 -1.39039,0.26579 -2.26627,0.90672 -1.9464,1.42428 0.7511,1.21529 3.61826,0.66406 4.10188,-0.78862 z m 1.93842,-5.35706 c 0.73173,-3.65866 0.36321,-4.61779 -1.61564,-4.20489 -2.01387,0.42022 -4.02955,3.10741 -4.02955,5.37198 0,1.26757 0.7556,1.80887 2.525,1.80887 2.00102,0 2.64851,-0.61756 3.12019,-2.97596 z m -78.64519,0.36897 c 0,-0.21615 -0.675,-0.39301 -1.5,-0.39301 -0.825,0 -1.5,0.43588 -1.5,0.96862 0,0.53273 0.675,0.70959 1.5,0.39301 0.825,-0.31659 1.5,-0.75246 1.5,-0.96862 z m -2.03661,-2.34922 c 1.27324,-0.80532 1.24589,-1.38171 -0.21048,-4.43574 -2.06468,-4.3297 -6.33874,-7.42222 -7.98405,-5.77691 -0.83793,0.83793 -0.80976,1.72392 0.10941,3.44141 0.68083,1.27213 1.33689,2.96873 1.45792,3.77021 0.56403,3.73518 3.42102,5.02892 6.6272,3.00103 z m 123.32264,-19.02959 c 0.52899,-2.02283 -0.17277,-1.95381 -3.08336,0.30323 -1.03066,0.79923 -1.04048,1.16478 -0.0478,1.77832 1.61251,0.99658 2.47634,0.42232 3.13111,-2.08155 z m 11.21397,-4.98943 c 6.17595,-1.28636 10.15396,-2.82839 21.25,-8.23732 l 10.25,-4.99651 -0.0129,-4.14547 c -0.0224,-7.18371 -5.33459,-21.79737 -8.34329,-22.95191 -1.64233,-0.63022 -13.36312,8.66464 -16.35969,12.97363 -3.12527,4.49404 -14.28412,27.1831 -14.28412,29.04359 0,0.27676 0.7875,0.19808 1.75,-0.17484 0.9625,-0.37292 3.55,-1.05295 5.75,-1.51117 z M 176.12087,137.08329 c -6.27951,-12.35601 -8.12084,-13.22815 -5.06742,-2.40015 1.73481,6.15192 2.94882,8.16336 5.93054,9.82602 3.10511,1.73146 2.9018,-0.0178 -0.86312,-7.42587 z m 23.81532,-25.83455 c 0.4063,-1.65 1.82077,-6.11421 3.14327,-9.92046 3.29151,-9.473235 3.19358,-10.579541 -0.93653,-10.579541 -1.83759,0 -5.55009,-0.67013 -8.25,-1.48918 -2.69991,-0.81904 -5.24643,-1.49404 -5.65893,-1.49999 -1.12559,-0.0162 -0.90226,6.463346 0.33343,9.674066 0.59589,1.54831 1.42431,8.715285 1.84094,15.926625 0.69706,12.0652 1.02621,13.66123 4.12458,20 l 3.36706,6.88848 0.64873,-13 c 0.3568,-7.15 0.98115,-14.35 1.38745,-16 z m 25.39943,-28.634021 c 1.11155,-1.77986 1.10998,-2.27868 -0.009,-3.00572 -1.74995,-1.13655 -5.08276,-0.67267 -5.55848,0.77367 -0.3738,1.13508 2.2512,4.36607 3.54674,4.36607 0.37842,0 1.28775,-0.96031 2.02074,-2.13402 z m 4.14838,1.13402 c 0,-0.55 -0.42344,-1 -0.94098,-1 -0.51754,0 -1.2191,0.45 -1.55902,1 -0.33992,0.55 0.0835,1 0.94098,1 0.85746,0 1.55902,-0.45 1.55902,-1 z m 2.31442,-7.75 c -1.02023,-2.8667 -1.40639,-3.31119 -2.36304,-2.71995 -0.51811,0.32021 -0.38468,1.40452 0.30965,2.51631 1.51617,2.42778 2.89356,2.56438 2.05339,0.20364 z m 5.44751,-3.85587 c -0.20899,-2.52516 -1.31939,-2.95984 -3.70507,-1.45043 -1.1864,0.75063 -1.22644,1.3887 -0.22508,3.58645 0.99716,2.18853 1.48197,2.45436 2.67318,1.46573 0.80031,-0.66419 1.36595,-2.28499 1.25697,-3.60175 z M 101.096,47.926479 c -0.70892,-3.44007 -1.738355,-6.70408 -2.287635,-7.25336 -1.18943,-1.18943 -4.635286,0.0395 -8.312762,2.96456 l -2.488387,1.9793 2.488387,0.95985 c 1.368612,0.52792 4.498856,2.55959 6.956092,4.51484 2.45724,1.95524 4.572455,3.45025 4.700475,3.32223 0.12802,-0.12802 -0.34726,-3.04736 -1.05617,-6.48742 z m 10.61469,211.322261 c -0.61471,-2.2 -1.78578,-6.925 -2.60238,-10.5 -0.8166,-3.575 -2.80896,-10.1 -4.42748,-14.5 -5.792865,-15.74815 -7.695335,-26.14807 -8.689225,-47.5 -1.182506,-25.40429 -2.363466,-31.68258 -8.170865,-43.43847 -4.10429,-8.30831 -13.880004,-22.53597 -17.335179,-25.22977 -0.824135,-0.64253 -1.174873,-1.49179 -0.779418,-1.88725 0.792737,-0.79273 6.777846,5.17467 6.777846,6.7578 0,0.54493 1.853151,3.08484 4.118112,5.64424 2.264962,2.5594 5.267969,6.98387 6.67335,9.83215 1.40538,2.84829 3.349259,5.38634 4.31973,5.64013 2.802008,0.73274 22.708429,-1.14855 30.388809,-2.87194 10.52302,-2.36125 14.16291,-2.82735 13,-1.6647 -1.74577,1.74539 -27.36069,6.21781 -35.611315,6.21781 -4.338776,0 -7.888459,0.1125 -7.888182,0.25 2.78e-4,0.1375 0.893586,2.59972 1.985129,5.47159 1.532697,4.03255 2.438033,11.31946 3.975763,32 2.06001,27.70468 3.671515,37.05623 8.476195,49.1873 3.0544,7.71189 7.82098,26.64252 7.28799,28.94454 -0.21736,0.93882 -0.86163,-0.0728 -1.49888,-2.35343 z m 114.04998,-94.75 c 0.24383,-0.6875 -0.6443,-3.42312 -1.97362,-6.07914 -3.29544,-6.58439 -2.36686,-8.30449 1.00348,-1.85884 2.80164,5.35805 3.47282,9.18798 1.61014,9.18798 -0.59584,0 -0.88384,-0.5625 -0.64,-1.25 z M 31.519173,156.81448 c -0.569351,-1.06384 -1.035184,-2.63884 -1.035184,-3.5 0,-2.76809 1.477529,-1.67146 2.606102,1.93426 1.171744,3.74365 0.143272,4.76873 -1.570918,1.56574 z m 225.845587,0.43426 c -0.91305,-3.41127 0.89516,-7.85423 4.62849,-11.37271 4.87936,-4.59853 5.52637,-3.27936 0.90206,1.8392 -2.28116,2.52497 -3.98859,5.58796 -4.3697,7.83892 -0.46526,2.7479 -0.76271,3.18212 -1.16085,1.69459 z m -41.58669,-10.25 c -4.34959,-7.86368 -5.34464,-19.58389 -2.79424,-32.91203 0.8249,-4.31088 1.55315,-9.18797 1.61831,-10.83797 l 0.11849,-3 0.66078,3 c 0.36343,1.65 0.06,6.15 -0.67435,10 -0.73934,3.87632 -1.18923,11.23929 -1.00817,16.5 0.3158,9.1758 0.8064,10.96025 5.5674,20.25 0.21141,0.4125 -0.0203,0.75 -0.51482,0.75 -0.49455,0 -1.83258,-1.6875 -2.9734,-3.75 z M 30.483989,133.93024 c 0,-12.36559 -1.821566,-20.09398 -5.634911,-23.90732 -3.173245,-3.17325 -2.174608,-4.38331 1.087953,-1.31829 4.006805,3.76419 5.745767,10.34087 6.291487,23.79411 0.351905,8.67527 0.169869,12.25 -0.623809,12.25 -0.758565,0 -1.12072,-3.49595 -1.12072,-10.8185 z m 202.795321,1.0251 c -3.68758,-2.58863 -6.96067,-5.33351 -7.27354,-6.09973 -0.82454,-2.01933 0.46646,-2.87928 1.51357,-1.00821 0.48693,0.8701 4.05318,3.7074 7.925,6.30511 3.87181,2.5977 7.03966,4.91955 7.03966,5.15966 0,1.35515 -3.27819,-0.1965 -9.20469,-4.35683 z m 2.70469,-5.83437 c -4.4,-2.38292 -8.45,-4.5049 -9,-4.7155 -0.55,-0.21061 -0.70804,-0.69899 -0.35119,-1.0853 0.35684,-0.38631 3.39302,0.68289 6.74706,2.37601 8.64707,4.36502 12.40097,6.75924 11.43721,7.2946 -0.45819,0.25452 -4.43308,-1.48689 -8.83308,-3.86981 z m 4.21529,-4.29311 c -2.08159,-1.57588 -5.11909,-3.41795 -6.75,-4.0935 -2.7327,-1.13192 -4.06545,-2.98562 -2.14656,-2.98562 1.45982,0 13.5767,7.68629 13.96815,8.86064 0.61748,1.85243 -1.04104,1.26983 -5.07159,-1.78152 z m 2.28471,-4.14653 c -1.375,-1.11262 -3.5125,-2.44147 -4.75,-2.95301 -2.09056,-0.86417 -3.19098,-3.02404 -1.5,-2.94414 1.80549,0.0853 10.25,6.14762 10.25,7.35848 0,1.11818 -1.48068,0.57724 -4,-1.46133 z m 0.0549,-5.46331 c -1.89477,-1.33795 -3.91977,-2.60428 -4.5,-2.81406 -0.58022,-0.20977 -0.73778,-0.72269 -0.35012,-1.13981 0.72876,-0.78415 9.22098,3.74651 10.3025,5.49645 1.11005,1.7961 -1.95046,0.93022 -5.45238,-1.54258 z m 29.72863,1.53072 c -0.34037,-0.825 -0.82954,-3.34873 -1.08703,-5.60829 -0.80077,-7.02694 -6.93291,-18.358015 -9.9465,-18.379335 -1.9369,-0.0137 -2.34438,-1.526996 -0.68699,-2.551316 0.58466,-0.36134 1.94246,0.1389 3.01733,1.111646 2.39305,2.16568 7.59894,11.623915 9.03156,16.408855 1.09137,3.64515 0.79645,11.7448 -0.32837,9.01844 z m -24.29236,-2.01429 c -0.34478,-0.55786 -2.50884,-1.99623 -4.80902,-3.19638 -2.85488,-1.48957 -3.65017,-2.29721 -2.50592,-2.54483 1.89104,-0.40922 9.82377,4.24849 9.82377,5.76804 0,1.29071 -1.70583,1.27246 -2.50883,-0.0268 z m -92.74118,-1.55768 c -1.5125,-0.82055 -2.75,-2.23097 -2.75,-3.13428 0,-1.36995 0.38391,-1.28171 2.31445,0.53194 1.27295,1.19587 2.84795,2.17431 3.5,2.17431 0.65205,0 1.18555,0.45 1.18555,1 0,1.3389 -0.96779,1.20865 -4.25,-0.57197 z m 92.75001,-4.42803 c -0.33992,-0.55 -1.71648,-1 -3.05902,-1 -1.34254,0 -2.44098,-0.45 -2.44098,-1 0,-0.55 0.92958,-1 2.06574,-1 2.5456,0 5.93426,1.73319 5.93426,3.03518 0,1.26576 -1.71086,1.24168 -2.5,-0.0352 z M 369.51568,94.498735 c 0.16466,-6.495986 3.12629,-22.139316 4.82002,-25.459296 1.39838,-2.74105 6.11041,-7.47384 14.13868,-14.20095 6.62272,-5.54936 12.37167,-10.09983 12.77546,-10.11215 0.84337,-0.0257 14.84753,-22.24233 18.26595,-28.977597 1.25616,-2.475 2.47848,-3.928214 2.71628,-3.229365 0.48853,1.435745 -2.3767,7.322671 -7.16895,14.729362 -1.77929,2.75 -5.62075,8.7125 -8.53656,13.25 -2.91582,4.5375 -5.88314,8.25 -6.59405,8.25 -2.39026,0 -22.3216,17.21279 -23.9813,20.71035 -1.64665,3.47005 -3.00227,10.37978 -4.02966,20.53965 -0.31981,3.162496 -0.99908,5.749996 -1.50951,5.749996 -0.51042,0 -0.91378,-0.5625 -0.89636,-1.25 z"
     style="fill:#000000" />
</svg>
