<?xml version="1.0" encoding="UTF-8" standalone="no"?>
<svg
   xmlns:dc="http://purl.org/dc/elements/1.1/"
   xmlns:cc="http://creativecommons.org/ns#"
   xmlns:rdf="http://www.w3.org/1999/02/22-rdf-syntax-ns#"
   xmlns:svg="http://www.w3.org/2000/svg"
   xmlns="http://www.w3.org/2000/svg"
   version="1.1"
   id="svg4638"
   width="2314.5457"
   height="2109.6338"
   viewBox="0 0 2314.5457 2109.6338">
  <metadata
     id="metadata4644">
    <rdf:RDF>
      <cc:Work
         rdf:about="">
        <dc:format>image/svg+xml</dc:format>
        <dc:type
           rdf:resource="http://purl.org/dc/dcmitype/StillImage" />
        <dc:title></dc:title>
      </cc:Work>
    </rdf:RDF>
  </metadata>
  <defs
     id="defs4642" />
  <path
     style="fill:#000000"
     d="m 1499.2819,2107.6687 c -3.4494,-2.7133 -5.1855,-10.3082 -4.3131,-18.8692 0.7486,-7.3471 2.0704,-13.5777 9.5755,-45.138 2.8121,-11.825 8.2141,-36.8 12.0045,-55.5 15.6881,-77.3972 24.5623,-119.0075 31.9904,-150 2.1092,-8.8 4.9703,-21.625 6.3581,-28.5 4.3136,-21.3691 8.6505,-44.61 8.6002,-46.0875 -0.026,-0.7769 -1.3509,1.0625 -2.9432,4.0875 -1.5924,3.025 -4.0757,6.85 -5.5185,8.5 l -2.6234,3 0.5683,-4.1865 c 0.3125,-2.3025 2.8376,-9.9525 5.6112,-17 6.4112,-16.29 7.5365,-23.8539 6.0205,-40.4675 -0.6145,-6.7339 -2.4836,-18.1165 -4.1535,-25.2947 -4.3023,-18.4936 -6.575,-31.3 -8.3791,-47.2145 -2.7173,-23.9705 -4.2629,-29.0041 -14.2279,-46.3368 -7.3581,-12.7984 -13.8342,-21.0886 -28.8323,-36.9088 -6.9489,-7.3299 -17.2109,-19.4542 -22.8042,-26.9429 -12.1638,-16.2854 -18.8404,-23.043 -34.7386,-35.1597 -6.5915,-5.0238 -17.485,-14.3226 -24.2079,-20.6642 -14.5957,-13.768 -20.0488,-18.0347 -33.0838,-25.8855 -6.4403,-3.8789 -14.4265,-10.1012 -23.0242,-17.9389 -7.2401,-6.6 -14.9528,-13.4096 -17.1395,-15.1325 -5.1609,-4.0662 -15.6234,-10.3616 -17.2258,-10.3649 -0.8009,0 -1.2579,1.5244 -1.272,4.2474 -0.025,4.9275 -2.7144,11.3764 -5.9418,14.25 -1.5145,1.3485 -3.6616,2 -6.5912,2 -6.5586,0 -7.0684,-1.0891 -4.4873,-9.5866 1.7583,-5.789 2.0586,-8.4663 1.4947,-13.3287 -0.7833,-6.7557 -1.9259,-8.1928 -14.1746,-17.8286 -7.8298,-6.1596 -10.4656,-13.3188 -5.5921,-15.189 1.3456,-0.5163 1.3164,-0.9192 -0.2417,-3.3273 -0.975,-1.5069 -4.5874,-5.6648 -8.0278,-9.2398 -3.4403,-3.575 -8.1296,-8.8625 -10.4207,-11.75 -4.1219,-5.1949 -6.3458,-6.4225 -7.246,-4 -0.2555,0.6875 1.7317,6.1095 4.416,12.0488 6.862,15.1831 7.9275,20.2792 8.5473,40.8795 0.4204,13.9731 0.1721,19.8418 -1.1846,28 -4.0095,24.1091 -20.3926,63.6112 -30.3311,73.1328 -5.3279,5.1045 -13.5152,4.8597 -17.3448,-0.5186 -2.1656,-3.0412 -2.2834,-4.1127 -2.3371,-21.2476 -0.047,-15.0634 -0.351,-18.7058 -1.8389,-22.0449 -3.1469,-7.0622 -9.6088,-12.2709 -17.2738,-13.9239 -2.6323,-0.5677 -4.244,0.099 -10.7313,4.4378 -7.4294,4.969 -14.6712,7.4948 -14.6712,5.1169 0,-0.6219 0.4517,-1.1308 1.0039,-1.1308 0.5521,0 4.4896,-3.5369 8.75,-7.8598 12.2032,-12.3823 18.9067,-14.6052 28.9502,-9.6004 5.8547,2.9176 13.1298,10.2541 16.268,16.4055 2.4576,4.8174 5.0279,17.0057 5.0279,23.8427 0,2.5366 0.3703,4.1845 0.8229,3.662 1.1132,-1.285 8.9106,-19.387 11.348,-26.3446 6.3877,-18.234 8.0159,-26.9521 8.5526,-45.7932 0.3829,-13.4451 0.1245,-20.7466 -0.9911,-28 -0.8301,-5.3967 -1.5015,-11.7142 -1.492,-14.0388 0.01,-2.5642 -1.0167,-6.3399 -2.6116,-9.5997 -3.4407,-7.0325 -3.3246,-8.6089 0.9372,-12.7275 1.9613,-1.8954 4.4734,-4.9095 5.5826,-6.6979 3.9476,-6.3652 9.803,-4.8856 16.8252,4.2517 2.1135,2.75 9.3174,10.85 16.0088,18 10.2504,10.953 24.0174,29.0465 24.0174,31.5654 0,0.3927 5.257,3.2613 11.6823,6.3745 15.737,7.6249 21.6793,11.8042 37.8968,26.6529 11.0178,10.0878 15.0393,13.122 26.4209,19.934 13.0136,7.7888 15.0602,9.395 32.6158,25.5972 12.0254,11.0984 13.2783,12.1422 25.9543,21.6216 13.5809,10.1561 23.2167,20.0555 35.5173,36.4889 5.667,7.571 14.4319,18.0405 19.4774,23.2655 20.6894,21.4252 28.3213,31.6289 37.7714,50.5 7.078,14.1341 8.2596,17.8666 10.1894,32.1874 4.5036,33.4193 5.7445,40.9549 8.9143,54.1327 5.4553,22.6798 6.0042,27.5746 6.0199,53.6799 l 0.014,24 -4.8598,25.5 c -4.6959,24.64 -7.843,39.3298 -16.6035,77.5 -2.2721,9.9 -6.8205,31.2664 -10.1075,47.4808 -3.287,16.2145 -7.0605,34.2145 -8.3855,40 -1.325,5.7856 -4.9351,23.1192 -8.0223,38.5192 -6.5615,32.7307 -8.6065,41.8646 -16.4555,73.5 -3.2068,12.925 -6.4013,27.1 -7.0987,31.5 -1.2996,8.1984 -3.4753,12.7876 -5.6913,12.0045 -0.6875,-0.243 -1.25,-0.01 -1.25,0.5269 0,1.5976 -2.5651,1.0985 -5.2637,-1.0242 z m 484.6454,-173.4549 c -1.4874,-3.876 2.8712,-15.8921 9.3638,-25.8149 8.4496,-12.9138 12.8798,-16.92 42.7302,-38.6414 4.8404,-3.5223 13.6241,-10.5385 19.5193,-15.5918 30.7917,-26.3934 50.8017,-40.8505 86.4939,-62.4913 17.9636,-10.8917 28.4958,-18.6322 47.5111,-34.9175 19.7515,-16.9158 30.0989,-27.1646 40.5246,-40.1387 8.8803,-11.051 19.9346,-21.8308 21.1452,-20.6202 0.3154,0.3154 0.031,4.2804 -0.6311,8.8112 -2.4666,16.8692 -12.4932,30.6545 -40.5387,55.7358 -27.0463,24.1876 -36.2218,31.0159 -64,47.6283 -29.3684,17.5633 -50.1041,32.1242 -78,54.7724 -9.35,7.5912 -21.633,17.0452 -27.2956,21.0089 -24.7973,17.358 -34.058,25.6941 -46.797,42.1247 -7.2631,9.3679 -9.0089,10.7844 -10.0257,8.1345 z M 957.54564,1521.9369 c 0,-1.1933 -1.1079,-4.2533 -2.4621,-6.8001 -1.3541,-2.5467 -3.1593,-7.3521 -4.0115,-10.6785 -4.8359,-18.8766 -20.7363,-36.2076 -48.3297,-52.6783 -18.9932,-11.3372 -77.09022,-30.5957 -118.16784,-39.1712 -22.20529,-4.6357 -39.1364,-5.563 -72.54795,-3.9731 -22.28653,1.0606 -28.78238,1.0814 -31.75,0.102 -2.05202,-0.6772 -3.73094,-1.8233 -3.73094,-2.5468 0,-0.7235 -0.675,-1.5744 -1.5,-1.891 -2.53118,-0.9713 -1.67082,-4.4077 1.75,-6.9897 2.89208,-2.1829 4.90194,-2.5845 18.25,-3.6466 24.11337,-1.9186 56.21486,-2.4006 68.80378,-1.0332 24.22491,2.6314 56.53849,10.6326 97.65545,24.1805 39.5225,13.0226 61.1096,24.7848 80.7425,43.9942 15.7408,15.4014 22.5785,28.04 23.9504,44.2688 0.5878,6.9538 0.5017,7.3455 -2.3421,10.6534 -1.6238,1.8888 -3.7078,4.5468 -4.6312,5.9067 -1.6295,2.3999 -1.6788,2.4088 -1.6788,0.3029 z m 239.97056,-32.5254 c -17.0143,-17.5948 -26.3546,-24.9991 -40.5679,-32.1594 -13.435,-6.7682 -38.8954,-14.8322 -63.3178,-20.0545 -11.7783,-2.5186 -27.1949,-6.4014 -34.2591,-8.6286 -11.0284,-3.477 -13.9381,-4.8642 -20.5849,-9.8139 -12.1568,-9.0529 -22.8299,-20.8586 -26.189,-28.9683 -0.712,-1.7189 -1.5774,-3.1209 -1.9232,-3.1154 -0.3458,0.01 -2.8287,6.1929 -5.5177,13.75 -6.64071,18.6632 -9.70611,25.2327 -13.98251,29.9662 -3.5797,3.9623 -3.6295,4.1358 -3.7046,12.8951 -0.082,9.5864 -1.1846,13.8252 -4.6178,17.7542 -2.9916,3.4237 -9.4696,5.3268 -12.86535,3.7795 -1.4044,-0.6399 -2.2936,-1.5838 -1.9761,-2.0977 0.3176,-0.5139 -0.1856,-1.3613 -1.1181,-1.8832 -1.2138,-0.6792 -1.7171,-2.3366 -1.7711,-5.8323 -0.06,-3.9146 0.5918,-5.9234 3.2876,-10.1262 l 3.3631,-5.2429 -1.1905,-8.1416 c -4.5609,-31.1924 -20.7905,-61.9089 -51.1249,-96.7605 -12.7603,-14.6604 -35.4872,-33.8274 -37.6023,-31.7122 -0.3868,0.3868 0.1044,2.0705 1.0916,3.7417 2.1554,3.6488 1.4964,4.7272 -1.6188,2.6493 -6.2778,-4.1873 -9.9185,-8.7244 -10.441,-13.0115 -0.6128,-5.0284 0.3717,-7.3759 3.6659,-8.7403 9.2187,-3.8186 24.5678,4.7687 45.5762,25.4981 30.0613,29.6623 52.64915,64.6134 61.36045,94.9459 0.9385,3.2679 2.1415,6.0866 2.6734,6.2639 0.5318,0.1773 1.9235,-2.4964 3.0925,-5.9415 1.1691,-3.4452 4.1666,-12.2345 6.6611,-19.5318 2.4945,-7.2973 4.9953,-15.7555 5.5574,-18.796 0.56201,-3.0404 1.71131,-6.2175 2.55391,-7.0601 0.8426,-0.8426 1.9949,-2.3969 2.5606,-3.454 2.4837,-4.6407 10.1228,-0.077 12.8262,7.6619 3.6902,10.5642 10.3549,22.5436 15.8606,28.5085 7.9514,8.6145 16.665,14.9088 20.6315,14.9031 1.727,0 6.29,1.5668 10.14,3.4872 5.4587,2.7229 11.4038,4.3803 27,7.5273 54.9741,11.0926 79.3132,21.6752 105.5947,45.9126 12.2044,11.2551 25.9053,28.6285 25.9053,32.849 0,1.91 -4.2503,5.2284 -6.6967,5.2284 -2.0729,0 -5.8942,-3.3872 -18.3327,-16.25 z m -226.47056,-38.75 c 0.3399,-0.55 0.1415,-1 -0.441,-1 -0.5824,0 -1.059,0.45 -1.059,1 0,0.55 0.1984,1 0.441,1 0.2425,0 0.7191,-0.45 1.059,-1 z m -372.50678,-24.4716 c -10.50045,-1.998 -23.39557,-6.3681 -38.5406,-13.0613 -23.65111,-10.4523 -90.74173,-43.987 -104.78394,-52.3755 -7.60721,-4.5443 -14.11917,-7.9745 -14.47104,-7.6226 -0.35186,0.3519 -0.0619,0.9969 0.64427,1.4333 0.74523,0.4606 -1.84922,1.0584 -6.18305,1.4248 -8.48465,0.7172 -9.5232,0.4328 -32.06276,-8.7801 -44.65476,-18.2525 -79.8526,-42.2506 -114.38864,-77.991 -17.16847,-17.7672 -29.12899,-32.3472 -44.4694,-54.2087 -4.70375,-6.7032 -13.66059,-22.2459 -19.44101,-33.7357 -9.56112,-19.0047 -21.55498,-52.1102 -21.78826,-60.1401 -0.0644,-2.2157 -0.38997,-4.4702 -0.72356,-5.0099 -1.10252,-1.784 1.98899,-7.4616 4.06287,-7.4616 3.02329,0 7.37139,5.7786 10.53704,14.0037 17.77838,46.1922 21.78499,54.7771 36.63447,78.4963 4.67777,7.4718 18.52244,26.407 24.10454,32.9675 30.36916,35.6919 59.23802,60.3426 94.37582,80.5862 11.69861,6.7397 44.5824,22.1972 45.42636,21.3533 0.27653,-0.2766 -1.73127,-2.3738 -4.46178,-4.6605 -30.85403,-25.8392 -64.21119,-68.4586 -69.45976,-88.7465 -0.64029,-2.475 -2.70331,-8.6428 -4.58449,-13.7063 -4.50592,-12.1284 -4.58105,-19.0669 -0.23168,-21.3947 1.85833,-0.9945 1.87759,-0.9297 0.39589,1.3316 -2.16054,3.2974 -0.92032,7.0167 5.69492,17.0786 2.96183,4.5049 10.23853,15.6158 16.17046,24.6908 13.20228,20.1976 21.79782,31.008 36.6431,46.0852 31.32986,31.8192 50.7997,44.742 114.51856,76.0102 43.61583,21.4032 56.89819,27.5682 69.38842,32.2066 20.13916,7.4789 38.47931,8.9051 54.40546,4.2305 9.31909,-2.7353 22.52576,-3.2703 23.29415,-0.9437 0.49993,1.5137 -8.40187,10.2187 -12.6835,12.403 -12.2109,6.2295 -32.24354,8.5391 -48.02286,5.5366 z m 618.58554,-10.7784 c -0.1971,-0.6875 -1.0484,-3.275 -1.8918,-5.75 -1.0974,-3.2205 -1.5595,-8.8978 -1.6251,-19.9676 -0.2015,-34.0006 -5.7123,-57.8882 -19.9707,-86.567 -18.2879,-36.7837 -45.1416,-68.498 -73.8513,-87.2185 -8.3914,-5.4717 -22.4824,-12.5334 -27.5012,-13.7823 -2.2787,-0.567 -2.6532,-0.4055 -2.143,0.9242 0.9243,2.4087 -0.2561,2.0035 -6.7016,-2.3007 -3.2219,-2.1515 -9.4397,-5.1047 -13.8173,-6.5625 -4.3775,-1.4579 -9.6001,-3.9547 -11.6057,-5.5486 -2.0057,-1.5939 -4.6196,-3.2065 -5.8089,-3.5836 -1.1892,-0.3771 -3.7372,-1.6735 -5.6622,-2.881 -3.02,-1.8943 -53.04411,-30.7549 -61.50001,-35.4814 -26.02605,-14.5476 -49.13595,-26.7421 -81.49995,-43.0055 -44.0277,-22.1246 -69.0006,-37.5511 -88.91743,-54.9268 -9.07671,-7.9187 -18.69145,-19.4899 -20.73095,-24.9495 -0.95524,-2.557 -2.73316,-6.2612 -3.95093,-8.2315 -2.3536,-3.808 -4.69057,-10.9364 -3.57011,-10.8899 1.44702,0.06 8.42514,6.0275 21.25406,18.1754 7.37843,6.9867 16.26451,14.9797 19.74684,17.7622 7.43822,5.9434 28.28322,19.7308 39.66852,26.2377 13.4298,7.6755 16.8512,9.4735 51.5,27.0637 18.425,9.3539 43.813,22.6288 56.41775,29.4997 23.5637,12.8447 77.61141,44.7694 89.03061,52.5883 4.4789,3.0668 8.638,4.9317 13.7377,6.16 18.1285,4.3661 41.5955,14.6629 54.9004,24.0889 46.7092,33.0916 84.6226,91.9392 93.9958,145.8963 1.8189,10.4706 2.2738,16.9886 2.338,33.5 0.089,22.9471 -0.3816,24.9589 -6.7641,28.9035 -3.9417,2.4361 -4.5906,2.5443 -5.0774,0.8465 z M 185.49395,1209.5592 c -2.86364,-5.6729 -3.14578,-7.2037 -4.00884,-21.75 -3.83062,-64.5631 -14.54398,-110.9817 -37.00476,-160.3333 -6.12821,-13.4651 -17.9798,-35.55593 -25.8637,-48.20873 -3.12055,-5.0081 -7.96802,-13.3807 -10.77215,-18.6057 -4.5395,-8.4586 -5.17592,-10.4076 -5.80532,-17.7793 l -0.7069,-8.27921 3.85666,2.25871 c 4.83324,2.8306 6.12116,4.2916 13.04639,14.7998 3.08099,4.675 7.26518,10.975 9.29819,14 31.34489,46.63933 52.47108,98.41773 62.4258,153.00003 7.41771,40.6717 9.25375,82.9202 3.93653,90.5823 -1.11364,1.6047 -2.30889,3.7052 -2.65613,4.6677 -1.09894,3.0461 -2.57573,1.9275 -5.74577,-4.3523 z m 1756.76865,-7.8108 c -6.4,-3.8021 -14.1822,-7.8656 -17.2939,-9.0298 -3.1118,-1.1642 -15.1674,-6.9925 -26.7904,-12.9517 -22.7445,-11.6612 -42.1657,-20.2131 -74.7899,-32.933 -65.0371,-25.3574 -79.9786,-33.8648 -169.2242,-96.3532 -32.5195,-22.7698 -45.7486,-34.3376 -49.836,-43.5777 -3.4075,-7.70333 -3.6335,-22.24153 -0.3457,-22.24153 0.7405,0 1.6269,-1.1181 1.9699,-2.4846 0.3973,-1.5829 3.2154,-4.3048 7.7652,-7.5 3.9279,-2.7585 7.5181,-5.0154 7.9782,-5.0154 0.4601,0 -0.775,2.1113 -2.7447,4.6918 l -3.5813,4.6918 0.529,10.2439 c 0.3186,6.1713 1.1258,11.39823 2.0303,13.14723 3.4769,6.7237 18.2295,18.1798 62.6165,48.6251 3.575,2.4521 9.425,6.5323 13,9.067 16.5587,11.7404 42.6499,28.8906 53.9954,35.4921 23.1107,13.4472 37.7997,20.2062 84.7859,39.0133 51.7202,20.7021 74.9003,32.6895 100.2187,51.8273 4.2017,3.176 23,21.0202 23,21.8326 0,1.0723 -2.7028,-0.2595 -13.283,-6.5452 z m 133.2314,-115.8369 c -1.218,-3.7125 -2.6185,-7.2628 -3.1122,-7.8895 -0.4937,-0.6267 -1.571,-5.3517 -2.394,-10.5 -2.0256,-12.6708 -8.766,-39.785 -12.5697,-50.5632 -9.1281,-25.86593 -26.2168,-49.02113 -50.3725,-68.25503 -4.4,-3.5035 -9.575,-7.8502 -11.5,-9.6594 -1.9526,-1.8351 -7.3301,-4.83202 -12.1628,-6.77846 -10.548,-4.2483 -17.7081,-8.21112 -28.7501,-15.91203 -8.1235,-5.66546 -12.2436,-8.82933 -31.5871,-24.25602 -4.95,-3.9477 -17.775,-13.60807 -28.5,-21.46749 -24.7338,-18.12528 -37.1203,-28.31933 -48.7267,-40.10211 -12.5694,-12.76046 -20.0702,-23.28821 -31.2733,-43.89375 -8.293,-15.25317 -9.4909,-18.06805 -9.4284,-22.15572 0.082,-5.34525 1.6548,-7.81741 4.9741,-7.81741 3.8219,0 7.8075,4.35344 13.9091,15.1928 14.5956,25.92901 19.5472,32.95287 31.9766,45.3585 13.3567,13.33117 20.556,19.27028 46.5686,38.41695 12.925,9.51348 27.775,20.74721 33,24.96383 10.2626,8.28203 26.9719,20.89539 33.647,25.39915 3.3662,2.27119 4.8056,2.67449 7.6447,2.14187 4.0915,-0.76756 6.351,0.22604 12.9383,5.68933 5.8014,4.81148 9.5088,6.38356 17.2596,7.3187 3.2942,0.39745 7.7084,1.59954 9.8092,2.67129 l 3.8196,1.94865 -3.0592,3.48426 c -5.5368,6.30606 -4.6655,6.88576 15.9408,10.60596 16.9856,3.0666 46.9157,3.0651 85,0 15.125,-1.219 36.05,-2.8932 46.5,-3.7205 29.9796,-2.37344 40.2904,-3.90024 97,-14.36349 13.6963,-2.52706 31.9836,-5.47344 48.25,-7.7739 l 4.25,-0.60105 v 7.09738 7.09738 l -3.75,0.99584 c -2.0625,0.54771 -13.2624,2.58796 -24.8887,4.5339 -11.6262,1.94594 -28.1106,4.87244 -36.6318,6.50344 -42.2424,8.0852 -56.6821,9.9089 -107.2295,13.5428 -64.3378,4.6255 -68.6229,4.7995 -86.3224,3.5058 -8.9773,-0.6562 -16.5535,-0.9621 -16.8359,-0.6796 -0.2824,0.2824 0.9279,2.0123 2.6896,3.8442 7.3371,7.6295 15.7306,19.7573 22.3721,32.3252 14.3699,27.19333 24.7698,77.69493 18.7409,91.00563 -0.9964,2.2 -2.1201,5.2375 -2.4971,6.75 -1.0786,4.328 -2.3105,3.2793 -4.6988,-4 z m -913.902,-7.0498 c -2.5921,-2.5921 -3.0464,-3.8006 -3.0464,-8.1042 0,-4.6014 0.2326,-5.1163 2.577,-5.7047 1.4969,-0.3757 3.6635,-0.069 5.1689,0.731 2.9037,1.5435 8.2541,8.414 8.2541,10.5992 0,2.2738 -2.7034,4.3561 -6.4434,4.963 -2.9249,0.4747 -3.9378,0.088 -6.5102,-2.4843 z m 41.8384,0.443 c -13.4971,-5.5533 -32.4172,-21.6023 -40.8407,-34.6432 -6.0932,-9.4333 -11.3898,-21.0218 -15.0829,-33 -2.34,-7.5896 -4.1463,-11.5149 -6.5167,-14.16153 -1.8037,-2.0139 -3.8237,-4.7139 -4.4888,-6 -1.2184,-2.3559 -5.6853,-6.7446 -11.7275,-11.5221 -3.0502,-2.4119 -3.3941,-2.4763 -5.0787,-0.9517 -2.2914,2.0737 -6.029,2.1129 -6.8123,0.072 -0.3301,-0.86 -0.095,-2.6725 0.5225,-4.0277 1.5241,-3.345 0.1068,-5.4002 -6.4752,-9.3893 -3.4035,-2.0627 -5.9571,-2.9722 -7.2198,-2.5715 -1.4247,0.4522 -1.9146,0.1737 -1.8092,-1.0287 0.099,-1.1324 -1.578,-2.3008 -5.3555,-3.7308 -3.025,-1.145 -5.7631,-2.462 -6.0846,-2.9265 -0.3216,-0.4646 -4.9886,-1.3232 -10.3711,-1.9081 -9.2871,-1.0092 -9.9204,-0.9564 -12.4153,1.0349 -7.2517,5.7877 -11.7961,6.1968 -10.7502,0.9676 0.6121,-3.0608 0.3942,-3.1832 -5.1288,-2.8808 -1.7875,0.098 -3.25,-0.2762 -3.25,-0.8313 0,-0.5551 -0.9,-1.2949 -2,-1.644 -2.762,-0.8766 -2.5061,-2.3026 0.4816,-2.6836 2.872,-0.3662 26.5184,-25.13448 26.5184,-27.77656 0,-1.18731 -2.5719,-2.32718 -9.761,-4.32601 -13.2863,-3.6941 -16.6358,-3.6045 -20.0407,0.53608 -6.8078,8.27874 -14.3456,15.40571 -21.528,20.35489 -4.3064,2.9673 -8.0582,5.3952 -8.3374,5.3952 -0.2792,0 4.393,-5.5126 10.3827,-12.25009 11.9073,-13.39388 16.8572,-19.84923 22.8122,-29.75 5.1582,-8.57605 19.3522,-27.34735 28.8581,-38.16423 4.1878,-4.76533 7.6141,-9.12045 7.6141,-9.67805 0,-0.93984 -10.7404,-2.85489 -11.3775,-2.02866 -0.1573,0.20402 -3.1668,4.19594 -6.6877,8.87094 -8.6192,11.44442 -27.6855,33.96585 -35.6818,42.14806 -3.5734,3.65643 -6.2287,7.0822 -5.9008,7.61282 0.328,0.53063 2.6458,1.5386 5.1507,2.23994 2.505,0.70134 4.3649,1.4647 4.1333,1.69635 -0.2317,0.23166 -2.964,-0.318 -6.0718,-1.22146 l -5.6505,-1.64266 -10.5724,9.83348 c -11.30131,10.51144 -20.56791,18.44046 -21.02131,17.98696 -0.1528,-0.1527 5.8797,-6.43523 13.4056,-13.96107 8.48141,-8.48147 13.32041,-14.02974 12.72871,-14.59457 -0.525,-0.50118 -4.7111,-1.91443 -9.3026,-3.14056 l -8.34811,-2.22933 -14.6519,15.02397 c -8.05845,8.26319 -15.71265,15.56609 -17.00925,16.22866 -3.8056,1.9448 -4.4283,-0.15193 -1.3922,-4.68792 4.1567,-6.21027 17.71525,-23.60432 19.65285,-25.21246 0.9383,-0.77865 2.1512,-2.24772 2.6954,-3.2646 0.8508,-1.58975 0.341,-2.12687 -3.6375,-3.83225 -2.5449,-1.09085 -5.2306,-1.98336 -5.9684,-1.98336 -0.7377,0 -5.94935,6.12805 -11.58145,13.61789 -5.632,7.48984 -13.3161,16.93539 -17.0757,20.99012 -3.7596,4.05472 -6.8356,7.82068 -6.8356,8.36868 0,1.5556 6.7713,4.075 15,5.581 8.8534,1.6203 21.01645,1.7805 33.49995,0.4413 4.95,-0.531 11.925,-0.664 15.50001,-0.2955 l 6.5,0.6699 -13.00001,1.7335 c -25.63525,3.4184 -40.60755,4.2864 -50.20345,2.9107 -4.8381,-0.6936 -9.8061,-1.2541 -11.0399,-1.2455 -1.2339,0.01 -1.998,-0.3815 -1.6981,-0.8667 0.2999,-0.4853 -0.1314,-0.6227 -0.9586,-0.3053 -2.313,0.8876 -10.9469,-4.3008 -16.6185,-9.9867 -8.1479,-8.16821 -12.2818,-18.58758 -13.5449,-34.13895 -1.4711,-18.11277 4.7594,-38.93236 15.0047,-50.13916 l 4.4204,-4.83528 -4.3097,13 c -4.6423,14.00308 -6.0506,19.85427 -4.6525,19.33036 0.4848,-0.1817 7.1949,-9.78036 14.9113,-21.33036 7.7163,-11.55 16.3728,-23.88581 19.2367,-27.41292 l 5.207,-6.41291 -37.1099,0.62272 -37.1099,0.62273 -20.7673,-2.98251 c -11.422,-1.64038 -23.0065,-3.71724 -25.7433,-4.61525 -7.30548,-2.39707 -30.24078,-13.08813 -36.02403,-16.79222 -8.99077,-5.75846 -20.34184,-15.51992 -28.24434,-24.28898 -17.62786,-19.56085 -20.10001,-22.134 -27.75566,-28.88964 -5.59511,-4.93733 -9.65336,-9.67469 -13.5,-15.75907 -3.025,-4.78477 -8.35739,-12.61286 -11.84976,-17.39576 -11.12913,-15.2417 -17.77671,-30.92378 -21.48992,-50.69619 -2.41978,-12.88498 -2.46314,-13.8968 -1.65013,-38.5 0.73269,-22.17222 0.95463,-24.11702 3.92813,-34.42056 5.39466,-18.69321 15.77184,-36.11634 30.32064,-50.90793 6.72461,-6.83683 9.80512,-9.12868 16.74104,-12.45507 17.63279,-8.45649 26.13992,-11.14854 46.5,-14.71476 8.25,-1.44505 18.375,-3.55017 22.5,-4.67805 9.49223,-2.59541 31.00583,-3.43965 50.50003,-1.98171 13.6333,1.01962 14.2186,1.15943 22.35,5.33899 8.3319,4.28261 13.5545,8.35545 12.6308,9.85009 -0.2684,0.43422 -3.5238,1.28552 -7.2344,1.89177 -5.6162,0.91762 -7.6678,0.83095 -12.2464,-0.51735 -4.0843,-1.20271 -11.479,-1.75058 -28.7273,-2.12839 -22.46196,-0.49201 -23.58225,-0.42338 -34.00001,2.0827 -5.925,1.4253 -16.17272,3.52479 -22.77272,4.66552 -18.38227,3.17716 -28.5371,6.46087 -43.94459,14.21014 -9.00913,4.53118 -18.93612,15.62855 -29.31611,32.77243 -4.63308,7.65212 -7.23353,14.36763 -10.06496,25.99218 -1.75267,7.19565 -2.10137,12.10613 -2.27236,32 l -0.20199,23.5 3.1787,12 c 3.77872,14.26514 9.8218,27.61448 16.41088,36.2521 2.63426,3.45325 7.6344,10.65922 11.11142,16.01327 4.68778,7.21844 8.87783,12.06093 16.21043,18.73463 5.43872,4.95 12.08305,11.475 14.76518,14.5 19.40034,21.88039 30.07033,30.42497 49.5969,39.71744 18.29913,8.70836 21.76613,9.73939 42.61883,12.6742 l 18.0923,2.54633 54.4077,-0.93908 c 55.57685,-0.95926 57.41885,-1.09189 74.52526,-5.36614 5.4353,-1.35807 13.7074,-3.23185 18.3824,-4.16396 14.9297,-2.97671 41.9302,-11.87296 57.0173,-18.78634 3.0345,-1.39051 7.9845,-3.49361 11,-4.67356 3.0155,-1.17995 6.3827,-2.71813 7.4827,-3.41819 1.1,-0.70006 6.95,-3.88617 13,-7.08025 6.05,-3.19408 14.375,-8.21668 18.5,-11.16135 34.2867,-24.47585 50.0022,-33.13027 68.5,-37.72247 6.6435,-1.6493 34.3036,-5.62663 39.13,-5.62663 8.2779,0 11.8329,-4.10058 18.8945,-21.79455 4.2917,-10.75352 4.4063,-16.45424 0.5329,-26.49979 -2.6004,-6.74395 -5.31,-8.88874 -17.9804,-14.23243 -10.4698,-4.41562 -22.1071,-10.22671 -24.1606,-12.0646 -1.8778,-1.68124 -4.1364,-8.40913 -2.8228,-8.40913 0.4985,0 0.9064,-0.62041 0.9064,-1.37868 0,-2.09274 5.374,-3.91323 9.184,-3.11115 4.3388,0.91341 31.1035,11.98893 36.5734,15.13449 9.8838,5.6839 15.4245,15.05874 18.1968,30.789 1.8165,10.30669 1.3452,14.77056 -2.5093,23.7679 -1.9553,4.56414 -4.3178,10.08562 -5.25,12.26995 -0.9322,2.18433 -3.1254,6.34815 -4.8737,9.25292 -3.7302,6.19753 -4.527,5.34303 10.0865,10.81738 10.9174,4.08974 13.906,4.15673 4.5569,0.10214 -3.3471,-1.45158 -5.8383,-3.03931 -5.5361,-3.52828 0.3022,-0.48898 -0.088,-1.41771 -0.8661,-2.06385 -2.1598,-1.79251 -0.087,-6.59178 3.4858,-8.0718 5.015,-2.07728 11.8629,0.11643 34.7167,11.12143 16.7813,8.08089 24.6348,15.51429 35.4387,33.54325 4.2369,7.07042 8.3615,14.43759 9.1657,16.37149 2.5508,6.13422 7.8342,34.05677 7.176,37.9247 -1.617,9.50135 -5.259,24.12396 -9.7959,39.331 -4.8038,16.10135 -4.9771,17.10086 -4.3352,25 0.3678,4.52546 1.044,19.92811 1.5027,34.22811 0.4668,14.55327 1.4171,28.64159 2.1586,32.00009 0.7928,3.591 1.3387,12.6247 1.3597,22.5 0.033,15.5025 -0.1319,16.9745 -2.7264,24.3493 -7.6645,21.78673 -21.204,43.07923 -32.207,50.64953 -2.355,1.6202 -7.9779,7.2425 -12.4955,12.4939 -8.996,10.4573 -10.9994,11.9768 -14.5994,11.0733 -3.2289,-0.8104 -3.0856,-4.0497 0.3841,-8.6858 8.3027,-11.0939 19.0713,-24.8289 22.0617,-28.1389 5.4228,-6.0024 2.8213,-5.5808 -3.8871,0.63 -3.3525,3.1039 -10.4538,9.1052 -15.7806,13.3362 -5.3267,4.2311 -11.935,9.7945 -14.685,12.3632 -5.1247,4.7869 -10.2384,7.9293 -12.9033,7.9293 -1.9301,0 -3.7609,-6.4442 -2.6522,-9.3351 0.9637,-2.5127 11.1988,-12.6851 18.8055,-18.6903 2.8875,-2.2796 5.25,-4.4986 5.25,-4.931 0,-0.4325 -3.7125,-0.7317 -8.25,-0.665 -4.5375,0.067 -11.175,-0.2407 -14.75,-0.6832 l -6.5,-0.8046 -9.25,9.0752 c -5.0875,4.9913 -9.25,9.4566 -9.25,9.9228 0,0.8988 10.2967,4.0675 13.5656,4.1746 1.5846,0.052 1.4823,0.2497 -0.5656,1.0935 -1.375,0.5666 -6.4665,1.062 -11.3144,1.1008 l -8.8144,0.071 -6.6856,7.3903 c -3.6771,4.0646 -7.6848,9.0658 -8.906,11.1137 l -2.2204,3.7236 2.7204,2.7643 c 1.4962,1.5203 3.5162,3.3078 4.4887,3.972 1.5503,1.0589 1.3653,1.2101 -1.5,1.2262 -1.7975,0.01 -5.5183,0.3371 -8.2683,0.7267 -4.0442,0.5729 -6.0734,0.2667 -10.6152,-1.6019 z m 5.4597,-19.8932 c 1.9953,-2.8875 4.3587,-6.2547 5.2521,-7.4827 1.5492,-2.1294 1.5085,-2.2769 -0.8793,-3.1847 -6.395,-2.4314 -9.089,-2.278 -12.2173,0.6955 -1.65,1.5684 -4.2541,3.6725 -5.7869,4.6759 -1.5328,1.0034 -2.6578,2.2069 -2.5,2.6743 0.3884,1.1505 10.0058,7.7475 11.3953,7.8166 0.6097,0.03 2.7409,-2.3074 4.7361,-5.1949 z m -20.5119,-13.6914 c 1.7421,-2.1677 3.1674,-4.4035 3.1674,-4.9684 0,-0.5649 -2.4008,-2.8007 -5.3352,-4.9685 -5.2675,-3.8913 -10.6648,-9.5045 -10.6648,-11.0914 0,-1.5296 -3.0735,-2.0013 -5.0395,-0.7735 -1.0783,0.6733 -1.9605,1.9345 -1.9605,2.8025 0,3.3088 13.5916,22.9407 15.8824,22.9407 0.4306,0 2.2082,-1.7736 3.9502,-3.9414 z m 45.8986,-15.2888 c 5.0978,-5.0767 9.2688,-9.5593 9.2688,-9.9613 0,-0.9304 -9.6888,-3.8351 -12.4315,-3.7269 -1.9891,0.078 -15.8285,14.8264 -17.1537,18.2799 -0.4381,1.1416 0.6364,1.9036 4.2494,3.0136 2.6597,0.8171 5.2773,1.5169 5.817,1.5552 0.5397,0.038 5.1522,-4.0839 10.25,-9.1605 z m -29.1308,-4.5198 c 2.1127,-2.6125 5.537,-6.55 7.6096,-8.75 2.0727,-2.2 3.7733,-4.5295 3.7792,-5.1767 0.01,-0.6472 -2.5767,-2.3607 -5.7392,-3.8078 -3.1625,-1.4471 -7.9177,-4.0213 -10.567,-5.7205 -4.0722,-2.61183 -5.0111,-2.87353 -6.072,-1.6923 -8.6644,9.6471 -12.749,15.0953 -12.2642,16.3586 0.7097,1.8494 16.3539,13.5387 18.1193,13.5387 0.7112,0 3.0215,-2.1375 5.1343,-4.75 z m 93.0088,-5.4583 c 2.6899,-2.3146 12.028,-11.5396 20.7513,-20.50003 8.7233,-8.9604 16.4754,-16.2917 17.2269,-16.2917 3.0089,0 4.5361,-4.7061 5.1202,-15.7777 0.3186,-6.0392 0.1774,-11.1668 -0.3155,-11.461 -1.4887,-0.8883 -54.7054,42.2032 -67.7095,54.82683 -3.7496,3.6399 -6.5983,7.1893 -6.3303,7.8876 0.4085,1.0647 5.7299,2.6695 16.1477,4.8699 6.9125,1.46 10.1736,0.6929 15.1092,-3.5539 z m -40.8702,-11.5417 c 4.3574,-3.7125 12.8362,-10.43293 18.8418,-14.93423 6.0055,-4.5013 19.2442,-14.4207 29.4192,-22.0432 10.175,-7.6224 20.75,-15.5926 23.5,-17.7114 2.75,-2.1189 6.4625,-4.468 8.25,-5.2203 1.7875,-0.7522 3.2494,-1.4742 3.2486,-1.6043 -7e-4,-0.1301 -0.6751,-4.0616 -1.4986,-8.7367 -0.8235,-4.67499 -1.4979,-12.18593 -1.4986,-16.69097 -8e-4,-4.50504 -0.3907,-8.43156 -0.8664,-8.72561 -0.4758,-0.29404 -4.8464,3.84191 -9.7125,9.19099 -12.0573,13.25399 -51.9957,53.15309 -62.3508,62.28939 -4.6356,4.09 -11.3856,10.1927 -15,13.5617 -3.6144,3.36903 -8.0342,7.34653 -9.8217,8.83893 -1.7875,1.4924 -3.25,3.2909 -3.25,3.9965 0,1.098 8.1479,4.2141 11.6582,4.4585 0.6371,0.044 4.7234,-2.9568 9.0808,-6.6693 z m -91.0872,2.8901 c 1.0165,-1.5729 4.7732,-6.1133 8.3482,-10.0897 8.6209,-9.58883 8.7825,-9.92563 5.8816,-12.25863 l -2.3816,-1.9154 3.8575,0.3736 c 3.7639,0.3644 4.0293,0.1659 10.9463,-8.1883 11.0707,-13.3708 22.4076,-24.6356 31.9462,-31.743 8.1525,-6.0747 10.7055,-9.3188 7.3333,-9.3188 -0.7791,0 -1.5666,-0.3375 -1.75,-0.75 -0.5257,-1.183 -10.6379,-6.24999 -12.473,-6.24999 -2.1795,0 -10.5476,6.88799 -9.8127,8.07709 0.3141,0.5082 2.5771,1.4292 5.0288,2.0465 7.1565,1.802 5.9239,2.5367 -2.6443,1.5762 l -7.9319,-0.8892 -7.2482,5.3448 c -8.1555,6.0137 -8.4815,6.275 -18.4834,14.8155 -7.2462,6.1874 -21.5501,22.3582 -23.4336,26.492 -0.813,1.7842 -0.4241,3.1156 2.0486,7.0147 1.6786,2.6469 3.8015,7.10973 4.7176,9.91753 1.7276,5.2951 3.203,8.605 3.8358,8.605 0.2016,0 1.1983,-1.287 2.2148,-2.8599 z m 62.4151,-11.4112 c 3.5382,-3.44903 15.773,-14.80443 27.1884,-25.23423 11.4153,-10.4298 20.622,-19.3628 20.4592,-19.8512 -0.4834,-1.4503 -26.997,-10.2192 -29.7145,-9.8276 -4.2944,0.619 -47,45.7786 -47,49.7008 0,1.3339 18.9208,11.48333 21.4074,11.48333 0.6746,0 4.1213,-2.822 7.6595,-6.2711 z m -79.8387,-29.00833 c 3.1361,-4.0037 7.0677,-8.5879 8.7369,-10.1871 1.6692,-1.5992 3.0349,-3.2373 3.0349,-3.6402 0,-0.4029 -2.3625,-1.5093 -5.25,-2.4586 -2.8875,-0.9493 -5.8141,-1.9342 -6.5035,-2.1887 -1.2797,-0.4723 -17.2465,14.3544 -17.2465,16.015 0,1.1785 9.179,9.647 10.5131,9.6993 0.5572,0.022 3.579,-3.236 6.7151,-7.2397 z m -17.3394,-15.4843 c 8.3521,-7.6427 8.4175,-7.2074 -1.7519,-11.6625 l -6.363,-2.7875 -5.887,5.8256 c -3.2378,3.204 -5.869,6.2896 -5.847,6.8568 0.044,1.1365 9.8634,8.4026 11.4601,8.4801 0.55,0.027 4.3249,-2.994 8.3888,-6.7125 z m 42.942,-9.7749 10.3307,-8.4633 -4.8307,-2.0725 c -8.8844,-3.8116 -8.9442,-3.79689 -18.5808,4.5716 -4.8125,4.1792 -8.75,8.0015 -8.75,8.494 0,1.1817 8.0784,5.9978 10,5.9617 0.825,-0.015 6.1488,-3.8366 11.8308,-8.4915 z m -62.9191,-1.1046 c 2.2486,-2.8287 4.0883,-5.6083 4.0883,-6.1768 0,-1.8152 -6.2517,-4.28371 -9.2058,-3.63489 -1.5242,0.33479 -3.028,1.02409 -3.3417,1.53179 -0.3138,0.5076 -1.2093,0.923 -1.9901,0.923 -1.1553,0 -1.2052,-0.4703 -0.2681,-2.52712 1.3945,-3.06065 0.7508,-3.80233 -5.1943,-5.98481 -8.5651,-3.14428 -7.9943,-3.35689 -15.2672,5.68633 -3.6827,4.5791 -6.8167,8.7747 -6.9643,9.3236 -0.1478,0.5491 1.9801,1.084 4.7315,1.1894 8.7498,0.3352 14.8326,1.4128 21,3.72 3.3,1.2345 6.5228,1.9854 7.1617,1.6687 0.6389,-0.3168 3.0014,-2.8904 5.25,-5.7192 z m 186.1441,-8.4246 c 7.9443,-7.18724 18.9204,-16.52474 24.3913,-20.75 16.4279,-12.68749 15.5529,-11.40627 15.5529,-22.77345 0,-8.28762 -1.5219,-22.08577 -2.5663,-23.26699 -0.1742,-0.19698 -2.8204,1.80343 -5.8806,4.44537 -4.2496,3.66888 -5.4192,5.25928 -4.9515,6.733 0.6793,2.14018 -0.9693,3.62445 -4.1016,3.69278 -1.1,0.024 -4.25,2.11779 -7,4.65286 -2.75,2.53508 -6.9125,6.3566 -9.25,8.49228 -2.3375,2.13568 -4.2483,4.21128 -4.2463,4.61246 0,0.40117 1.9694,1.53762 4.3719,2.52545 2.4025,0.98783 5.1883,2.39578 6.1907,3.12877 1.7423,1.27398 1.7455,1.45042 0.072,4.00368 -1.2807,1.95466 -2.2821,2.5021 -3.734,2.0413 -1.0911,-0.34631 -4.3286,-0.7706 -7.1943,-0.94287 -2.8658,-0.17226 -6.4276,-0.62996 -7.9152,-1.0171 -2.3953,-0.62338 -4.5401,0.76179 -18.75,12.10904 -8.8249,7.04712 -16.0453,13.07122 -16.0453,13.38692 0,0.9695 22.3672,11.8162 24.5558,11.908 1.3038,0.055 7.34,-4.6943 16.5,-12.9815 z m -238.3725,8.5771 c 1.1705,-0.8199 5.7706,-5.7249 10.2225,-10.89985 7.3455,-8.53869 9.3096,-11.60954 7.4254,-11.60954 -0.7613,0 -21.6539,21.80589 -22.1645,23.13349 -0.5311,1.3806 2.1916,1.0044 4.5166,-0.6241 z m 94.103,-8.6178 c 5.8153,-4.98211 7.9992,-7.44511 7.3235,-8.25933 -0.5296,-0.63811 -4.6259,-2.94609 -9.1028,-5.12885 l -8.1399,-3.96865 -6.9336,7.11424 c -3.8134,3.91283 -6.9335,7.52511 -6.9335,8.02729 0,0.78879 13.6299,9.2326 15,9.2926 0.275,0.012 4.2288,-3.1728 8.7863,-7.0773 z M 946.02014,924.551 c 4.414,-6.9357 11.3851,-17.01601 15.4914,-22.40069 7.4396,-9.75588 7.458,-9.79549 5.25,-11.2616 -2.7902,-1.85258 -2.9258,-3.67763 -0.1635,-2.19928 1.1288,0.60413 2.6656,0.95746 3.415,0.78518 1.9793,-0.45499 19.74555,-23.00834 18.81615,-23.88609 -0.7927,-0.74867 -13.7905,-4.92714 -15.3266,-4.92714 -0.4579,0 -7.32335,8.6625 -15.25675,19.25 -7.9335,10.5875 -19.7001,25.2549 -26.1481,32.59423 l -11.7237,13.34423 2.3358,2.53946 c 4.0321,4.38373 11.2529,9.27657 13.3103,9.01907 1.3198,-0.1651 4.6357,-4.42845 10,-12.85737 z m 251.77546,4.0313 c 3.1625,-2.24349 5.75,-4.60727 5.75,-5.25284 0,-1.19 -11.178,-8.66808 -12.9568,-8.66808 -1.347,0 -13.5432,10.99666 -13.5432,12.21123 0,1.15694 10.0712,5.57402 13,5.70163 1.1,0.0479 4.5875,-1.74844 7.75,-3.99194 z m 52.6591,-0.0863 c 17.9442,-13.36913 26.1208,-20.23787 24.8973,-20.91511 -2.0784,-1.15044 -20.1009,-5.91962 -22.3064,-5.90279 -1.1,0.008 -3.3972,1.24557 -5.105,2.74928 -1.7077,1.50372 -7.2202,6.23182 -12.25,10.50689 -5.0297,4.27507 -9.145,8.24003 -9.145,8.81102 0,0.96653 15.3968,8.82769 17.4091,8.8886 0.5001,0.0151 3.4251,-1.84692 6.5,-4.13789 z m -122.9178,-1.58462 c 1.822,-2.0625 4.7068,-5.24569 6.4107,-7.07375 l 3.098,-3.32375 -2.3608,-1.92625 c -4.1321,-3.37157 -6.4249,-2.49966 -13.0362,4.95759 -3.3567,3.78611 -6.103,7.14674 -6.103,7.46806 0,0.87888 5.2725,3.56229 7.0893,3.60806 0.8741,0.022 3.08,-1.64746 4.902,-3.70996 z m -12.2055,-10.56992 c 3.3301,-4.02596 5.7532,-7.78754 5.3845,-8.35907 -0.3687,-0.57154 -2.3578,-1.64297 -4.4203,-2.38097 -4.4607,-1.59612 -4.7142,-2.62061 -1,-4.04179 1.9542,-0.74774 3.8412,-0.72717 6.5206,0.0711 2.0738,0.61782 4.2361,0.83555 4.8052,0.48385 1.0467,-0.64688 15.9242,-18.25746 15.9242,-18.84953 0,-0.91095 -11.2054,-7.59469 -11.9555,-7.13113 -1.1481,0.70958 -33.298,38.26601 -34.3526,40.12953 -0.6098,1.07762 0.7396,2.16015 5.5,4.41219 3.4695,1.64131 6.5851,2.98457 6.9236,2.985 0.3385,4.3e-4 3.3401,-3.29318 6.6703,-7.31913 z m 60.3304,0.21694 c 3.7861,-3.35665 6.8838,-6.44504 6.8838,-6.86309 0,-1.03176 -15.8097,-11.03393 -17.4405,-11.03393 -1.3653,0 -15.5595,13.86921 -15.5595,15.20318 0,1.0831 15.095,8.68599 17.3662,8.74683 1.0263,0.0275 4.9638,-2.69635 8.75,-6.05299 z m -255.54766,1.35298 c 0.9892,-1.5125 7.049,-9.05 13.4663,-16.75 6.4172,-7.7 16.2908,-20.26495 21.9414,-27.9221 9.5266,-12.90989 10.1415,-14.01865 8.4576,-15.25 -0.9989,-0.73035 -2.3682,-1.3279 -3.0431,-1.3279 -0.6749,0 -1.8939,-0.25586 -2.7088,-0.56858 -1.0202,-0.39148 -3.6435,2.33409 -8.4219,8.75 -7.8597,10.55337 -14.26,18.33392 -14.26,17.33528 0,-0.36989 3.2093,-5.92497 7.1317,-12.34461 10.3995,-17.0201 10.5667,-17.34659 9.1512,-17.86827 -0.6694,-0.2467 -2.8008,-1.52328 -4.7365,-2.83684 l -3.5193,-2.3883 -10.4495,14.71066 c -5.7472,8.09086 -13.2064,18.08566 -16.576,22.21066 l -6.1266,7.5 0.5545,8.07025 c 0.474,6.89897 3.0071,17.09115 5.0821,20.44857 1.0067,1.62887 2.1651,1.12382 4.0569,-1.76882 z m 299.56926,-3.89544 c 8.8828,-6.03891 19.8625,-14.42135 19.858,-15.16066 0,-0.71287 -21.5843,-7.1939 -23.9536,-7.1939 -1.4092,0 -17.5422,14.96839 -17.5422,16.27585 0,0.7601 14.3781,9.69058 15.6378,9.71287 0.3508,0.006 3.0508,-1.62917 6,-3.63416 z m -108.6929,-28.35456 c 23.3569,-27.0095 30.0329,-34.42864 58.0323,-64.49233 14.8929,-15.99095 40.2777,-42.14433 49.7728,-51.27986 3.1625,-3.04274 5.75,-5.8619 5.75,-6.26481 0,-0.4029 -2.5367,-1.04949 -5.6371,-1.43686 -3.1003,-0.38737 -7.7128,-1.33142 -10.25,-2.0979 -2.5371,-0.76648 -5.2879,-1.13934 -6.1129,-0.82857 -1.79,0.67425 -8.4724,8.26123 -7.8365,8.89718 0.244,0.24398 2.8945,1.07082 5.8901,1.83744 3.3049,0.84579 5.4464,1.93879 5.4464,2.77978 0,1.07469 -1.9474,1.38593 -8.6719,1.38593 -8.2057,0 -8.8355,0.15607 -11.7144,2.90302 -1.6734,1.59667 -2.807,3.28417 -2.5191,3.75 0.2879,0.46584 2.6344,0.85699 5.2144,0.86922 l 4.691,0.0222 -2.5,1.94083 c -1.375,1.06745 -4.525,2.23123 -7,2.58616 -2.475,0.35493 -5.4673,1.25229 -6.6495,1.99412 -3.0082,1.88768 -26.0153,30.81406 -36.5346,45.93442 -1.9132,2.75 -8.8147,12.875 -15.3367,22.5 -15.0288,22.17906 -19.5952,28.60409 -31.1362,43.8092 -5.1387,6.77005 -9.343,12.54055 -9.343,12.82332 0,2.298 5.8297,-3.79347 26.4449,-27.63252 z m -31.9387,25.23469 c 4.3666,-3.1882 22.789,-27.77754 41.0074,-54.73469 24.0784,-35.62788 29.7905,-43.99941 31.7193,-46.4874 l 1.9284,-2.4874 -8.788,-1.34665 -8.7879,-1.34664 -7.5427,7.87142 c -14.7786,15.42272 -38.1133,41.25696 -53.1078,58.79667 -8.9108,10.42323 -26.9349,33.18907 -26.9349,34.02078 0,0.26357 1.3206,0.47922 2.9346,0.47922 3.4654,0 14.6983,2.32652 21.0654,4.36298 5.6007,1.79134 5.3016,1.75126 6.5062,0.87171 z m 72.0173,-8.29755 7.9765,-8.06287 -3,-2.43217 c -1.65,-1.33769 -3.7322,-2.4344 -4.6271,-2.43713 -1.5189,-0.005 -17.5798,16.67921 -16.7515,17.40118 1.0142,0.88391 6.5018,3.51859 7.4021,3.55381 0.5629,0.022 4.6129,-3.58825 9,-8.02282 z m -126.5235,-7.16129 c 13.8596,-16.36301 16.3325,-19.73262 14.804,-20.17219 -3.8256,-1.10014 -12.3059,-2.60366 -14.6855,-2.60366 -2.224,0 -4.9386,2.42005 -14.6737,13.08192 -6.5696,7.19505 -12.07181,13.6239 -12.22701,14.28632 -0.2364,1.00898 12.78931,6.23938 16.28221,6.53803 0.55,0.047 5.275,-4.96166 10.5,-11.13042 z m 174.1123,0.56788 c 4.3383,-3.66094 7.8877,-6.92573 7.8877,-7.25509 0,-0.32935 -2.7169,-1.65234 -6.0377,-2.93997 -3.3207,-1.28764 -7.3231,-3.42285 -8.8943,-4.74491 -4.5584,-3.83564 -6.8735,-3.16279 -14.0575,4.08564 -4.0073,4.0433 -6.0696,6.83198 -5.4711,7.39826 2.0093,1.90111 16.0226,10.0596 17.3229,10.08536 0.7493,0.0148 4.9118,-2.96834 9.25,-6.62929 z m 99.5831,-4.43057 c 4.8425,-3.89777 8.9459,-7.47177 9.1187,-7.94224 0.1727,-0.47046 -1.9867,-1.53863 -4.7987,-2.3737 -2.812,-0.83508 -7.8043,-2.88608 -11.094,-4.55777 -3.2897,-1.6717 -6.5999,-3.03945 -7.3561,-3.03945 -1.9805,0 -20.8935,17.08884 -19.8984,17.97918 0.4582,0.40994 3.7581,1.46292 7.3331,2.33994 3.575,0.87703 8.3,2.2573 10.5,3.06728 2.2,0.80997 4.7629,1.50438 5.6954,1.54314 0.9325,0.0388 5.6575,-3.11862 10.5,-7.01638 z m -300.97051,-5.16316 c 4.99281,-5.6375 10.02221,-11.24368 11.17651,-12.45819 2.3306,-2.45229 2.7758,-5.25964 0.8486,-5.35118 -0.6875,-0.0327 -4.1762,-0.27205 -7.7527,-0.53198 l -6.50271,-0.4726 -9.2473,11.57606 c -5.086,6.36684 -9.2473,12.13824 -9.2473,12.82533 0,1.23783 7.0452,4.4472 10.0735,4.58892 0.8654,0.0405 5.6586,-4.53886 10.6514,-10.17636 z m 268.21051,-6.78586 c 6.0855,-4.96972 11.0646,-9.42717 11.0646,-9.90545 0,-1.10728 -17.6562,-14.05869 -19.1657,-14.05869 -2.4318,0 -31.2981,24.94532 -30.1536,26.05779 0.8972,0.87211 22.7875,6.77585 25.5047,6.87853 0.927,0.035 6.6645,-4.00246 12.75,-8.97218 z m -93.0352,1.63659 c 3.4883,-3.51959 6.07,-6.83987 5.7372,-7.3784 -0.3328,-0.53852 -2.2409,-1.75535 -4.2401,-2.70405 l -3.635,-1.72491 -6.3812,6.32443 c -3.5096,3.47843 -6.3811,6.7957 -6.3811,7.37169 0,1.29282 4.9454,4.44764 7.0289,4.4839 0.8409,0.0146 4.383,-2.85306 7.8713,-6.37266 z m 63.3498,-16.37198 c 8.6625,-7.37087 15.75,-13.72806 15.75,-14.1271 0,-0.98678 -4.3378,-4.06642 -11.25,-7.98703 -7.3692,-4.17982 -7.4286,-5.56767 -0.2063,-4.82226 3.6857,0.3804 7.7427,1.78088 12.1049,4.17864 l 6.5612,3.60647 6.6451,-5.16687 c 3.6548,-2.84178 9.9076,-7.63873 13.8951,-10.6599 3.9875,-3.02116 7.25,-5.89227 7.25,-6.38024 0,-0.48797 -3.9059,-2.69176 -8.6798,-4.89731 -4.7739,-2.20555 -10.1439,-5.12678 -11.9333,-6.49162 -1.7894,-1.36484 -3.9023,-2.48153 -4.6954,-2.48153 -2.9187,0 -67.6915,58.37874 -67.6915,61.00938 0,0.41654 0.7875,1.00118 1.75,1.29919 0.9625,0.29801 6.25,2.09111 11.75,3.98466 5.5,1.89356 10.675,3.19404 11.5,2.88996 0.825,-0.30408 8.5875,-6.58358 17.25,-13.95444 z m -60.709,-16.20097 c 35.2943,-37.27534 64.1298,-66.18224 73.459,-73.64084 14.8436,-11.86729 38.1344,-26.58583 39.6583,-25.06193 1.1233,1.12327 -3.8055,6.55462 -16.3435,18.01005 -7.0482,6.43953 -16.6398,15.63602 -21.3148,20.43664 -26.1011,26.80247 -44.5542,45.46977 -58.8921,59.57573 -8.8593,8.71609 -16.1079,16.18236 -16.1079,16.59171 0,0.88532 6.93,3.07212 9.616,3.0344 1.0362,-0.0145 9.984,-7.49226 19.884,-16.61713 28.1957,-25.98805 62.7537,-55.46179 89.7369,-76.53452 l 11.737,-9.16603 -4.9519,-2.82812 c -4.55,-2.59861 -7.022,-5.28214 -7.022,-7.6228 0,-0.5096 3.6841,0.84184 8.1869,3.00319 7.1707,3.44192 8.4741,3.77607 10.5,2.69182 2.9156,-1.56033 2.895,-2.27053 -0.1828,-6.30569 -1.3727,-1.79976 -2.9854,-4.67656 -3.5837,-6.39289 -1.1752,-3.37106 -3.8064,-4.61628 -26.4204,-12.50345 -5.5,-1.91825 -13.5899,-4.92107 -17.9776,-6.67292 -5.5702,-2.22397 -8.8898,-3.00923 -11,-2.60214 -3.4616,0.66776 -21.8606,3.09373 -34.814,4.59034 -17.9253,2.07105 -35.2135,8.93507 -54.2084,21.52266 l -9,5.96414 6.5,0.58616 c 3.7645,0.33947 9.7934,1.91766 14.3256,3.75 4.304,1.74011 8.6002,3.16384 9.547,3.16384 2.4969,0 9.796,-7.73135 8.5117,-9.01571 -0.5603,-0.56029 -4.7515,-1.30655 -9.3138,-1.65837 l -8.2951,-0.63968 3.8623,-2.338 c 4.1304,-2.50028 9.8698,-2.99551 16.6005,-1.43236 3.3315,0.77372 4.093,0.55529 7,-2.00789 1.794,-1.58182 3.6518,-2.88323 4.1284,-2.89202 0.4767,-0.009 0.6356,-0.89942 0.3533,-1.9792 -0.6867,-2.62584 1.6538,-4.39132 5.5757,-4.20592 1.7624,0.0833 8.1306,1.95545 14.1515,4.16031 6.0208,2.20486 11.5063,4.00884 12.19,4.00884 0.6836,0 5.3952,-3.3422 10.4702,-7.42712 5.075,-4.08492 10.1518,-7.66888 11.2817,-7.96436 1.7758,-0.46439 1.7024,-0.23694 -0.5418,1.67712 -4.2075,3.58869 -12.9273,14.7757 -12.3036,15.78485 0.7759,1.25553 8.1164,1.18182 10.5221,-0.10567 2.8264,-1.51262 2.3827,0.51136 -0.5305,2.42017 -1.57,1.02868 -4.6208,1.61501 -8.4034,1.61501 h -5.9385 l -17.9017,18.25 c -29.2168,29.78519 -38.5984,39.72803 -74.3533,78.80096 -16.9071,18.47611 -17.9383,19.65828 -17.9354,20.56087 0,1.22517 9.1407,6.22343 11.0381,6.03842 0.8476,-0.0826 13.6726,-12.96275 28.5,-28.62247 z m 150.0415,21.31064 c 5.4546,-4.21387 10.2534,-8.15137 10.6639,-8.75 0.9188,-1.33994 7.5377,-22.25917 8.3881,-26.51075 l 0.618,-3.09005 -2.8763,1.50003 c -1.7827,0.92974 -5.64,1.50237 -10.1459,1.50619 l -7.2697,0.006 -16.497,15.69981 c -9.0734,8.6349 -16.3432,16.1724 -16.1551,16.75 0.341,1.0472 20.2184,10.42307 22.274,10.50634 0.5954,0.0241 5.5454,-3.40386 11,-7.61773 z m -272.5825,-9.97522 c 4.675,-6.37441 8.6429,-11.96745 8.8175,-12.42897 0.3756,-0.9927 -10.1785,-4.22397 -12.27,-3.75661 -1.732,0.38703 -19.5606,19.84747 -19.517,21.30333 0.034,1.11449 10.5524,6.31486 12.9695,6.41188 0.825,0.0331 5.325,-5.15522 10,-11.52963 z m 238.6012,-2.72949 c 3.2444,-2.95146 10.3988,-9.29631 15.8988,-14.09965 5.5,-4.80335 10.1068,-9.02602 10.2374,-9.38371 0.2362,-0.64698 -21.3296,-7.26018 -23.2374,-7.12579 -1.3548,0.0954 -28.7554,21.21579 -29.1586,22.47544 -0.3435,1.07306 17.3661,13.5 19.2388,13.5 0.6172,0 3.7767,-2.41483 7.021,-5.36629 z m -262.268,-5.90199 c 4.7667,-5.37255 8.6662,-10.32255 8.6654,-11 0,-1.14551 -10.1211,-4.73172 -13.3523,-4.73172 -1.248,0 -4.4291,3.31033 -16.6463,17.32277 -1.375,1.57705 -2.5,3.34824 -2.5,3.93597 0,1.41048 9.2907,4.68651 12.5832,4.43701 1.892,-0.14338 4.9019,-2.80927 11.25,-9.96403 z m -19.9383,-6.75648 c 5.9923,-6.06028 10.7173,-11.17065 10.5,-11.35639 -0.2172,-0.18573 -5.3449,-2.25888 -11.3949,-4.60699 -10.96511,-4.25574 -11.03971,-4.26889 -23.50001,-4.14229 -18.34645,0.18639 -27.99995,1.29842 -27.99995,3.22544 0,0.5813 -2.025,3.68854 -4.5,6.90499 -2.475,3.21645 -4.5,6.24223 -4.5,6.72397 0,0.48173 2.712,1.43604 6.0267,2.12067 4.9071,1.01354 6.254,1.00234 7.25,-0.0603 0.6728,-0.7178 3.8489,-4.33792 7.0579,-8.04472 4.69035,-5.41799 6.40105,-6.73962 8.72355,-6.73962 h 2.8892 l -4.2237,4.25275 c -2.323,2.33901 -5.72825,6.16939 -7.56715,8.51196 l -3.3435,4.25921 3.5614,1.48804 c 1.9587,0.81842 4.0026,1.48804 4.54175,1.48804 0.5393,0 5.3222,-4.30655 10.6287,-9.5701 5.3065,-5.26356 9.8838,-9.33451 10.1718,-9.04656 0.2879,0.28794 -2.343,4.85818 -5.8466,10.15607 -3.5036,5.29789 -6.2895,9.92516 -6.191,10.28282 0.1949,0.70776 12.8833,4.90747 15.3209,5.07104 0.825,0.0554 6.40271,-4.85776 12.39491,-10.91803 z m 82.7483,-5.51143 c 4.5962,-5.24491 8.4853,-9.90534 8.6423,-10.35651 0.157,-0.45117 -2.093,-1.10597 -5,-1.45511 -10.2313,-1.22881 -9.9227,-1.36817 -16.1104,7.27442 -3.1213,4.35964 -5.6751,8.553 -5.6751,9.31857 0,1.47903 5.3896,4.58369 8.1432,4.69087 0.9037,0.0352 5.4037,-4.22734 10,-9.47224 z m -19.3932,-5.91281 c 2.8875,-4.07063 5.25,-7.81364 5.25,-8.31779 0,-0.95572 -6.5633,-3.23321 -9.3176,-3.23321 -1.473,0 -13.6824,13.47633 -13.6824,15.10222 0,0.90734 7.7827,3.72015 10.5,3.7949 1.3771,0.0379 3.6352,-2.25018 7.25,-7.34612 z m -21.5251,-6.27418 c 3.7263,-3.69775 6.7751,-7.24561 6.7751,-7.88414 0,-0.63853 -3.1249,-2.31926 -6.9443,-3.73495 l -6.9442,-2.574 -13.8058,2.96619 c -17.762,3.8162 -19.2836,4.24837 -19.1887,5.45008 0.1243,1.57398 15.0236,6.68154 17.6025,6.03426 1.5155,-0.38037 2.2805,-0.1274 2.2805,0.75414 0,1.00183 8.7916,4.8096 12.9749,5.61964 0.2612,0.0506 3.5237,-2.93347 7.25,-6.63122 z m 288.4594,0.63885 c 1.2815,-1.28144 0.5521,-4.91567 -0.9865,-4.91567 -1.2849,0 -5.6978,4.00743 -5.6978,5.17431 0,1.21537 5.42,1.00565 6.6843,-0.25864 z m -8.1692,-3.01113 c 3.0167,-1.7025 5.4849,-3.46605 5.4849,-3.919 0,-1.72345 -14.5401,-14.06642 -16.0972,-13.66474 -2.4773,0.63908 -18.8136,13.03767 -18.8608,14.31461 -0.041,1.10467 17.1885,6.07654 21.7231,6.26864 1.2459,0.0528 4.7334,-1.29701 7.75,-2.99951 z m -220.1651,-6.65454 c 9.7254,-10.16377 12.8732,-14.00223 11.9258,-14.54243 -0.4267,-0.24331 -3.913,-1.02182 -7.7474,-1.73003 l -6.9717,-1.28764 -7.8848,8.40505 c -4.3367,4.62278 -8.7443,9.60982 -9.7947,11.08231 l -1.9098,2.67726 6.2663,1.48448 c 3.4465,0.81646 6.814,1.52419 7.4835,1.57274 0.6694,0.0485 4.5542,-3.39924 8.6328,-7.66174 z m 236.4783,2.67371 c 1.7212,-7.45664 1.4398,-13.04518 -0.9744,-19.35398 l -2.1462,-5.60823 -2.4915,1.63246 c -1.6981,1.11266 -3.734,1.4658 -6.3938,1.10905 -3.288,-0.44101 -4.5529,-0.0259 -8.0339,2.63678 -2.2723,1.73812 -4.28,3.61227 -4.4615,4.16478 -0.1815,0.55251 4.6206,4.98899 10.6715,9.85884 6.0508,4.86985 11.0015,9.2553 11.0015,9.74543 0,0.49014 0.3727,0.89116 0.8283,0.89116 0.4555,0 1.3555,-2.28433 2,-5.07629 z m -263.3268,-3.17371 c 1.4736,-1.7875 6.0136,-6.66545 10.0889,-10.83989 4.0753,-4.17443 7.4096,-7.84291 7.4096,-8.15217 0,-0.89288 -6.0426,-2.7589 -8.8992,-2.74817 -3.5008,0.0131 -13.8786,4.89148 -12.3783,5.81872 0.7876,0.48675 -0.4281,3.04643 -3.7809,7.96115 -2.7179,3.98405 -4.9416,7.60686 -4.9416,8.05068 0,0.72188 5.6705,2.70784 8.6611,3.03331 0.6386,0.0695 2.3668,-1.33613 3.8404,-3.12363 z m 226.3194,-10.80381 c 14.5248,-10.81979 15.2196,-11.49171 13.3698,-12.92954 -1.0731,-0.83416 -6.067,-4.39212 -11.0976,-7.90659 -5.0306,-3.51446 -8.9469,-6.58957 -8.7029,-6.83356 0.8019,-0.80196 8.9816,3.61366 16.1098,8.69655 3.85,2.74532 7.7736,4.99946 8.7192,5.00922 1.8277,0.0189 9.4692,-3.66912 10.2627,-4.953 0.8757,-1.41683 -18.6247,-27.02927 -20.579,-27.02927 -0.3619,0 -1.2371,0.69778 -1.9449,1.55061 -1.087,1.30972 -0.9506,1.63855 0.8775,2.11664 3.5072,0.91715 2.4788,2.33275 -1.6948,2.33275 -4.0006,0 -4.861,0.55014 -17.2689,11.04239 -2.9545,2.49831 -12.0393,10.09582 -20.1885,16.88335 -8.1491,6.78753 -14.4491,12.65509 -14,13.03903 0.4492,0.38394 2.6167,1.21702 4.8167,1.85129 2.2,0.63426 8.05,2.95233 13,5.15126 4.95,2.19893 9.9,3.86163 11,3.6949 1.1,-0.16673 8.8944,-5.43895 17.3209,-11.71603 z m -240.3964,1.80381 c 4.0574,-3.4375 7.3013,-6.3329 7.2087,-6.43422 -0.3604,-0.39451 -26.6332,8.18949 -26.6332,8.70177 0,0.70813 7.9753,3.70622 10.2737,3.86213 0.9756,0.0662 5.0934,-2.69218 9.1508,-6.12968 z m 92.4884,-12.70988 c 3.337,-4.10293 5.7343,-7.75822 5.3272,-8.12285 -0.407,-0.36463 -3.9898,-0.91793 -7.9616,-1.22954 l -7.2214,-0.56658 -4.5167,4.68943 c -2.4842,2.57918 -4.522,5.20184 -4.5286,5.82813 -0.01,0.62629 1.6674,1.45373 3.7198,1.83876 4.9424,0.9272 7.2684,2.25239 7.2684,4.14105 0,2.54112 1.5309,1.26838 7.9129,-6.5784 z m -25.6895,-5.11078 c 3.1771,-3.33886 5.7766,-6.44656 5.7766,-6.90599 0,-0.45944 -2.1375,-1.5904 -4.75,-2.51324 -10.6515,-3.76254 -9.1544,-3.98843 -24.0359,3.62663 -7.5427,3.85973 -13.8504,7.39196 -14.0171,7.84939 -0.1666,0.45743 1.1248,1.14528 2.8699,1.52856 2.4359,0.53502 3.7836,0.20935 5.8029,-1.40228 3.6823,-2.93881 8.0905,-5.29232 9.2123,-4.91837 0.5206,0.17353 -0.394,1.94179 -2.0324,3.92947 -1.6384,1.98767 -2.6948,3.89802 -2.3476,4.24522 0.3472,0.3472 4.4817,0.63127 9.1879,0.63127 h 8.5567 z m 203.7766,3.07066 c 0,-1.1 -0.3803,-2 -0.845,-2 -0.4648,0 -1.6595,0.9 -2.655,2 -1.7668,1.95228 -1.7466,2 0.845,2 1.9883,0 2.655,-0.5022 2.655,-2 z m -161.6352,-17.58461 c 2.1257,-2.48547 3.7007,-4.64502 3.5,-4.79902 -0.2006,-0.15399 -2.8982,-1.28597 -5.9945,-2.5155 l -5.6297,-2.23552 -5.3703,5.65889 c -2.9537,3.11239 -5.5095,6.03523 -5.6796,6.49518 -0.3645,0.98559 3.361,1.63531 10.3093,1.79795 4.7479,0.11114 5.1949,-0.11081 8.8648,-4.40198 z m -21.4187,-5.43315 c 3.5453,-3.25786 6.2078,-6.16165 5.9166,-6.45285 -0.2912,-0.29119 -3.0303,-1.0317 -6.0869,-1.64555 l -5.5575,-1.11611 -6.7583,5.11613 c -3.717,2.81388 -7.1412,5.11614 -7.6091,5.11614 -2.2626,0 -0.401,1.73094 3.3991,3.16051 7.6094,2.86267 9.5669,2.3728 16.6961,-4.17827 z m 182.7085,0.26776 c -10.6082,-17.16841 -14.3484,-22.18421 -18.5629,-24.8935 -2.5555,-1.64284 -2.5673,-1.6384 -0.8417,0.31744 2.1171,2.39963 2.1842,3.07943 0.3458,3.50274 -0.8612,0.1983 2.5221,4.46141 8.75,11.02548 9.4617,9.97227 11.4741,11.93374 10.3088,10.04784 z m -107.0226,-15.33156 c 1.8524,-1.14486 3.3644,-2.38236 3.3599,-2.75 -0.01,-0.67901 -22.605,-8.16844 -24.6455,-8.16844 -0.6123,0 -1.3544,1.0125 -1.6491,2.25 -0.2947,1.2375 -0.8383,3.21912 -1.208,4.4036 -0.7832,2.50942 0.1352,2.91906 10.9485,4.88315 9.548,1.73426 9.3745,1.74239 13.1942,-0.61831 z m -103.9653,297.41498 c -2.1248,-2.1247 0.2072,-5.6059 3.0833,-4.6027 2.0521,0.7159 1.548,5.2694 -0.5833,5.2694 -1.0084,0 -2.1334,-0.3 -2.5,-0.6667 z m 1.6974,-19.5029 c -2.2743,-1.1012 -4.3641,-4.7812 -4.3641,-7.6847 0,-0.9681 1.15,-3.1482 2.5555,-4.8448 2.5528,-3.0815 5.9381,-3.5049 7.6183,-0.9529 0.4475,0.6798 1.1598,0.62 2.1213,-0.1779 1.2242,-1.016 1.5272,-0.3891 1.9647,4.0643 0.2844,2.8961 0.1173,5.4156 -0.3713,5.5989 -0.4887,0.1834 -0.8885,0.778 -0.8885,1.3215 0,0.5434 -0.6388,1.6269 -1.4196,2.4077 -1.0896,1.0895 -1.5363,1.1311 -1.9211,0.1786 -0.3967,-0.982 -0.5179,-0.9802 -0.5804,0.01 -0.093,1.4797 -1.7661,1.5082 -4.7148,0.08 z M 815.52581,995.91147 c -0.67451,-4.8125 -1.79614,-9.875 -2.49251,-11.25 -0.69637,-1.375 -2.21525,-7.2866 -3.37528,-13.1369 -2.68869,-13.5597 -8.65155,-31.5867 -15.78051,-47.7078 -5.76397,-13.03436 -9.48671,-20.39462 -26.37959,-52.15539 -5.41187,-10.175 -11.22832,-22.1 -12.92546,-26.5 -1.69713,-4.4 -6.08013,-14.17982 -9.74,-21.73294 -3.65986,-7.55312 -6.382,-14.00524 -6.04919,-14.33806 1.03456,-1.03455 6.5642,3.69366 11.12132,9.50947 8.8112,11.24488 33.35226,52.16814 47.71186,79.56153 17.73194,33.82673 27.59181,65.02059 26.63717,84.27239 -0.46015,9.2795 -4.13038,22.22773 -6.30053,22.22773 -0.7496,0 -1.66178,-3.2883 -2.42728,-8.75003 z m -739.402344,0.6116 C 66.742843,986.52387 59.878263,972.38617 37.846983,917.69186 19.427619,871.96449 9.2968286,839.57923 2.9578786,806.16138 c -3.47240998,-18.30601 -3.96355,-48.56576 -1.06912,-65.8714 4.76926,-28.51519 18.9917704,-73.25431 33.0758804,-104.04533 1.419534,-3.1034 2.580964,-5.83698 2.580964,-6.07462 0,-0.23765 2.025,-4.7659 4.5,-10.06279 2.475,-5.29689 4.5,-9.75975 4.5,-9.91746 0,-0.55311 10.21323,-22.13251 15.33065,-32.39195 7.04701,-14.12788 17.463633,-25.99054 22.919353,-26.10101 2.20256,-0.0446 2.18844,0.37711 -0.25,7.46456 -1.1,3.19721 -2,6.21921 -2,6.71557 0,4.55106 10.59556,-16.01439 14.27938,-27.71557 4.641664,-14.74359 5.158094,-21.1619 4.867984,-60.5 -0.21814,-29.57951 0.039,-38.58563 1.35613,-47.5 3.73197,-25.25793 14.91247,-47.51221 23.86056,-47.49341 1.72477,0.004 4.38134,0.8278 5.90349,1.83149 l 2.76754,1.82491 -2.46538,1.1233 c -1.67831,0.76469 -2.95016,2.65415 -3.98392,5.9185 -0.8352,2.63737 -3.07786,9.32068 -4.98368,14.85181 -6.39243,18.55226 -6.80229,22.83119 -6.98695,72.9434 l -0.16583,45 -2.83553,10.45561 c -5.02408,18.52556 -15.014604,38.48498 -24.705954,49.35843 -4.27652,4.79815 -7.2735,6.64254 -17.121813,10.53702 -3.30235,1.3059 -4.96041,4.47318 -16.69125,31.88412 -20.786314,48.57043 -32.025584,82.76141 -37.725534,114.76482 -2.61553,14.68536 -2.37038,42.92304 0.51223,59 6.79145,37.87748 19.402534,74.87857 54.873667,161.00009 3.85101,9.35 7.74629,19.1967 8.65616,21.8816 1.83606,5.4179 3.05328,18.61843 1.7168,18.61843 -0.46941,0 -3.86702,-3.2123 -7.55024,-7.13843 z m 703.249814,-35.2421 c -25.23701,-10.3802 -59.21683,-53.16221 -82.10366,-103.37194 -8.91525,-19.55848 -17.00962,-47.24765 -13.81191,-47.24765 0.69416,0 1.09595,-2.98591 1.11014,-8.25 0.0231,-8.58766 1.26076,-11.68271 5.22776,-13.07364 1.45742,-0.51101 1.75,-0.008 1.75,3.00708 0,4.47642 5.88037,26.03214 11.16023,40.91016 7.78708,21.94303 27.05523,56.86147 43.45187,78.74505 12.17653,16.25126 24.6749,27.97924 41.69382,39.12384 14.67416,9.6091 15.13957,10.4734 5.75308,10.6849 -2.78245,0.063 -5.059,0.5052 -5.059,0.9833 0,1.4652 -3.22985,0.933 -9.17233,-1.5111 z m 595.41792,-93.86959 c -4.8169,-5.15358 -5.0996,-17.54932 -0.3323,-14.57208 3.1803,1.98612 5.0867,6.38099 5.0867,11.72637 0,5.74217 -1.3127,6.5279 -4.7544,2.84571 z m 176.2544,-6.46455 c -9.7775,-1.35218 -22.2123,-5.53424 -33.7453,-11.34922 -10.3018,-5.19423 -14.6381,-7.96672 -24.7547,-15.82762 -27.4553,-21.33352 -52.878,-56.01035 -78.5248,-107.10861 -16.3643,-32.60395 -33.0954,-73.3261 -34.0126,-82.78367 -0.1752,-1.80603 -0.6178,-4.64645 -0.9836,-6.31205 l -0.6652,-3.02837 4.252,0.31204 c 3.7841,0.27772 4.598,0.81544 7.3975,4.88741 1.73,2.51645 6.6104,12.74576 10.8454,22.73179 22.918,54.04118 47.968,100.16677 69.0655,127.17334 8.9244,11.42386 23.0409,25.43598 33.7039,33.45463 15.9162,11.96913 36.9182,21.52675 53.9219,24.53897 3.575,0.63331 8.075,1.55785 10,2.05453 1.925,0.49668 6.6243,1.18853 10.4428,1.53746 l 6.9429,0.63441 -2.3851,1.79906 c -1.3118,0.98949 -4.2111,2.3233 -6.4428,2.96403 -2.2318,0.64073 -5.9654,2.03604 -8.2969,3.10069 -4.0357,1.84284 -9.4259,2.23557 -16.7609,1.22118 z m -169.8569,-37.55714 c -1.2463,-0.91135 -1.7963,-2.87774 -1.9411,-6.93977 -0.169,-4.7428 0.1653,-6.01077 2.048,-7.76727 1.2375,-1.15455 2.25,-2.98165 2.25,-4.06023 0,-3.07388 4.9011,-2.57924 7.8173,0.78896 2.0443,2.36111 2.302,3.45708 1.8222,7.75 -0.4661,4.17131 -1.1732,5.53865 -4.2657,8.25 -4.0874,3.58347 -5.1601,3.85798 -7.7307,1.97831 z m 254.8569,-3.39153 c -1.65,-0.19996 -8.6701,-1.05029 -15.6001,-1.88963 -45.6776,-5.53226 -74.7645,-22.57944 -102.5349,-60.09322 -5.7884,-7.81938 -10.1236,-15.92866 -9.0756,-16.97666 0.3666,-0.36663 7.2382,5.58599 15.2702,13.22806 19.1179,18.18988 28.3716,25.17086 42.9404,32.39418 19.1636,9.50145 34.2221,13.55433 61.6992,16.60589 20.4012,2.26572 57.5629,1.46568 70.3008,-1.51348 16.1102,-3.76787 28.9655,-8.59286 48.8803,-18.34627 5.4341,-2.66141 12.3912,-5.49294 15.4601,-6.29229 5.9146,-1.54056 11.1596,-1.90391 11.1596,-0.77308 0,1.76107 -8.5157,13.47088 -11.3298,15.57944 -4.0509,3.03533 -19.8064,11.93371 -25.6702,14.49805 -14.8277,6.4844 -32.4475,11.54461 -45.9738,13.20319 -7.7676,0.95246 -48.4933,1.22811 -55.5262,0.37582 z M 913.54564,771.00864 c -8.1724,-0.77678 -17.9122,-2.68032 -17.4598,-3.41233 0.5634,-0.91157 -0.4784,-1.26589 -10.0402,-3.41492 -10.3207,-2.31956 -31.2965,-8.46269 -36.75,-10.76287 -5.4651,-2.30503 -6.2583,-4.07774 -1.5,-3.35223 1.7875,0.27255 5.725,0.75563 8.75,1.07352 3.025,0.31788 10,1.45224 15.5,2.52079 21.5468,4.18617 33.4089,5.29787 56,5.24823 23.2879,-0.0512 24.0021,-0.15412 46.49995,-6.70236 3.025,-0.88045 10.675,-2.68666 17,-4.0138 19.96681,-4.18951 33.84541,-9.32239 71.00001,-26.25876 15.125,-6.89451 31.1,-14.3397 35.5,-16.54486 12.7545,-6.39222 44.0915,-19.56923 50.31,-21.15508 7.8801,-2.00957 41.5727,-7.57259 45.8636,-7.57259 4.5799,0 9.3264,2.81317 9.3264,5.52755 0,4.80716 -9.8578,7.9904 -35.3942,11.42934 -12.4768,1.68022 -23.7365,5.09392 -38.1058,11.55275 -5.3392,2.39994 -26.6481,12.11239 -40.5,18.45965 -61.8231,28.32881 -68.0765,30.73189 -95.00001,36.50699 -5.775,1.23873 -16.35,3.86558 -23.49995,5.83742 -7.15,1.97184 -16.8132,4.05792 -21.4738,4.63573 -7.806,0.96778 -27.7166,1.18764 -36.0262,0.39783 z m 918.16626,-10.64687 c -0.5932,-0.71479 -1.3503,-3.07729 -1.6824,-5.25 -0.7827,-5.12004 1.3495,-7.43651 14.9037,-16.19238 5.5618,-3.59286 13.2601,-8.58331 17.1073,-11.08988 8.0642,-5.25404 17.3827,-10.13706 19.3801,-10.15546 4.0347,-0.0372 -4.219,15.70725 -11.1882,21.34227 -5.8618,4.73965 -29.724,20.32849 -33.0568,21.59565 -3.5509,1.35003 -4.1587,1.32219 -5.4637,-0.2502 z m 163.3337,-32.1812 c -0.55,-0.18933 -2.2534,-0.62118 -3.7854,-0.95965 -1.7633,-0.38959 -3.1957,-1.61419 -3.9036,-3.33747 -1.6509,-4.01838 -1.737,-4.99346 -0.7459,-8.44892 0.4954,-1.72738 0.7488,-3.29255 0.5632,-3.47816 -0.1856,-0.1856 -2.9904,0.97477 -6.2329,2.57861 -9.7688,4.83197 -15.6764,6.1264 -27.9603,6.1264 -10.4944,0 -11.2361,0.13099 -11.7443,2.07421 -0.2983,1.14082 -1.4758,2.3183 -2.6166,2.61663 -1.1408,0.29833 -2.0742,0.93994 -2.0742,1.42579 0,1.23558 -3.7017,1.10202 -6.3157,-0.22787 -1.2014,-0.61118 -5.5593,-4.41719 -9.6843,-8.4578 -8.4919,-8.31817 -12.5954,-10.44513 -25.8454,-13.39653 -21.2976,-4.74395 -59.7528,-4.78658 -87.6546,-0.0972 -6.6,1.10925 -14.7,2.22166 -18,2.47204 -3.3,0.25037 -8.925,1.15405 -12.5,2.00818 -7.0338,1.68051 -12.0183,2.02721 -11.9691,0.83253 0.1616,-3.91901 30.1529,-16.82307 47.1504,-20.28695 12.4849,-2.54425 41.3199,-4.31966 56.3187,-3.46762 22.9564,1.30408 44.9312,6.41235 53.1281,12.35014 6.4427,4.66709 7.6281,5.04332 19.5599,6.2084 14.0033,1.36735 20.3649,0.40605 30.6082,-4.6252 18.5718,-9.12195 29.8472,-26.40918 35.1509,-53.89256 3.0082,-15.58796 2.9832,-15.68007 -2.7899,-10.28003 -5.5674,5.20765 -9.0844,7.19155 -14.483,8.16971 -4.2594,0.77174 -6.6742,-0.51207 -6.6742,-3.54833 0,-1.03266 -0.3876,-1.87756 -0.8613,-1.87756 -2.5955,0 0.9462,-6.3405 7.2616,-13 13.6147,-14.35651 23.0776,-31.53656 26.9897,-49 2.2076,-9.85479 2.8914,-31.23686 1.7111,-53.50207 -1.213,-22.88176 -2.8359,-33.52433 -7.1805,-47.08736 -2.7835,-8.68957 -5.1712,-14.65513 -14.9067,-37.2445 -3.1456,-7.29876 -6.3838,-23.81943 -4.8541,-24.76483 0.4298,-0.26563 2.1788,0.23963 3.8867,1.12282 3.9145,2.02426 10.6373,12.41716 20.3606,31.47594 13.755,26.96139 17.8585,43.92585 19.6889,81.39713 1.1836,24.22992 0.6129,41.05511 -1.7844,52.60287 -2.0588,9.91785 -2.0755,10.54206 -0.2736,10.25485 1.8754,-0.29894 8.1871,15.11212 9.9872,24.38564 1.001,5.15682 0.9623,17.36595 -0.1026,32.35951 -0.059,0.825 -0.039,7.35 0.044,14.5 0.1679,14.50048 -1.0948,21.08487 -5.9449,31 -5.7417,11.73805 -20.6044,27.50243 -30.4792,32.32832 -4.1831,2.04428 -9.2993,3.29101 -11.0426,2.69087 z M 974.54559,703.01731 c -20.34665,-2.72703 -35.64325,-8.62292 -51.15255,-19.71615 -4.2089,-3.01047 -11.4089,-7.60811 -16,-10.21698 -8.9066,-5.06113 -16.7658,-10.48484 -16.8165,-11.60531 -0.052,-1.1373 30.7819,13.48304 41.4691,19.66346 12.016,6.94892 19.4355,9.86066 30.4501,11.9501 13.33315,2.52927 21.90215,2.07535 37.70866,-1.9975 7.6127,-1.96155 20.5912,-5.29144 28.8412,-7.39976 17.4865,-4.46873 21.1766,-5.85111 37.6137,-14.0908 19.4025,-9.72618 23.5342,-12.70929 31.3167,-22.61104 8.73,-11.10713 16.0917,-22.35377 17.5759,-26.85118 0.6319,-1.91442 1.4917,-3.48077 1.9107,-3.48077 0.4191,0 1.2746,-1.125 1.901,-2.5 1.1722,-2.57258 5.4286,-3.52807 6.682,-1.5 0.9913,1.60403 3.5078,1.15356 4.1896,-0.75 0.3448,-0.9625 2.1587,-3.87344 4.0309,-6.46875 2.6844,-3.72133 3.338,-5.50274 3.0917,-8.42777 -0.2874,-3.41498 -0.8671,-4.04438 -7.3122,-7.93928 -3.85,-2.32665 -7.45,-4.71698 -8,-5.31185 -0.55,-0.59487 -2.0975,-2.19436 -3.439,-3.55443 -2.3808,-2.41389 -2.395,-2.52142 -0.595,-4.51038 2.6111,-2.88521 7.3483,-2.58901 15.9653,0.99825 12.3012,5.12097 18.5687,12.10359 18.5687,20.6872 0,12.20062 -10.9903,24.91355 -19.6013,22.67365 -1.5216,-0.39581 -2.1632,0.35914 -3.2306,3.80149 -3.228,10.41007 -23.6871,38.51086 -32.9743,45.29045 -6.5378,4.77262 -37.0379,19.77265 -46.6938,22.96416 -4.4,1.45431 -13.85,3.76941 -21,5.14466 -7.15,1.37526 -18.2915,3.60345 -24.7588,4.95153 -13.16911,2.74504 -14.92571,2.7927 -29.74121,0.807 z m 361.00001,-44.82643 c -7.9355,-1.74628 -11.7344,-4.02333 -18.5,-11.08893 -5.4384,-5.67951 -15.6239,-20.8364 -21.8003,-32.44057 -9.3942,-17.64973 -17.7359,-32.8815 -22.4538,-41 -6.3038,-10.8473 -19.1705,-30.52352 -21.9069,-33.50081 -3.5678,-3.8818 -7.1732,-9.1666 -8.6265,-12.64483 -1.7509,-4.19044 -6.0837,-7.85436 -9.2883,-7.85436 -3.1323,0 -3.9315,-1.63063 -1.163,-2.37266 4.1735,-1.11858 10.2227,-0.59074 14.2628,1.24456 11.7958,5.3584 27.8328,27.85077 52.4968,73.6281 22.1331,41.08012 28.8943,50.74949 41.433,59.25521 2.2254,1.50964 4.9186,3.53229 5.9848,4.49479 1.0662,0.9625 2.3037,1.75 2.75,1.75 0.4463,0 0.8114,0.45 0.8114,1 0,1.29983 -7.0287,1.06362 -14,-0.4705 z M 946.95144,643.03294 c -4.693,-3.1848 -4.6191,-3.09469 -14.1169,-17.20166 -9.2615,-13.75609 -15.4516,-19.91624 -30.9306,-30.78121 -14.2558,-10.00635 -23.2481,-14.54123 -33.6179,-16.95367 -4.2677,-0.99286 -7.2946,-2.09254 -6.7263,-2.44374 0.5682,-0.3512 -5.0944,-2.57425 -12.5836,-4.94013 l -13.6168,-4.30158 -13.65686,0.51834 c -11.74474,0.44577 -15.40702,1.02187 -26.15687,4.11464 -6.875,1.97797 -13.4,3.58675 -14.5,3.57507 l -2,-0.0212 2,-1.58072 c 3.85893,-3.04996 16.07593,-8.34322 23.79894,-10.31138 4.28941,-1.09312 12.38941,-2.26968 18,-2.61457 8.76759,-0.53895 11.95759,-0.25608 22.70109,2.01304 6.875,1.45206 17.1516,3.54526 22.8369,4.65155 17.7436,3.45265 28.3039,8.04702 43.7835,19.04832 14.7049,10.45072 25.1769,21.06529 31.674,32.10514 1.213,2.06128 4.553,7.49234 7.4221,12.06902 4.564,7.28044 5.1418,8.78164 4.6192,12.00222 -0.7439,4.58378 -3.2849,4.88329 -8.9299,1.05255 z m 60.07106,-14.13687 c -2.3442,-1.68337 -4.6959,-6.77671 -6.0255,-13.05011 -1.56021,-7.36163 -1.96581,-20.54468 -0.5641,-18.33261 0.564,0.88989 1.1018,-0.60914 1.5737,-4.38601 0.4172,-3.33904 0.3239,-5.99468 -0.223,-6.35197 -1.4985,-0.97883 -2.12481,-6.28054 -1.0708,-9.06338 2.8365,-7.48923 16.674,-15.2647 33.9338,-19.06799 3.3369,-0.73529 9.4005,-1.04323 15,-0.76176 8.6804,0.43633 10.1254,0.82663 18.899,5.1047 15.8182,7.71302 23.454,8.88043 30.5,4.66305 7.5456,-4.51641 18.5,-5.10881 18.5,-1.00046 0,5.39279 -8.2273,12.83178 -18.7947,16.99386 -7.3322,2.88789 -24.333,-0.50754 -38.6427,-7.71782 -6.446,-3.24796 -14.2617,-3.88361 -22.8817,-1.86099 -8.4134,1.97416 -22.0761,8.14827 -21.1931,9.57705 0.3532,0.57148 -0.2871,2.2204 -1.4228,3.66426 -2.5038,3.1831 -2.6839,9.07532 -0.6526,21.35549 2.6588,16.07396 2.6573,15.63269 0.062,18.43347 -2.3531,2.53905 -5.0154,3.22437 -6.9972,1.80122 z m 978.4177,-59.37731 -2.3946,-3.35738 -0.01,-47.5 c -0.011,-54.83936 0.3925,-51.98745 -10.6128,-75 -14.0372,-29.35236 -22.8845,-43.21432 -35.7803,-56.06032 -10.4038,-10.36361 -16.8792,-14.95348 -36.7007,-26.01419 -14.0007,-7.81256 -18.4943,-10.67637 -19.6332,-12.51241 -0.4051,-0.653 -3.1051,-2.65367 -6,-4.44594 -17.4152,-10.78189 -19.1435,-12.48797 -11.5135,-11.3656 6.5297,0.96052 38.1029,13.0717 48.75,18.70007 26.9923,14.26891 43.5467,29.60064 57.9807,53.69839 8.4761,14.15089 21.7952,41.59327 24.9129,51.33003 4.5197,14.11501 5.4923,25.96665 4.7323,57.66997 -0.9599,40.04141 -1.7237,53.41323 -3.1634,55.38219 -0.6873,0.93996 -2.8075,1.96182 -4.7115,2.2708 -3.076,0.49916 -3.7288,0.18758 -5.8564,-2.79561 z m -805.9815,-32.20512 c -0.8728,-1.73374 -4.2745,-5.40226 -7.5595,-8.15226 -3.2849,-2.75 -8.1883,-7.925 -10.8965,-11.5 -15.6135,-20.61154 -28.9745,-35.28193 -42.9571,-47.16712 -20.4786,-17.40674 -47.7479,-30.56616 -70.0049,-33.78243 -16.2766,-2.35207 -31.7287,-0.58534 -61.99511,7.08826 -31.16205,7.90069 -41.47345,7.24591 -50.89375,-3.23177 -5.6775,-6.31477 -6.6062,-10.51209 -6.6062,-29.85679 0,-17.32796 -2.1316,-31.60097 -7.3251,-49.05015 -1.8826,-6.325 -4.0013,-13.75 -4.7081,-16.5 -1.8968,-7.37894 -6.4574,-16.05083 -12.8247,-24.38541 -12.7422,-16.6792 -13.0629,-17.4845 -4.7784,-11.99708 5.4825,3.63149 16.4902,15.53427 21.9148,23.69685 5.5918,8.41433 13.1728,24.52101 16.0902,34.18564 3.9357,13.0379 5.7096,24.96466 6.3423,42.64208 l 0.5777,16.14208 5.8557,-0.53097 c 5.7117,-0.51792 5.8556,-0.46992 5.8556,1.95293 0,1.36615 -0.9257,3.32169 -2.0572,4.34566 -2.0546,1.85932 -2.0546,1.86272 -0.044,2.6065 2.7296,1.00971 11.1451,-0.46281 26.10115,-4.56708 21.21481,-5.8218 33.05261,-7.77203 50.50001,-8.31965 12.2073,-0.38316 18.0149,-0.12212 24.5,1.1012 35.0777,6.61691 70.2665,28.81761 97.6809,61.62725 18.9623,22.6941 26.3191,34.55289 26.3191,42.42521 0,2.47769 0.7073,6.58829 1.5718,9.13466 1.8672,5.49971 1.5553,6.49044 -0.6587,2.09239 z m -259.50486,-7.08677 c -4.1118,-1.86755 -7.0284,-4.59849 -15.1534,-14.18908 -15.1773,-17.91495 -29.7149,-31.44388 -45.7548,-42.58028 -16.6197,-11.53884 -35.13196,-20.58423 -47.00966,-22.96961 -6.82628,-1.37091 -19.50479,0.4936 -22.8214,3.35614 l -2.16897,1.87203 2.25,1.59463 c 1.2375,0.87704 2.25,1.98974 2.25,2.47265 0,1.26763 -5.74807,1.07984 -8.31574,-0.27167 -3.03671,-1.5984 -3.65134,-2.78786 -3.66895,-7.1003 -0.0123,-3.01664 0.72453,-4.48984 3.76785,-7.53316 15.36321,-15.36321 44.32205,-10.42562 80.22637,13.6789 32.0503,21.51708 63.9742,56.67001 63.589,70.02093 -0.054,1.87916 -0.5485,3.53925 -1.0985,3.68907 -0.55,0.14983 -3.2913,-0.76828 -6.0918,-2.04025 z m -220.40823,-1.66199 c -10.81331,-1.20681 -25.19646,-4.66413 -35.0618,-8.42792 -17.70195,-6.75359 -37.55469,-17.95315 -45.77535,-25.82334 -5.01386,-4.80011 -12.16285,-18.15081 -12.16285,-22.71407 v -3.10623 l 4.25,3.30198 c 2.3375,1.81608 6.725,5.40509 9.75,7.97557 16.91767,14.3757 48.08402,29.13298 70.64209,33.44905 27.65906,5.29205 44.75777,1.73414 77.85791,-16.20069 24.42149,-13.23244 39.408,-18.40125 53,-18.27959 l 7,0.0627 -4,1.44962 c -8.21332,2.97653 -19.13482,8.95384 -23.19068,12.6922 -5.3809,4.95967 -22.64467,15.35792 -37.20756,22.41073 -25.76171,12.47635 -42.05378,15.78223 -65.10176,13.20999 z m 658.49999,-60.59201 c -30.5164,-3.95536 -59.8616,-18.79055 -83.643,-42.28487 -8.0175,-7.92069 -10.7745,-11.52 -16.3553,-21.3517 -4.0306,-7.10088 -6.9329,-13.4705 -7.2646,-15.94373 l -0.5524,-4.11865 17.4076,17.5997 c 35.4853,35.87675 59.9713,48.92264 99.9077,53.22983 7.7244,0.83309 15.847,2.33344 18.9859,3.50696 3.0172,1.12803 6.5047,2.05097 7.75,2.05097 1.2452,0 2.2641,0.41968 2.2641,0.93261 0,1.04749 -1.6736,1.64121 -7.5,2.66061 -2.2,0.38492 -5.5683,1.53392 -7.4852,2.55332 -2.694,1.43272 -5.4181,1.81945 -12,1.70363 -4.6831,-0.0824 -9.8648,-0.32481 -11.5148,-0.53868 z m 235.5,-38.90108 c -1.925,-0.22911 -8,-0.89284 -13.5,-1.47498 -10.0064,-1.0591 -33.5721,-5.81529 -38.75,-7.8208 -1.5125,-0.58582 -2.75,-1.52627 -2.75,-2.08988 0,-0.56361 -0.9023,-1.9271 -2.0052,-3.02997 -1.6954,-1.69543 -1.8126,-2.31374 -0.758,-4.00231 2.6162,-4.18921 6.4888,-4.36446 23.4839,-1.06274 8.6786,1.68603 20.0543,3.50878 25.2793,4.05056 14.1971,1.4721 39.5114,1.25228 48.6395,-0.42237 4.3233,-0.79314 11.4605,-1.94894 15.8605,-2.56843 4.4,-0.6195 10.357,-1.85102 13.2379,-2.73672 2.8808,-0.8857 5.5202,-1.32798 5.8654,-0.98285 0.7838,0.7838 -3.621,4.7666 -9.8533,8.90943 -2.6125,1.73661 -4.75,3.52411 -4.75,3.97222 0,1.39937 -9.6719,5.7929 -16.2308,7.37297 -6.1321,1.47723 -36.2862,2.77647 -43.7692,1.88587 z m -406.913,-10.41041 c -0.1347,-5.47356 -1.9717,-12.49965 -5.3599,-20.5 -3.3992,-8.0263 -11.1757,-25.48893 -14.8679,-33.38668 -3.0202,-6.46026 -2.8138,-9.30657 0.5388,-7.43036 3.3292,1.86313 11.9242,13.13048 15.706,20.58939 7.1786,14.15835 8.225,17.96135 7.6027,27.63271 -0.3041,4.72722 -1.2181,10.61994 -2.031,13.09494 l -1.478,4.5 z m -134.087,-31.43378 c -22.1616,-3.96053 -50.1707,-13.77879 -68.41721,-23.98277 -13.62455,-7.61934 -28.40315,-20.49453 -32.44655,-28.26771 -0.6249,-1.20134 -1.1362,-4.3854 -1.1362,-7.07568 0,-3.8733 0.5007,-5.3618 2.4055,-7.15126 2.3439,-2.20204 2.4215,-2.20935 3.0319,-0.28613 1.0854,3.41999 18.12535,18.96023 27.23085,24.83427 23.37581,15.07992 58.77721,26.78026 84.86991,28.04995 11.0183,0.53616 12.7976,0.36428 21,-2.02866 4.929,-1.43794 11.971,-3.30256 15.6489,-4.1436 3.678,-0.84104 7.4601,-1.82577 8.4049,-2.1883 2.8231,-1.08334 -1.1216,4.82162 -8.1133,12.14506 -5.1897,5.43597 -6.985,6.61737 -13,8.55459 -8.7293,2.81144 -28.1302,3.56835 -39.4787,1.54024 z m 804.5275,-14.81622 c -1.4682,-1.7875 -3.6512,-4.80024 -4.8512,-6.69497 -2.9034,-4.58431 -11.7685,-10.40909 -38.1763,-25.08363 -50.8583,-28.26139 -84.6955,-50.43792 -89.2162,-58.4714 -2.932,-5.2104 -2.861,-6.01828 0.6574,-7.47564 4.3769,-1.81298 7.8195,-0.29623 25.7673,11.35278 17.3552,11.26429 36.7249,22.59829 73.2915,42.88583 7.425,4.11947 15.3,8.49418 17.5,9.72158 15.9922,8.92224 25.5,19.65724 25.5,28.79148 0,2.75788 -0.6674,4.50231 -2.3145,6.04966 -3.1709,2.97895 -5.0288,2.73396 -8.158,-1.07569 z m -1737.91063,-19 c 0.94352,-11.72907 2.22163,-13.9627 27.46041,-47.9897 5.81749,-7.84316 13.95256,-19.2103 18.07793,-25.2603 4.12536,-6.05 11.02696,-16.175 15.33689,-22.5 4.30992,-6.325 12.8472,-18.475 18.97171,-27 17.99514,-25.04826 27.83725,-40.93724 31.40155,-50.69425 3.60818,-9.87712 8.53779,-15.30575 13.8988,-15.30575 1.66057,0 1.82123,0.6805 1.47548,6.25 -0.99519,16.03145 -8.76448,33.11751 -27.16922,59.75 -4.37097,6.325 -17.63655,25.675 -29.47906,43 -21.62822,31.64099 -58.61525,81.85834 -59.64032,80.97374 -0.30193,-0.26056 -2.52043,1.21376 -4.93,3.27626 -2.40956,2.0625 -4.76056,3.75 -5.22443,3.75 -0.46387,0 -0.54475,-3.7125 -0.17974,-8.25 z m 1555.35833,4.6849 c -1.358,-3.57197 -1.2163,-7.05174 0.3508,-8.61347 0.7292,-0.72679 3.4285,-2.64822 5.9984,-4.26984 6.1833,-3.90183 9.9333,-9.66297 10.4482,-16.05159 0.4208,-5.22248 -0.9731,-10.5 -2.7733,-10.5 -0.5776,0 -2.7991,2.8125 -4.9366,6.25 -2.1376,3.4375 -4.5811,7.15 -5.4301,8.25 -3.1408,4.06967 -1.7961,-1.76763 2.4116,-10.46871 3.8719,-8.0066 4.016,-8.64963 3.3812,-15.09199 -0.6145,-6.23619 -0.5107,-6.77746 1.418,-7.38959 6.845,-2.17253 15.1415,12.1104 15.4767,26.64402 0.099,4.29191 0.5263,7.80411 0.9498,7.80487 1.1295,0.002 8.8703,-4.9178 11.4801,-7.29647 1.2375,-1.12792 2.25,-1.69511 2.25,-1.26042 0,2.20982 -8.4195,11.69493 -18.82,21.20195 -14.6486,13.39014 -20.1923,16.08432 -22.2048,10.79124 z M 1080.9494,146.23517 c -4.1445,-1.80427 -5.7683,-6.19357 -7.9296,-21.43455 -1.1868,-8.3691 -1.5797,-15.50164 -1.2169,-22.08694 0.4848,-8.797601 0.7935,-10.004301 3.2337,-12.639251 2.9057,-3.13754 6.3505,-3.98961 7.1983,-1.78047 0.2886,0.75208 1.1311,1.36741 1.8724,1.36741 1.7214,0 2.2024,3.33513 2.8845,20.000011 0.3039,7.425 0.8903,14.7104 1.3032,16.18977 l 0.7506,2.68978 7.436,-4.538 c 9.3737,-5.72048 18.2283,-12.4592 34.064,-25.924311 18.0754,-15.36945 37.6597,-27.92122 53,-33.9681 8.7575,-3.45206 9.8249,-3.76744 7.605,-2.24704 -1.0423,0.71384 -3.9507,2.83064 -6.4632,4.70399 -2.5125,1.87336 -9.7064,6.50932 -15.9866,10.30213 -14.6834,8.86785 -21.7717,13.64816 -31.6552,21.3483 -9.4802,7.385861 -24.8435,22.720441 -30.5006,30.443481 -7.3741,10.06716 -10.282,13.22326 -14.8555,16.12369 -5.0732,3.21734 -6.3002,3.383 -10.7401,1.4501 z m 137.0273,-2.32379 c 2.7756,-7.75338 4.0985,-9.36395 13.4647,-16.39196 5.7783,-4.33582 19.3639,-17.02232 34.1042,-31.847121 25.7303,-25.87783 27.2361,-27.01093 35.8974,-27.01093 4.6381,0 4.8626,2.29413 0.7006,7.15655 -1.9789,2.3119 -3.598,4.58003 -3.598,5.0403 0,1.1555 -24.5361,27.680301 -33.8658,36.610611 -10.2663,9.8269 -24.4787,21.8022 -28.0934,23.67146 -1.6179,0.83664 -5.7293,2.17148 -9.1364,2.96631 -3.4071,0.79483 -6.6694,1.91981 -7.2496,2.49996 -0.5801,0.58015 -1.6198,1.05482 -2.3104,1.05482 -0.9921,0 -0.9739,-0.78708 0.087,-3.75 z m 116.9356,-71.153821 c -1.7233,-1.05866 -3.8608,-2.96352 -4.75,-4.23302 -1.7861,-2.55 -2.1557,-5.86317 -0.6542,-5.86317 1.6979,0 11.5375,8.56809 11.5375,10.04653 0,2.17053 -2.646,2.19195 -6.1333,0.0497 z m -157.3229,-21.00577 c 0.8491,-0.52748 7.5887,-3.02956 14.9768,-5.56018 14.4751,-4.95811 24.4954,-9.91113 33.6799,-16.647915 7.4111,-5.436041 22.2995,-18.038164 22.2995,-18.875174 0,-0.351673 -2.7,-1.9298881 -6,-3.5071431 -4.1335,-1.975611 -6,-3.442482 -6,-4.715253 0,-2.74236795 2.407,-3.17661995 7.284,-1.314099 10.6293,4.05939 12.8954,9.5910291 6.6327,16.1906811 -4.7098,4.963139 -20.2669,16.470993 -28.0091,20.718853 -7.6598,4.20267 -22.1006,9.87167 -30.4076,11.93711 -8.0347,1.99773 -16.4865,3.03439 -14.4562,1.77312 z"
     id="path5191" />
</svg>
