<?xml version="1.0" encoding="UTF-8" standalone="no"?>
<svg
   xmlns:dc="http://purl.org/dc/elements/1.1/"
   xmlns:cc="http://creativecommons.org/ns#"
   xmlns:rdf="http://www.w3.org/1999/02/22-rdf-syntax-ns#"
   xmlns:svg="http://www.w3.org/2000/svg"
   xmlns="http://www.w3.org/2000/svg"
   viewBox="0 0 1999.4132 2109.9185"
   height="2109.9185"
   width="1999.4132"
   id="svg850"
   version="1.1">
  <metadata
     id="metadata856">
    <rdf:RDF>
      <cc:Work
         rdf:about="">
        <dc:format>image/svg+xml</dc:format>
        <dc:type
           rdf:resource="http://purl.org/dc/dcmitype/StillImage" />
        <dc:title></dc:title>
      </cc:Work>
    </rdf:RDF>
  </metadata>
  <defs
     id="defs854" />
  <path
     id="path860"
     d="m 1239.0122,2108.1266 c -1.6776,-1.023 -7.5276,-6.7387 -13,-12.7015 -5.4724,-5.9629 -13.5593,-14.6867 -17.9707,-19.3863 -4.4114,-4.6996 -16.5614,-17.9719 -27,-29.4939 -22.9843,-25.3701 -56.4065,-61.2439 -63.2801,-67.9219 l -5.0138,-4.8712 -12.8426,0.4862 c -10.4451,0.3953 -14.3362,0.9905 -20.8427,3.1877 -11.12,3.7552 -31.9948,14.0579 -44.5,21.9628 -12.6653,8.0062 -16.1525,9.1309 -23.5488,7.5955 -9.9678,-2.0693 -19.82562,-11.3816 -39.68572,-37.4899 -4.1838,-5.5 -13.8301,-17.6838 -21.4362,-27.0752 -32.3416,-39.9325 -49.2639,-57.8722 -88.3293,-93.6393 -12.925,-11.8338 -26.8792,-25.0641 -31.0093,-29.4007 -15.4103,-16.1808 -46.7329,-49.1356 -53.5896,-56.3822 -25.0125,-26.4347 -54.7067,-59.8298 -67.5799,-76.0026 -8.048,-10.1107 -30.5509,-41.9675 -34.0783,-48.2437 -2.2614,-4.0236 -3.3086,-4.3465 -8.7495,-2.6976 -1.9214,0.5822 -6.7796,1.0822 -10.7962,1.1111 -6.8815,0.049 -7.9188,-0.2568 -17.9827,-5.3087 -5.8741,-2.9486 -20.3178,-11.8025 -32.0972,-19.6753 -27.4211,-18.327 -38.142,-23.7345 -51.0108,-25.7291 -2.4164,-0.3745 -11.6414,-0.1206 -20.5,0.5643 -19.4857,1.5066 -27.2063,0.5456 -37.6693,-4.6888 -5.4918,-2.7474 -8.527,-5.2539 -14.6802,-12.1231 -8.9821,-10.0272 -13.5693,-14.6658 -25.4245,-25.7091 -14.9582,-13.9339 -17.72,-23.031 -15.6354,-51.5 2.1666,-29.589 1.4996,-71.4398 -2.0001,-125.5 -1.7091,-26.4 -3.4175,-53.5336 -3.7966,-60.2969 l -0.6892,-12.2969 -3.6056,-1.532 c -1.9831,-0.8426 -10.1306,-3.0458 -18.1056,-4.8961 -17.7085,-4.1084 -20.9126,-5.2253 -32.5172,-11.3345 -16.4606,-8.6657 -31.5752,-21.524 -36.3864,-30.9547 -3.2435,-6.3577 -3.5559,-13.8473 -1.2593,-30.1889 1.1207,-7.975 2.2645,-16.8188 2.5417,-19.653 0.5763,-5.8918 2.0992,-4.7936 -14.33329,-10.3359 -17.42704,-5.8777 -25.79302,-10.9331 -39.40457,-23.8112 -6.39837,-6.0537 -9.16207,-8.0788 -9.95,-7.2908 -1.74374,1.7437 -4.35348,1.2913 -10.46946,-1.8151 -11.97205,-6.0807 -26.1429,-18.7029 -28.79553,-25.6487 -2.01183,-5.2679 -1.56853,-17.0354 0.77843,-20.6636 1.69892,-2.6264 4.44869,-35.876 3.53212,-42.7096 -0.39938,-2.9776 -1.67116,-5.3624 -4.49104,-8.4216 -5.42919,-5.89 -6.96525,-10.9249 -8.28308,-27.1505 -0.62538,-7.7 -2.9011,-23.9 -5.05715,-35.99998 -11.23186,-63.0346 -13.65594,-85.6481 -14.90025,-139 -0.96734,-41.47603 -1.55773,-52.97443 -3.13169,-60.99221 -0.6742,-3.43439 -0.60016,-9.7695 0.23564,-20.16323 1.18906,-14.78667 1.16511,-15.28005 -0.9843,-20.27649 -1.99744,-4.64316 -2.14359,-6.16841 -1.56623,-16.34456 l 0.63679,-11.22351 -8.99393,-4.85958 c -4.94667,-2.67276 -12.88517,-7.77999 -17.64112,-11.34939 -9.95009,-7.46766 -31.18438,-27.53175 -32.06119,-30.29433 -0.64882,-2.04425 -15.61337,-13.56168 -36.2681,-27.91365 C 96.684194,638.18898 90.722884,633.3677 75.871554,619.40753 47.770334,592.99255 18.023054,552.99628 8.4899439,528.81058 c -7.33329,-18.60469 -9.67724,-37.09603 -7.94761,-62.69837 0.58032,-8.58995 1.68869,-19.77865 2.46305,-24.86377 1.28021,-8.40707 1.25594,-9.54087 -0.26759,-12.5 -1.26061,-2.44847 -1.65428,-5.73057 -1.58979,-13.25432 0.12487,-14.5674 2.26836,-22.55234 10.8964501,-40.5915 11.90362,-24.88749 18.60358,-48.634 19.01898,-67.4085 0.18563,-8.38981 0.74076,-11.44917 3.44759,-19 5.51365,-15.38055 13.49315,-27.60867 20.31979,-31.13886 2.35915,-1.21997 4.60956,-1.4345 9.74226,-0.92874 l 6.67446,0.65769 3.50977,-4.29505 c 5.48443,-6.71152 9.76589,-16.58865 9.79416,-22.5947 0.0196,-4.15598 2.75138,-7.72439 10.39614,-13.5798 4.14572,-3.17537 16.442496,-15.03647 27.326176,-26.35801 10.88367,-11.32154 23.66501,-23.82217 28.40296,-27.77917 29.00109,-24.22088 73.01628,-41.25995 114.79554,-44.4394 14.20073,-1.0807 40.46859,0.19543 42.73467,2.0761 0.74543,0.61866 1.35533,0.71354 1.35533,0.21085 0,-4.2361 3.56721,-26.876723 5.53964,-35.159443 6.64245,-27.89317 18.08711,-44.77419 42.46036,-62.62956 C 377.64518,7.8236568 404.98818,-0.01325318 436.19058,1.6824365e-5 458.66578,0.01001682 478.84038,3.8599768 491.51718,10.559337 c 7.492,3.95931 17.7898,12.63296 19.1047,16.09164 0.6589,1.73294 1.6658,2.34314 3.8664,2.34314 1.6366,0 5.3602,0.49837 8.2748,1.10748 10.7242,2.24127 19.0886,14.32427 30.1576,43.56524 8.9707,23.6977 12.584,41.679783 13.3559,66.465613 0.5751,18.46764 -0.681,36.11027 -3.1563,44.33533 -2.7823,9.24486 -12.6827,21.96769 -25.3926,32.63166 l -5.3346,4.47587 7.3346,8.57197 c 14.5086,16.95626 26.0741,34.77356 35.9265,55.34684 7.7011,16.0811 11.6954,27.19061 19.4341,54.05246 8.9449,31.04868 15.0217,46.53198 25.2088,64.23004 10.3919,18.054 12.5661,22.86153 15.8773,35.10712 1.4292,5.28571 4.8449,15.4469 7.5904,22.58043 7.2814,18.91876 8.7975,25.73118 8.7975,39.52995 0,12.44626 2.0655,23.28766 5.85,30.70589 1.0852,2.12726 5.8478,8.12618 10.5835,13.33093 18.1252,19.92029 20.7849,27.1124 17.5172,47.36873 -1.0577,6.55675 -0.9936,8.17239 0.5078,12.79921 2.6942,8.30313 7.0574,17.77369 13.1106,28.45751 7.9387,14.01171 9.5422,19.3697 9.3554,31.26031 -0.1416,9.01107 0.053,10.08068 2.5453,14.02957 5.475,8.67293 9.6699,21.72543 7.4277,23.1112 -0.8382,0.51804 0.7964,3.31522 5.3133,9.09243 7.7487,9.91074 13.8819,15.94774 31.2892,30.79868 7.15,6.09997 14.0422,12.85361 15.3161,15.0081 1.276,2.1582 2.5693,6.37175 2.8801,9.38322 l 0.5642,5.46597 11.1198,5.96581 c 14.1073,7.5686 34.8966,17.2562 46.2929,21.57198 4.8548,1.8385 25.4704,8.89639 45.8124,15.68419 26.1077,8.71173 40.2242,13.979 47.9974,17.90932 10.2713,5.19336 11.1026,5.83655 12.3599,9.56241 1.7198,5.09688 0.956,21.41014 -1.4279,30.49454 -0.9381,3.575 -3.4852,10.775 -5.6603,16 -2.175,5.225 -4.4586,10.7383 -5.0745,12.2518 -0.9948,2.4443 -0.844,2.9447 1.35,4.4784 10.6683,7.4578 32.7886,30.4165 73.49272,76.2782 30.0818,33.89338 39.9652,46.37318 62.9536,79.49158 20.4488,29.4597 40.761,57.757 44.1573,61.5163 1.8003,1.9927 6.0143,7.7976 9.3646,12.8997 13.5341,20.6113 31.1535,41.3676 68.0017,80.1085 11.275,11.8541 27.1507,28.592 35.2794,37.1952 10.4041,11.0114 19.3947,19.2893 30.3689,27.9613 31.924,25.2269 34.1397,26.6852 58.8517,38.7356 13.6059,6.6347 23.6263,10.3858 53.5,20.0276 165.7197,53.4866 181.1756,60.1441 269.4317,116.0558 10.8521,6.875 32.642,21.05 48.422,31.5 15.7801,10.45 37.9059,24.5765 49.1686,31.3922 26.3694,15.9576 38.2607,23.5969 44.5015,28.5891 2.763,2.2103 10.188,7.3634 16.5,11.4513 6.3119,4.0879 22.5012,14.7051 35.9762,23.5937 13.475,8.8886 30.575,19.7917 38,24.2292 7.425,4.4374 14.4563,9.1202 15.625,10.4063 11.6679,12.8385 0.7274,26.9414 -42.5411,54.8382 -6.2111,4.0045 -10.0821,7.1469 -10.0828,8.1849 0,3.3328 1.8732,6.4496 8.853,14.7131 3.9015,4.6189 7.8414,10.3564 8.7556,12.75 l 1.662,4.352 h 8.7042 c 10.5859,0 21.3546,-2.5795 31.9023,-7.6418 9.5714,-4.5937 18.7776,-13.6434 28.8487,-28.3582 8.9729,-13.1102 14.715,-18.7584 24.2731,-23.876 12.4168,-6.6482 24.049,-7.3845 33.9519,-2.1493 1.9514,1.0317 6.1705,2.1055 9.3756,2.3863 6.6256,0.5804 9.8853,2.3505 12.7868,6.9433 1.7611,2.7879 1.9609,4.4079 1.5655,12.6957 -1.9076,39.9867 -25.7308,85.8689 -70.5575,135.8897 -7.9077,8.8241 -15.926,18.3947 -17.8184,21.2681 -1.8924,2.8735 -6.2527,8.626 -9.6895,12.7833 -3.4368,4.1574 -6.9975,8.7044 -7.9127,10.1045 -1.6254,2.4867 -1.595,2.5862 1.3172,4.3065 1.6641,0.983 2.9811,2.6105 2.9811,3.6839 0,1.0577 -2.8125,6.1981 -6.25,11.4231 -3.4375,5.2251 -9.625,14.7468 -13.75,21.1595 -7.7517,12.0507 -20.8286,25.7983 -25.7033,27.0218 -2.4454,0.6137 -14.777,-4.6982 -20.6119,-8.8788 -1.7362,-1.2439 -4.2288,-2.8251 -5.5392,-3.5138 l -2.3825,-1.2521 0.7653,8.7521 c 1.2392,14.1718 0.721,40.1839 -0.9613,48.2522 -1.833,8.7912 -9.5352,23.1023 -14.4567,26.8614 -2.7076,2.0681 -4.7791,2.6675 -10.2946,2.9792 -6.1605,0.3481 -7.5966,0.05 -13.3223,-2.7692 -3.5296,-1.7376 -7.2221,-4.1789 -8.2055,-5.425 -0.9834,-1.2462 -6.963,-5.44 -13.288,-9.3197 -30.8947,-18.9502 -48.4481,-30.2104 -64.8522,-41.6012 -18.2565,-12.6772 -21.142,-15.2097 -21.1689,-18.5791 -0.016,-2.0526 -1.3066,-3.5915 -5.75,-6.8587 -3.1509,-2.3167 -8.1432,-5.9927 -11.0939,-8.1688 l -5.3651,-3.9565 -6.6349,4.0526 c -3.6493,2.229 -13.16,8.2159 -21.135,13.3043 -22.8111,14.5544 -84.1122,51.9971 -90.0903,55.027 -14.8631,7.5333 -29.7045,10.099 -40.4595,6.9944 -7.7773,-2.245 -11.4678,-4.5745 -20.0254,-12.6401 -7.9798,-7.5211 -12.6284,-10.3173 -15.8204,-9.5162 -3.0023,0.7536 -12.8748,14.1819 -28.7939,39.1651 -15.7116,24.6574 -18.5038,28.4686 -28.1111,38.3709 -15.9478,16.4375 -40.7975,27.887 -72.968,33.62 -34.855,6.2113 -46.7194,9.6108 -57.063,16.3499 -7.6771,5.0018 -18.5645,16.0248 -21.4878,21.7554 -1.1631,2.2801 -2.8367,4.8676 -3.7191,5.75 -2.1326,2.1325 -6.261,2.024 -10.0116,-0.2632 z m 10.4562,-7.4685 c 4.107,-7.1782 9.8763,-13.5714 17.3746,-19.2535 12.2455,-9.2796 25.4476,-13.8321 54.7193,-18.8689 25.855,-4.4489 38.1706,-8.1222 54.5,-16.2556 11.717,-5.836 19.6659,-11.5705 27.1943,-19.6184 7.6975,-8.2286 12.0598,-14.3653 27.6709,-38.9267 24.5363,-38.6037 34.3743,-48.4675 51.5984,-51.734 7.1965,-1.3648 11.9289,0.024 16.1967,4.7526 3.6287,4.0207 7.5763,14.8786 6.4636,17.7783 -0.9795,2.5524 -3.2694,0.1653 -4.1028,-4.2769 -1.0582,-5.6407 -4.2671,-11.1287 -7.8114,-13.3594 -4.5666,-2.874 -11.2711,-1.9605 -20.6429,2.8127 -8.0988,4.1248 -9.4664,5.7177 -5.717,6.6587 1.3403,0.3364 6.4224,4.2595 11.2935,8.7181 11.6577,10.67 16.4906,13.1199 27.0281,13.701 14.7675,0.8143 24.6909,-3.33 59.3286,-24.7771 11.825,-7.3218 26.675,-16.4436 33,-20.2705 24.526,-14.8395 54.0515,-34.0879 53.2944,-34.7438 -2.2841,-1.9789 -23.2748,-15.9761 -26.2043,-17.4739 -1.8754,-0.9589 -9.4288,-3.724 -16.7853,-6.1448 l -13.3755,-4.4014 -9.7147,7.3328 c -33.2821,25.1224 -46.5759,29.6288 -62.9228,21.3301 -4.5491,-2.3093 -8.1134,-4.9528 -37.4303,-27.7601 -27.2735,-21.2176 -52.5211,-36.4457 -93.8379,-56.5981 -24.08,-11.7452 -30.6314,-14.4492 -53,-21.8753 -40.2099,-13.3491 -56.0299,-21.9108 -76.6296,-41.4713 -6.5417,-6.2117 -15.944,-14.5441 -20.894,-18.5166 -10.0376,-8.0554 -17.3027,-15.3889 -25.9289,-26.1734 -10.7068,-13.3855 -20.3231,-19.0175 -45.5711,-26.6898 -19.1679,-5.8247 -26.5341,-8.7019 -35.5,-13.8659 -10.2393,-5.8976 -14.5148,-9.3803 -29.5,-24.0303 -19.0011,-18.576 -28.6107,-23.1899 -53.5,-25.6875 -14.2339,-1.4284 -27.261,-3.6267 -32.5499,-5.4927 -5.5208,-1.9479 -5.9501,-1.8905 -5.9501,0.7951 0,4.1009 -2.6444,6.5554 -7.7654,7.2075 -11.58312,1.4751 -11.00492,1.1905 -11.77162,5.7948 -1.0719,6.4376 -4.0549,11.5706 -7.2252,12.4327 -1.5058,0.4094 -6.4018,0.7541 -10.88,0.766 -6.3715,0.017 -8.5634,-0.3591 -10.0788,-1.7285 -2.3382,-2.1131 -3.279,-2.2151 -3.279,-0.3558 0,0.7669 -1.3055,2.7919 -2.9012,4.5 -2.4751,2.6496 -3.6144,3.1058 -7.7566,3.1058 -6.3617,0 -10.7677,-1.3294 -15.6666,-4.7269 -2.1992,-1.5252 -8.0213,-4.2108 -12.9381,-5.9681 -10.1773,-3.6373 -21.0068,-9.5575 -29.0938,-15.9047 -4.7661,-3.7408 -6.3819,-5.993 -11.5677,-16.1242 -24.2573,-47.3896 -45.154,-68.5365 -97.576,-98.7442 -9.35,-5.3879 -22.175,-13.0523 -28.5,-17.0321 -6.325,-3.9797 -11.6631,-7.0946 -11.8625,-6.922 -0.4169,0.3609 50.1978,84.3246 68.3726,113.4222 16.0934,25.7652 60.612,93.5769 69.8912,106.4598 8.8435,12.278 9.9468,14.207 8.6014,15.0385 -0.5515,0.3409 -1.4386,0.3503 -1.9715,0.021 -2.7443,-1.6961 -24.6137,-34.1079 -68.1611,-101.0193 -8.2306,-12.6465 -65.9886,-107.1532 -86.3701,-141.3235 -6.4994,-10.8965 -15.7982,-25.9704 -36.5048,-59.1765 -13.5471,-21.725 -37.6184,-61.1 -53.4916,-87.5 -15.8732,-26.4 -33.5783,-55.425 -39.3447,-64.5 -28.2333,-44.4326 -62.2745,-93.2178 -63.9065,-91.5858 -1.6552,1.6553 23.878,85.6835 39.3767,129.5858 4.1745,11.825 11.853,33.875 17.0634,49 5.2103,15.125 13.9747,38.975 19.4764,53 5.5017,14.025 11.3849,29.1 13.0738,33.5 5.032,13.11 11.376,28.4809 15.24,36.9252 5.6488,12.3447 9.6788,17.6872 56.0173,74.2605 9.9,12.0866 23.2627,28.6893 29.6949,36.895 6.4322,8.2056 18.0378,23.0193 25.7901,32.9193 18.7407,23.9326 37.5405,46.4924 54.9998,66 16.0814,17.9682 55.5341,57.6853 70.0755,70.5452 21.1204,18.6783 33.8888,30.6623 65.9397,61.889 18.425,17.9513 37.5058,36.4472 42.4018,41.1022 l 8.9018,8.4636 -16.9821,-22.5 c -37.1307,-49.1953 -63.0372,-88.4149 -60.7969,-92.0397 1.1997,-1.9413 2.3723,-0.8139 5.9802,5.7499 11.9123,21.6716 38.6828,59.6695 74.88402,106.2898 19.6464,25.3008 23.4652,29.5058 47.2236,52 58.6561,55.5348 82.9062,79.8429 115.723,116 7.2382,7.975 22.8364,25.0301 34.6625,37.9002 11.8262,12.8701 25.6122,27.9451 30.6356,33.5 13.6242,15.0657 15.4372,15.7153 20.2726,7.2638 z m 219.5939,-176.816 c -44.4698,-13.1538 -73.6552,-23.2906 -104,-36.1216 -36.2662,-15.3348 -116.3113,-57.2949 -176.4533,-92.4979 -43.4704,-25.4446 -78.4625,-49.1612 -130.0467,-88.1418 -47.4041,-35.8219 -61.00002,-47.0178 -61.00002,-50.2323 0,-2.6049 1.2128,-2.3202 5.11452,1.2006 26.5748,23.9804 107.9736,83.9699 152.8855,112.674 31.3115,20.0118 96.534,56.7967 144.4359,81.4606 64.6205,33.2721 97.1603,46.3773 164.5196,66.2594 15.7802,4.6578 17.7775,5.5559 16.5984,7.4639 -0.8323,1.3466 -0.091,1.4735 -12.0539,-2.0649 z m -202.5189,-52.2942 c -22.5447,-10.0013 -51.1618,-25.9206 -86.9811,-48.3862 -74.0032,-46.4142 -110.8432,-71.7942 -152.3525,-104.9592 -21.3221,-17.036 -35.20632,-27.2766 -52.85542,-38.9849 -19.0182,-12.6166 -30.4925,-19.0418 -39.7921,-22.2822 -7.5983,-2.6476 -8.836,-3.5053 -7.2898,-5.0515 2.8329,-2.8329 23.7198,7.2872 47.5574,23.0424 17.915,11.8407 33.37342,23.2007 54.96692,40.3938 41.4531,33.0058 67.2742,50.9766 135.7655,94.4891 46.0295,29.2426 76.3653,46.4051 105.25,59.5455 4.2625,1.9391 7.75,3.9531 7.75,4.4755 0,2.2557 -3.1288,1.6616 -12.0189,-2.2823 z m -170.0363,-72.7166 c -13.3885,-7.1446 -32.5517,-19.9401 -53.4448,-35.6857 -28.223,-21.2697 -41.6905,-32.3907 -108.55042,-89.6374 -45.6876,-39.1185 -72.1853,-60.6134 -91.1725,-73.9589 -9.0795,-6.3817 -10.8831,-8.5552 -7.0993,-8.5552 5.1026,0 45.3861,32.1202 113.3222,90.3578 78.05902,66.9155 114.16032,94.7107 146.30342,112.6422 10.685,5.9608 13.0824,8.0255 10.8914,9.3796 -0.4429,0.2737 -5.0554,-1.7704 -10.25,-4.5424 z m -73.655,203.0322 c 2.3156,-1.1718 5.3352,-2.9129 6.7102,-3.8691 5.989,-4.165 23.011,-13.4369 33.2859,-18.1309 14.0642,-6.4252 27.3132,-9.8694 37.9648,-9.8694 7.3576,0 7.8849,-0.1334 6.6217,-1.6755 -0.7548,-0.9216 -21.172,-20.6091 -45.3715,-43.75 -24.1995,-23.141 -58.6245,-56.4999 -76.50002,-74.1308 -41.1852,-40.6219 -78.3615,-76.3914 -92.5009,-89.0007 -57.4165,-51.203 -97.3588,-94.4733 -149.4877,-161.943 -16.1266,-20.8725 -49.2827,-62.2659 -62.8213,-78.4287 -5.8801,-7.0197 -14.741,-17.9789 -19.691,-24.3537 -4.95,-6.3748 -9.5218,-11.6191 -10.1596,-11.6541 -0.6378,-0.035 -2.9635,-3.326 -5.1682,-7.3135 -2.2046,-3.9875 -5.8659,-9.5 -8.1362,-12.25 -2.2702,-2.75 -7.1445,-8.9141 -10.8318,-13.6981 -3.6873,-4.784 -15.0602,-19.409 -25.273,-32.5 -61.9776,-79.4443 -91.5682,-125.1812 -107.4354,-166.0581 -1.5492,-3.991 -2.9845,-7.0884 -3.1897,-6.8832 -0.2052,0.2051 0.5573,4.3705 1.6943,9.2562 1.1371,4.8858 2.7424,11.8082 3.5675,15.3832 2.1733,9.417 8.0596,28.7938 12.5825,41.4198 10.7263,29.9431 48.2574,117.1584 60.2803,140.0802 9.1225,17.3921 29.2592,52.4169 32.4834,56.5 1.5201,1.925 5.8233,8.9 9.5628,15.5 3.7395,6.6 18.229,31.03 32.1988,54.2889 52.1858,86.8859 61.5972,99.8685 113.6038,156.7111 45.7533,50.0079 89.0891,94.2244 120.2205,122.6638 18.3836,16.7939 34.7072,33.3619 49.1011,49.8362 11.2787,12.9088 39.8369,48.0675 51.9385,63.9427 4.3782,5.7435 11.5604,14.2517 15.9604,18.9072 11.87752,12.5671 19.76552,15.5863 28.78982,11.0195 z m 774.2102,-12.8694 c -0.3399,-0.55 -1.1855,-1 -1.879,-1 -2.1332,0 -9.4978,-6.9336 -12.1234,-11.4139 -4.469,-7.6257 -8.4334,-21.0316 -10.4736,-35.4172 -0.8344,-5.883 -0.7587,-7.6502 0.4049,-9.4524 1.5607,-2.417 1.1947,-4.1087 -8.1603,-37.7165 -9.1968,-33.0392 -17.5453,-71.5174 -19.8998,-91.7178 -3.3746,-28.9522 1.7209,-64.2816 11.0574,-76.6666 4.772,-6.3301 10.4768,-8.8124 19.3238,-8.4081 3.9875,0.1823 7.25,0.034 7.25,-0.3295 0,-1.7707 -8.6118,-3.8764 -15.7702,-3.856 -9.8799,0.028 -14.9076,2.1826 -18.9628,8.1263 -18.7892,27.539 -16.434,89.9908 6.2169,164.8517 6.4947,21.465 8.3054,29.2799 11.0673,47.7673 4.6181,30.912 8.6102,42.7911 16.7102,49.7244 4.8492,4.1508 17.1469,8.596 15.2386,5.5083 z m 7.4196,-4.4584 c 4.4356,-2.2938 11.7369,-11.0897 13.5281,-16.2974 2.4073,-6.9989 3.8548,-24.9528 3.2043,-39.7442 -0.5215,-11.8573 -2.3196,-28.4903 -3.173,-29.3512 -0.8034,-0.8106 -36.7042,29.4099 -40.2857,33.9116 -2.3021,2.8934 -2.3036,2.9172 -0.7698,11.8051 2.0735,12.0155 6.1244,24.6262 9.7461,30.3407 2.8818,4.547 10.7246,10.7938 13.5515,10.7938 0.758,0 2.6474,-0.6563 4.1985,-1.4584 z m -35.3289,-12.7916 c -2.7971,-9.7948 -5.852,-24.5605 -7.6032,-36.75 -2.634,-18.3337 -3.549,-22.248 -11.5012,-49.1978 -12.8346,-43.496 -19.1513,-83.2994 -18.219,-114.8022 0.6841,-23.1158 3.8856,-37.2289 11.201,-49.3774 1.8622,-3.0924 2.9219,-5.6226 2.355,-5.6226 -0.567,0 -4.1543,1.6413 -7.9718,3.6474 -15.1996,7.9871 -21.0552,19.7264 -23.9809,48.0762 -1.5267,14.7939 -0.3743,24.5904 6.2437,53.0788 3.854,16.59 4.8913,22.592 4.05,23.4333 -0.622,0.622 -1.4278,0.8341 -1.7906,0.4713 -0.3628,-0.3628 -2.6245,-9.1078 -5.026,-19.4333 -2.4014,-10.3255 -4.6261,-19.4487 -4.9437,-20.2737 -0.3771,-0.9798 -1.7208,0.7543 -3.8745,5 -4.7319,9.3285 -5.7057,20.1148 -4.4689,49.5 2.4682,58.6411 2.4504,55.7455 0.3407,55.3348 -1.497,-0.2914 -1.9382,-1.3233 -2.0746,-4.8525 -0.095,-2.4653 -0.2078,-4.8565 -0.25,-5.3139 -0.042,-0.4573 -1.5392,0.07 -3.3267,1.1711 -1.7875,1.1015 -5.5239,3.1424 -8.3032,4.5354 -2.7792,1.3929 -5.8419,3.4041 -6.8058,4.4693 -1.6997,1.8782 -1.5211,2.106 5.9055,7.5295 16.053,11.7234 77.5283,51.4466 79.8201,51.577 0.4767,0.027 0.5775,-0.9632 0.2241,-2.2007 z m 20.9093,-55.1969 c 4.4,-3.7411 9.164,-7.809 10.5867,-9.0398 1.4227,-1.2308 3.0558,-2.4123 3.629,-2.6255 1.948,-0.7247 9.4652,-8.0403 8.8717,-8.6337 -0.8633,-0.8633 -3.6062,0.8032 -18.4593,11.2155 -11.8279,8.2917 -16.1281,10.2868 -16.1281,7.483 0,-0.4584 5.85,-4.9541 13,-9.9905 7.358,-5.1828 13.0345,-9.8742 13.0795,-10.8096 0.251,-5.2167 1.9274,-19.45 3.728,-31.6525 3.0994,-21.0039 4.1925,-37.1941 4.1925,-62.0939 0,-34.9007 -2.1495,-47.8055 -10.1656,-61.0321 -7.4431,-12.2811 -16.5678,-18.3471 -27.6242,-18.3642 -11.9916,-0.019 -17.7534,5.6974 -22.1435,21.9672 -6.7773,25.1168 -6.6521,51.9699 0.4009,86.023 3.9775,19.2041 12.338,53.412 17.9636,73.5 2.9265,10.45 5.6245,20.2945 5.9957,21.8766 l 0.6747,2.8765 2.1992,-1.949 c 1.2096,-1.0719 5.7992,-5.0099 10.1992,-8.751 z m 67.8249,-6.4345 c 6.5237,-5.0749 12.5486,-12.6875 21.2724,-26.8782 3.2465,-5.2809 7.5879,-12.1079 9.6476,-15.171 2.0597,-3.0632 3.3006,-5.7183 2.7576,-5.9002 -1.5359,-0.5146 -27.3889,2.8086 -28.1175,3.6143 -1.1224,1.2411 -7.1159,18.266 -10.4616,29.7165 -2.341,8.0122 -3.6851,11.0946 -4.9484,11.3483 -1.4974,0.3007 -1.6387,-0.1777 -1.0337,-3.5 0.9045,-4.9675 5.7734,-20.7259 9.4178,-30.4812 2.0636,-5.5238 2.5845,-8.1099 1.8854,-9.3592 -1.1982,-2.141 -0.1771,-4.5444 6.1636,-14.5079 11.0331,-17.3369 13.5008,-21.2908 15.006,-24.0433 3.2751,-5.9891 16.1075,-20.9958 31.6021,-36.9567 24.6359,-25.3772 33.7892,-36.65 46.9651,-57.8395 9.8667,-15.8677 14.7891,-25.9164 23.0211,-46.9956 3.7235,-9.5343 7.8336,-18.5992 9.1337,-20.1443 1.3002,-1.5451 2.3639,-3.2523 2.3639,-3.7936 0,-1.4832 -5.4157,-3.4247 -8.518,-3.0538 -2.5261,0.3021 -2.9455,1.0459 -5.54,9.8268 -5.586,18.9052 -15.9621,40.0142 -26.298,53.5 -7.8437,10.2342 -25.0035,29.7846 -38.7765,44.1787 -24.8189,25.9381 -35.1616,39.372 -47.5962,61.8213 -6.8449,12.3578 -10.2098,20.2425 -20.2714,47.5 -4.771,12.925 -9.6341,25.8445 -10.8069,28.71 l -2.1323,5.21 2.3387,1.29 c 1.2862,0.7095 4.3101,2.4119 6.7196,3.7831 5.1411,2.9257 7.9952,3.8915 9.381,3.1743 0.55,-0.2846 3.6212,-2.5566 6.8249,-5.0488 z m -168.4662,-3.6137 c 3.6581,-1.9223 7.9479,-4.6975 9.5329,-6.1672 2.8781,-2.6687 2.8809,-2.6835 2.1469,-11.255 -0.4042,-4.7205 -0.9152,-22.4674 -1.1356,-39.4377 l -0.4007,-30.855 3.9989,-8.5334 c 2.1994,-4.6934 3.9989,-8.6962 3.9989,-8.895 0,-0.1989 -3.0911,-0.3616 -6.869,-0.3616 -7.4603,0 -21.6689,-2.1327 -29.631,-4.4476 -2.75,-0.7995 -9.892,-2.8389 -15.871,-4.532 -5.9791,-1.6931 -14.1917,-4.6975 -18.2503,-6.6766 -6.1792,-3.0131 -8.1516,-3.5227 -12.1289,-3.1339 -10.5,1.0263 -22.796,9.9375 -35.5608,25.7717 -3.3336,4.1351 -11.4232,12.9869 -17.9771,19.6706 l -11.9161,12.1523 13.4738,8.022 c 18.8651,11.2321 27.4483,15.3265 41.0358,19.5752 10.704,3.3471 13.1297,4.5914 26,13.3369 7.807,5.3049 20.0446,14.0258 27.1946,19.3797 7.15,5.3538 13.6092,9.7674 14.3538,9.808 0.7445,0.04 4.3467,-1.4991 8.0049,-3.4214 z m 144.2939,-12.5067 c 2.0767,-5.224 6.7579,-17.8232 10.4028,-27.9982 7.6814,-21.4433 15.4142,-38.122 24.6414,-53.1491 11.3449,-18.4755 22.4435,-31.9666 48.4138,-58.8497 25.1915,-26.077 41.7658,-48.7526 50.5823,-69.2027 4.2727,-9.9106 9.8587,-27.8524 9.076,-29.1513 -1.1287,-1.8729 -11.0126,-5.6282 -14.8374,-5.6374 -8.5507,-0.021 -20.535,5.0902 -29.0464,12.387 -2.2631,1.9402 -6.9632,7.7072 -10.4445,12.8154 -12.5858,18.4677 -18.8667,25.1877 -28.9406,30.9638 -10.8143,6.2005 -28.6704,10.517 -39.6953,9.5957 -7.3696,-0.6159 -10.22,0.4023 -13.1526,4.6983 -1.2913,1.8917 -4.6663,5.5804 -7.5,8.1973 -8.4006,7.7579 -8.8592,9.5225 -6.1519,23.6707 0.9419,4.9221 1.4998,13.7574 1.4998,23.75 0,15.3513 -0.072,15.912 -2.0408,15.912 -1.9771,0 -2.0191,-0.3625 -1.3465,-11.6132 l 0.6943,-11.6131 -3.4035,0.6878 c -1.8719,0.3783 -4.0785,0.8743 -4.9035,1.1022 -1.2902,0.3564 -1.5116,4.7862 -1.5827,31.6754 -0.084,31.8044 -0.5774,38.2646 -5.8994,77.2609 -0.8257,6.05 -1.505,11.5574 -1.5096,12.2386 -0.01,0.8778 1.7942,1.1691 6.179,1 l 6.1873,-0.2386 0.6998,3.3153 c 0.8157,3.8649 4.6799,8.3787 6.82,7.9665 0.8333,-0.1605 3.1357,-4.4444 5.2582,-9.7836 z m -287.8711,-2.0861 c 3.4202,-1.1484 8.9185,-3.7145 12.2185,-5.7024 7.5891,-4.5716 31.8947,-22.0375 32.3172,-23.223 0.1745,-0.4895 -2.4049,-2.2642 -5.732,-3.9437 -3.327,-1.6795 -10.7774,-5.9762 -16.5564,-9.5483 -5.7789,-3.5721 -10.9032,-6.4947 -11.3873,-6.4947 -1.1256,0 -20.0084,19.5244 -26.9507,27.8664 -7.4731,8.9799 -7.0682,9.6453 5.8327,9.5833 5.7621,-0.028 11.9113,-0.5572 13.665,-1.1766 2.5243,-0.8916 3.4231,-0.8436 4.3146,0.2306 1.5974,1.9248 -1.2853,3.2565 -9.674,4.4694 -19.1105,2.7629 -26.361,-0.2093 -21.8396,-8.9528 2.5717,-4.9731 19.3647,-23.3033 35.748,-39.0203 8.3131,-7.975 20.4397,-20.9054 26.948,-28.7342 13.0153,-15.656 19.0324,-21.0122 28.8145,-25.6495 9.3646,-4.4394 15.9324,-4.2734 26.2006,0.6623 7.8479,3.7723 24.3108,9.0509 26.2313,8.4108 1.5151,-0.5051 -5.2553,-4.5829 -19.2879,-11.6172 -14.2095,-7.123 -50.5316,-26.5001 -60.644,-32.3523 -3.85,-2.228 -16.9,-10.2106 -29,-17.7391 -12.1,-7.5285 -27.85,-17.3145 -35,-21.7468 -7.15,-4.4323 -19.6213,-13.0161 -27.7139,-19.0752 -20.2366,-15.1512 -34.255,-24.3027 -54.7861,-35.7655 -9.625,-5.3737 -26.9428,-15.0348 -38.484,-21.4691 -28.678,-15.9881 -37.4913,-22.6182 -47.7535,-35.9242 -10.3224,-13.384 -20.1465,-23.0025 -30.8188,-30.1737 -4.644,-3.1206 -20.8187,-11.7475 -35.9437,-19.1709 -27.3509,-13.4241 -35.5753,-17.9087 -69,-37.6243 -32.6569,-19.2629 -44.0141,-28.0731 -80.5,-62.4471 -45.8402,-43.1867 -57.5014,-53.5317 -70.0633,-62.155 l -8.0634,-5.5352 -19.4366,1.064 c -34.4474,1.8857 -47.01642,3.5694 -72.27192,9.6815 -10.9084,2.6399 -15.1303,3.2952 -15.95,2.4755 -1.8652,-1.8652 0.093,-2.6572 15.7852,-6.3856 24.2068,-5.7514 38.49182,-7.6731 69.50002,-9.3493 16.3796,-0.8855 13.9014,-1.7264 -10,-3.3935 -29.47552,-2.0559 -66.55372,1.2268 -98.74022,8.742 -11.028,2.5749 -14.0693,2.5454 -11.2003,-0.1085 2.7674,-2.5599 23.1117,-6.9197 47.9405,-10.2735 16.8594,-2.2774 67.27312,-2.6144 81.36422,-0.544 4.8753,0.7164 9.0499,1.1168 9.2769,0.8899 0.2269,-0.227 -0.2727,-4.6381 -1.1102,-9.8025 -1.887,-11.635 -1.9076,-21.3103 -0.074,-34.8898 1.9833,-14.6909 3.5023,-21.047 5.1843,-21.6924 0.795,-0.3051 1.6714,-0.3287 1.9477,-0.053 0.2762,0.2762 -0.4314,4.9443 -1.5724,10.3736 -2.333,11.1009 -3.6581,36.229 -2.2872,43.3713 l 0.8638,4.5 1.6704,-6.573 c 2.1395,-8.4193 7.1328,-20.1434 9.1103,-21.3908 2.9343,-1.8509 2.8346,0.4124 -0.3556,8.0758 -4.6847,11.2531 -5.9752,15.9892 -6.6688,24.4743 l -0.6202,7.5863 7.3292,5.1637 c 4.031,2.84 8.0438,5.1637 8.9172,5.1637 0.8734,0 7.1988,-1.6535 14.0564,-3.6745 10.2116,-3.0094 14.1399,-3.6882 21.7031,-3.75 5.5108,-0.045 9.2542,0.3278 9.2828,0.9245 0.027,0.55 -4.3542,1.5427 -9.7347,2.2061 -5.3805,0.6633 -14.7839,2.6924 -20.8964,4.509 l -11.1137,3.303 8.1137,7.2631 c 4.4625,3.9947 14.2552,12.9906 21.7615,19.9909 7.5064,7.0004 23.0314,21.4691 34.5,32.1527 31.9538,29.7665 44.3579,39.2167 74.9772,57.122 16.9607,9.918 18.8931,10.7958 26.5826,12.0744 18.1978,3.0259 56.5892,0.9566 87.2923,-4.705 14.246,-2.6269 18.5,-2.9477 18.5,-1.3948 0,1.639 -3.7178,2.7489 -16.5,4.9261 -29.8731,5.0883 -61.5873,7.6321 -77.5,6.2164 -5.225,-0.4648 -9.613,-0.7664 -9.7511,-0.6701 -0.1381,0.096 3.7302,2.3904 8.5962,5.098 l 8.8472,4.9229 14.9039,-0.7582 c 16.3054,-0.8295 19.1209,-0.5094 15.9627,1.8149 -1.2702,0.9348 -4.7267,1.4631 -10,1.5283 -14.9177,0.1845 -14.7547,0.5331 4.5464,9.7234 9.5671,4.5555 21.4447,10.7415 26.3947,13.7468 4.95,3.0053 9.675,5.859 10.5,6.3416 2.5435,1.4879 17.0367,5.9623 26.432,8.1603 9.1946,2.1511 25.0239,2.9327 39.0492,1.9282 5.9619,-0.427 7.0287,-0.257 7.3068,1.1643 0.4574,2.3379 -8.9198,3.2151 -27.5915,2.5813 -11.5726,-0.3929 -16.7716,-1.0566 -24.459,-3.1223 -5.3694,-1.4428 -10.0335,-2.6233 -10.3647,-2.6233 -0.3311,0 2.037,2.8244 5.2625,6.2764 3.2256,3.452 8.4079,9.6597 11.5164,13.7948 11.7685,15.6556 13.5251,16.8287 83.3483,55.6587 21.9629,12.214 35.393,20.8697 55,35.4475 18.6327,13.8534 16.3306,12.3173 47,31.3615 49.9229,30.9997 63.7582,38.8677 106.0505,60.3097 12.4401,6.3071 19.8078,10.7179 23.7045,14.191 5.025,4.4786 6.4659,5.1917 12.9496,6.4081 4.0125,0.7528 11.4797,1.5225 16.5939,1.7105 l 9.2985,0.3418 0.2543,-19.5 c 0.1838,-14.0976 0.7412,-21.7164 2.0116,-27.5 1.9316,-8.7934 6.0925,-18.6084 10.1363,-23.9101 5.7629,-7.5555 19.36,-14.4808 34.5008,-17.5719 l 8.5,-1.7353 -10,-2.1947 c -22.2027,-4.8728 -33.899,-10.2303 -80.9861,-37.0959 -13.7423,-7.8408 -34.4423,-20.1161 -46,-27.2786 -31.0355,-19.2331 -66.3173,-41.2937 -80.5139,-50.3426 -6.875,-4.3821 -17.8069,-11.3208 -24.293,-15.4192 -6.4862,-4.0984 -16.5696,-10.9872 -22.4076,-15.3084 l -10.6146,-7.8568 2.8187,4.8568 c 5.4371,9.3686 13.5824,21.1038 20.0353,28.8654 6.2071,7.466 7.132,9.4344 4.7987,10.2121 -3.4676,1.1559 -27.2248,-33.852 -46.2965,-68.2208 -13.681,-24.6544 -27.3101,-37.796 -55.541,-53.5541 -25.2167,-14.0757 -95.3991,-63.1509 -155,-108.3841 -30.6194,-23.2382 -106.4912,-71.0572 -136.5016,-86.0317 -5.2241,-2.6067 -13.7101,-7.9549 -18.8578,-11.8848 -19.4214,-14.827 -27.8445,-20.6646 -38.0877,-26.3961 -12.7262,-7.1209 -39.1747,-19.5952 -47.4753,-22.3915 -5.8363,-1.9661 -6.3337,-1.9775 -17.5421,-0.4029 -6.34452,0.8913 -16.16492,2.5353 -21.82322,3.6532 -10.4129,2.0574 -42.0365,11.3702 -43.5164,12.8151 -1.1304,1.1037 5.3597,11.8136 9.9616,16.4387 4.6514,4.6746 11.0183,9.029 26.8425,18.3576 24.8683,14.6603 38.32702,26.2945 48.57082,41.9865 5.4184,8.3001 5.7626,9.304 3.1792,9.2733 -1.0283,-0.012 -3.2738,-2.4116 -5.4448,-5.818 -2.0321,-3.1885 -5.7592,-8.3049 -8.2823,-11.3698 l -4.5876,-5.5725 -14.71772,0.041 c -8.0947,0.023 -16.539,-0.4696 -18.7653,-1.0935 -2.3642,-0.6626 -7.7709,-4.1283 -13,-8.3331 -4.9237,-3.9593 -14.8023,-11.4523 -21.9523,-16.6512 -18.1529,-13.1992 -19.0767,-14.1735 -21.1799,-22.3378 -0.9697,-3.7643 -2.1705,-6.8442 -2.6686,-6.8442 -2.1714,0 -29.7303,11.9957 -47.1515,20.5238 -33.4557,16.3775 -49.2311,28.8348 -66.9481,52.8668 l -2.8682,3.8907 2.0664,6.1093 c 1.1366,3.3602 6.3767,18.7151 11.6448,34.1221 10.0975,29.5311 12.0731,37.4873 9.3084,37.4873 -1.6271,0 -1.8613,-0.5102 -3.6725,-8 -1.6589,-6.86 -21.3861,-64 -22.0956,-64 -0.3423,0 -2.9162,4.8375 -5.7197,10.75 -5.2122,10.9921 -8.6234,21.854 -9.6571,30.75 -0.5668,4.8779 -0.457,5.1466 4.4975,11 2.7932,3.3 10.5398,12.75 17.2147,21 23.7038,29.2972 38.8581,46.4686 51.7641,58.6542 7.1917,6.7902 14.698,13.3284 16.6807,14.5295 4.7719,2.8905 15.8593,5.791 31.7846,8.3149 17.2441,2.7328 41.9361,9.2146 50.8336,13.3442 17.4502,8.0989 37.3656,32.1845 47.65872,57.6382 4.5811,11.3285 13.0006,28.1729 17.004,34.019 4.4198,6.454 2.6776,11.9698 -3.803,12.04 l -3.6933,0.04 2.7835,1.5094 c 4.9548,2.687 17.2493,5.2629 34.9587,7.3247 19.4623,2.2658 27.8508,4.49 38.7578,10.2765 l 7.5,3.979 8.5,-0.6534 c 10.9199,-0.8396 20.3891,-2.6855 30.8689,-6.0175 5.9977,-1.907 8.6753,-2.3546 9.45,-1.5799 1.6498,1.6498 0.032,2.6215 -9.148,5.493 -10.0737,3.1512 -23.5061,5.5881 -30.8019,5.5881 -2.9529,0 -5.3661,0.3375 -5.3626,0.75 0.014,1.6517 23.9061,24.0797 29.8576,28.028 6.0483,4.0126 6.7323,4.222 13.7921,4.222 9.2838,0 19.8471,-2.1095 33.1969,-6.6296 10.2795,-3.4805 15.1127,-3.8492 12.0745,-0.9211 -1.7283,1.6657 -16.2336,6.8174 -24.1837,8.589 -3.1658,0.7055 -5.5429,1.496 -5.2822,1.7566 0.2606,0.2606 4.2009,0.7509 8.7561,1.0895 12.8517,0.9552 9.294,2.6237 -5.4677,2.5642 -7.0125,-0.028 -12.75,0.047 -12.75,0.1673 0,0.2708 18.0716,6.176 31.5,10.2931 18.5701,5.6937 28.7113,13.1121 44.5524,32.591 3.7065,4.5577 11.2802,11.8726 17.6012,17 6.1024,4.95 15.9179,13.6156 21.8124,19.2568 18.2823,17.497 35.5588,27.4386 65.5125,37.6985 7.2974,2.4996 13.7074,4.5447 14.2444,4.5447 0.5369,0 -4.6283,-3.7428 -11.4783,-8.3172 -14.7339,-9.8395 -25.0087,-18.0558 -37.1012,-29.6684 -10.1918,-9.7873 -13.07,-13.4602 -12.241,-15.6208 0.4318,-1.125 3.5248,1.4003 11.5747,9.4502 26.7027,26.7027 46.8708,39.6753 108.0229,69.483 36.948,18.0098 63.5149,35.011 99.6193,63.7502 16.0356,12.7645 20.8986,16.0427 26.8807,18.1208 6.5923,2.29 10.287,2.2307 17.7815,-0.2857 z m -79.7815,-113.6076 c -20.3756,-1.8305 -50.3651,-7.7238 -73.0885,-14.3628 -29.6152,-8.6527 -67.1657,-25.4465 -100.1615,-44.7955 -10.508,-6.162 -13.6425,-9.1732 -9.5,-9.1264 0.9625,0.011 6.25,2.7367 11.75,6.0575 20.4663,12.357 57.2947,29.8242 80.9197,38.379 23.5652,8.5332 59.3648,16.7519 85.5803,19.6471 6.325,0.6985 21.7375,1.2496 34.25,1.2246 17.3972,-0.035 22.75,0.2449 22.75,1.1883 0,0.6786 -1.4062,1.515 -3.125,1.8587 -3.187,0.6374 -42.1136,0.5818 -49.375,-0.071 z m -209.5022,-65.0423 c -4.6088,-10.419 -9.2006,-25.8808 -12.9107,-43.474 -2.1465,-10.1786 -4.8113,-20.2875 -5.9218,-22.4642 -2.154,-4.2222 -4.8308,-6.9918 -5.8106,-6.012 -0.3283,0.3283 -0.8247,7.4799 -1.1031,15.8925 -0.4525,13.6722 0.5034,29.3829 2.3451,38.5455 0.5649,2.8104 0.3798,3.25 -1.3684,3.25 -1.7728,0 -2.1869,-1.0775 -3.3627,-8.75 -1.4001,-9.1357 -1.8145,-45.6319 -0.5721,-50.3897 1.6329,-6.2536 7.6256,-3.9674 12.3763,4.7216 2.495,4.5633 4.0784,9.8067 6.3413,21 3.8831,19.2068 6.1823,27.5058 11.1173,40.1278 3.7173,9.5077 4.1383,12.2903 1.8594,12.2903 -0.4918,0 -1.8373,-2.132 -2.99,-4.7378 z m -38.6787,-32.4959 c -0.9146,-1.414 -0.78,-21.4235 0.1788,-26.5786 0.4521,-2.4304 1.0669,-3.2134 2.3091,-2.9407 0.9312,0.2045 1.5404,1.0201 1.3539,1.8124 -0.1865,0.7923 -0.592,7.4186 -0.9012,14.725 -0.5418,12.8029 -1.194,15.6822 -2.9406,12.9819 z m 83.1834,-2.7622 c -1.3301,-2.1522 3.4976,-42.2672 5.5478,-46.0981 1.2862,-2.4033 2.451,-2.4047 4.8497,-0.01 1.9422,1.9422 5.1,11.2323 5.1,15.0039 0,3.84 -2.8738,2.2908 -3.9956,-2.1539 -0.59,-2.3375 -1.5884,-5.375 -2.2188,-6.75 -1.0459,-2.2814 -1.2552,-1.8441 -2.3928,5 -0.6857,4.125 -1.8247,13.9125 -2.5311,21.75 -0.8933,9.9111 -1.6588,14.25 -2.514,14.25 -0.6763,0 -1.5066,-0.4482 -1.8452,-0.9959 z m -98.5582,-6.9614 c -2.295,-7.5561 -3.0163,-15.3143 -1.4806,-15.9275 1.3392,-0.5347 1.9614,1.0724 4.4078,11.3848 2.5306,10.6674 2.5782,11.5 0.6573,11.5 -0.9515,0 -2.2178,-2.4578 -3.5845,-6.9573 z m 132.9556,-3.7927 c -0.5778,-1.5125 -2.1551,-7.475 -3.505,-13.25 -1.35,-5.775 -3.8972,-15.675 -5.6606,-22 -2.9948,-10.7423 -3.2399,-11.2364 -3.7202,-7.5 -0.3419,2.6604 -1.0165,4 -2.0141,4 -2.2578,0 -2.7593,-15.2714 -0.5296,-16.127 4.0282,-1.5458 6.5368,4.607 14.0674,34.5028 2.9678,11.7822 5.1594,21.8051 4.8701,22.2732 -1.0045,1.6253 -2.4633,0.8357 -3.508,-1.899 z m -45.6044,-6.4576 c -0.5608,-0.7108 -1.3223,-2.6424 -1.692,-4.2924 -0.3698,-1.65 -1.2023,-4.3362 -1.8501,-5.9693 l -1.1777,-2.9693 -0.5829,2.4693 c -0.3207,1.3581 -1.2377,2.4693 -2.0379,2.4693 -1.5286,0 -1.7638,-4.1411 -0.5172,-9.1076 1.4913,-5.9422 7.1633,0.7783 9.5111,11.2693 1.2626,5.6422 0.4217,8.7605 -1.6533,6.1307 z m 53.768,-30.5424 c -4.2214,-5.6813 -12.0635,-20.1785 -12.0635,-22.3011 0,-0.6026 0.7201,-0.9501 1.6003,-0.7722 0.8801,0.1778 3.8293,4.3733 6.5537,9.3233 2.7244,4.95 6.2793,10.6611 7.8997,12.6914 1.6205,2.0302 2.9463,4.3927 2.9463,5.25 0,3.1034 -2.7516,1.4408 -6.9365,-4.1914 z m 109.9852,-38.6998 c -1.839,-1.8974 -4.2898,-3.5849 -5.4462,-3.75 -2.9664,-0.4236 -2.6528,-3.2407 0.3975,-3.5704 2.7936,-0.302 12,6.8698 12,9.348 0,2.5359 -3.5247,1.5077 -6.9513,-2.0276 z m -366.0487,-268.8611 c 0,-5.2702 7.1457,-18.605 13.3129,-24.8436 7.5339,-7.6211 13.4227,-11.5212 14.9749,-9.9177 0.9577,0.9892 0.4773,1.8001 -2.2878,3.862 -11.4093,8.5076 -20.3083,20.5474 -21.8463,29.5566 -0.4706,2.7566 -1.2811,4.247 -2.4299,4.4683 -1.3634,0.2625 -1.7238,-0.391 -1.7238,-3.1256 z m 793.25,536.6555 c 8.1631,-0.6009 10.1816,-1.3418 7.75,-2.8446 -1.9074,-1.1788 -0.966,-3.2269 5.75,-12.5097 10.4717,-14.474 18.9383,-24.8691 31.8186,-39.0659 30.6604,-33.7943 52.641,-68.451 62.3585,-98.3202 5.1883,-15.9475 9.1174,-38.574 7.2034,-41.4823 -1.9456,-2.9565 -4.0499,0.8169 -11.6721,20.9306 -6.9776,18.4126 -12.0665,28.7726 -22.2175,45.231 -12.2187,19.8107 -22.3644,32.5395 -43.1466,54.1321 -17.0636,17.729 -33.0943,36.0502 -33.0943,37.8229 0,0.4922 -1.082,2.3274 -2.4045,4.0782 -1.8677,2.4728 -15.8028,24.0539 -21.0443,32.5911 -0.7196,1.1722 0.041,1.2968 4.5422,0.7444 2.9736,-0.365 9.3441,-0.9534 14.1566,-1.3076 z m -57,-94.035 c 1.1593,-0.661 0.9015,-4.8463 -0.9302,-15.1011 -1.3289,-7.4401 -1.449,-10.2724 -0.5745,-13.5487 0.6081,-2.2782 1.0267,-4.2022 0.9302,-4.2756 -0.096,-0.073 -4.7738,-0.4499 -10.394,-0.8367 l -10.2185,-0.7033 3.9489,6.8279 c 3.8157,6.5978 7.9881,19.8236 7.9881,25.3212 0,1.4703 0.3053,2.9787 0.6785,3.3519 0.6429,0.6429 6.9681,-0.1212 8.5715,-1.0356 z m 5.6171,-38.7409 c 1.5224,-0.7872 5.3364,-4.6327 8.4757,-8.5456 l 5.7078,-7.1142 -1.6195,-3.4128 c -0.8907,-1.877 -4.3382,-6.469 -7.6611,-10.2044 -3.3229,-3.7354 -6.9069,-8.7161 -7.9643,-11.0681 l -1.9227,-4.2765 -3.0697,2.1859 c -4.6275,3.295 -18.4537,16.1279 -26.0546,24.1827 l -6.7414,7.1438 5.6628,5.7225 c 6.2877,6.354 6.0141,6.2771 23.6196,6.6378 5.9897,0.1226 9.6834,-0.2768 11.5674,-1.2511 z m -31.9689,-25.8388 c 17.0818,-16.6321 22.9421,-21.3605 41.6018,-33.5667 31.9196,-20.8801 42.5,-30.9717 42.5,-40.5366 0,-4.8287 -3.6631,-8.1901 -18.3647,-16.8522 -6.6744,-3.9325 -20.6853,-12.8339 -31.1353,-19.7809 -10.45,-6.947 -25.975,-17.0954 -34.5,-22.5519 -8.525,-5.4566 -20,-13.2722 -25.5,-17.3681 -5.5,-4.0959 -22.6428,-15.1741 -38.0951,-24.6182 -15.4523,-9.4441 -40.9535,-25.6725 -56.6693,-36.0632 -55.319,-36.5746 -102.9024,-65.8254 -123.9134,-76.1727 -38.3541,-18.8885 -72.2431,-31.2565 -189.8222,-69.2767 -15.675,-5.0686 -33.86,-11.3868 -40.4112,-14.0404 -6.5512,-2.6536 -11.5012,-4.4468 -11,-3.9848 0.5012,0.4619 19.1362,12.974 41.4112,27.8047 54.401,36.2201 77.9008,53.8935 121.5894,91.4431 97.3554,83.6755 120.2621,102.5686 140.2813,115.702 5.1539,3.3811 12.4634,7.8317 16.2433,9.8901 6.5623,3.5736 8.7947,6.2426 5.2213,6.2426 -2.4159,0 -15.2834,-7.2327 -26.9546,-15.1507 -16.8178,-11.4097 -59.084,-46.2674 -119.8807,-98.8677 -58.668,-50.7585 -79.5767,-66.7216 -141.3334,-107.9036 -56.8423,-37.9049 -70.7072,-47.6374 -91.1569,-63.9878 -2.8598,-2.2865 -3.9492,-2.813 -3,-1.45 3.9088,5.6133 40.4129,46.6716 51.5345,57.9639 7.6041,7.7209 12.3328,13.2741 12.0129,14.1076 -0.3831,0.9985 -1.0261,1.1077 -2.3501,0.3991 -2.9482,-1.5778 -26.6859,-26.4608 -40.1891,-42.1282 -24.3819,-28.2894 -35.6195,-40.7802 -58.4282,-64.944 -51.7786,-54.8546 -58.5365,-62.083 -68.9437,-73.7437 -13.1809,-14.7686 -24.9628,-29.7455 -32.8788,-41.7949 -3.2519,-4.95 -7.17,-10.35 -8.7067,-12 -3.0883,-3.3158 -26.99,-36.6358 -43.0403,-60 -22.1108,-32.1863 -36.6503,-50.6851 -64.44972,-81.99998 -46.9211,-52.855 -62.4111,-68.2402 -87.5705,-86.9784 -22.813,-16.9906 -73.513,-50.84738 -89.0076,-59.43808 -16.2306,-8.99877 -16.3773,-9.09866 -15.1549,-10.32098 1.3792,-1.37921 4.897,0.085 17.9687,7.47884 13.69,7.74363 65.1638,41.90712 82.4974,54.75412 7.5919,5.6269 13.9592,10.0673 14.1494,9.8676 1.4782,-1.5517 9.7094,-23.0394 11.4166,-29.8035 2.3358,-9.25435 2.9066,-24.7407 1.0404,-28.22773 -2.1519,-4.0209 -22.892,-12.58638 -63.41,-26.18775 -43.3948,-14.56707 -53.0184,-18.38665 -78.6178,-31.20312 -9.273,-4.64255 -17.385,-8.441 -18.0268,-8.441 -0.8649,0 -1.0025,3.80387 -0.5317,14.7037 l 0.6351,14.70371 -4.9818,4.80181 -4.9818,4.8018 -1.4527,10.34898 c -2.2492,16.02265 -4.1449,18.43941 -13.5866,17.32118 -5.6573,-0.67002 -20.7458,2.36082 -22.0205,4.42327 -0.3981,0.64424 -0.9895,2.83239 -1.3141,4.86255 -0.3247,2.03016 -1.6174,5.23061 -2.8728,7.1121 -3.2797,4.9152 -13.1855,11.1881 -21.8104,13.8116 -11.4178,3.4729 -11.7739,3.8403 -10.468,10.8015 l 0.6552,3.4924 4.6873,-0.5153 c 2.5781,-0.2835 8.7374,-1.2153 13.6874,-2.0707 13.4997,-2.333 21.5641,-2.1236 25.0851,0.6514 2.5213,1.9871 4.4361,2.3267 16.3849,2.9067 14.5116,0.7044 32.8881,4.2983 57.03,11.1534 6.875,1.9522 18.35,5.1119 25.5,7.0215 15.0886,4.0299 33.7817,11.7741 44.5,18.4355 8.6961,5.4047 18.6237,15.2551 29.8266,29.5949 9.3978,12.0292 13.6958,18.9259 23.282,37.3586 8.0249,15.43048 15.8521,27.83088 28.1387,44.57898 4.5749,6.2362 9.6534,13.8978 11.2854,17.0257 2.1374,4.0966 3.3868,5.5138 4.4673,5.0675 4.181,-1.7273 4.943,-1.535 6.9477,1.7533 2.8794,4.7228 2.7051,10.5631 -0.4123,13.817 l -2.4647,2.5725 7.7445,15.4822 c 4.2594,8.5152 10.6292,22.6822 14.15502,31.4822 l 6.4107,16 13.5806,13.5 c 7.4693,7.425 19.6461,18.4318 27.0595,24.4595 33.9224,27.5818 55.6322,48.5277 81.9423,79.0589 5.2048,6.0399 15.7292,17.9566 23.3876,26.4816 13.9091,15.483 13.9421,15.511 30.0523,25.5 38.4192,23.8215 61.2046,39.0974 82.2749,55.1589 52.2939,39.8628 129.1572,93.5922 151.3219,105.7778 16.1409,8.8739 25.7628,15.6588 34.3596,24.2285 8.9979,8.9696 13.4554,14.9704 23.6473,31.8348 3.9887,6.6 9.1063,13.9564 11.3726,16.3475 8.0962,8.5423 21.9395,18.565 50.6289,36.6561 50.559,31.8817 62.3357,39.2778 69.9916,43.9564 4.675,2.857 16.8521,10.4074 27.0602,16.7786 21.0117,13.1141 66.6847,39.1035 83.9398,47.7643 13.8855,6.9696 22.2758,10.0321 35.5,12.9577 16.7146,3.6979 23.3733,5.9508 26.7974,9.0666 1.7614,1.6028 3.3818,2.9274 3.6008,2.9435 0.2191,0.016 6.0691,-5.4922 13,-12.2408 z m -51.8982,-72.8263 c -15.1781,-5.3819 -36.3156,-18.0146 -54,-32.2727 -4.675,-3.7692 -19.9209,-16.8156 -33.8798,-28.992 -26.7166,-23.3051 -34.6572,-29.6496 -60.6202,-48.4353 -8.8,-6.3673 -34.225,-25.1407 -56.5,-41.7187 -87.2484,-64.9342 -95.1649,-70.5792 -106.4959,-75.9396 -3.0272,-1.4321 -5.5041,-3.0548 -5.5041,-3.606 0,-2.1793 3.0494,-1.9489 8.1488,0.6157 11.8969,5.9832 27.9409,17.4485 104.2099,74.4705 18.7777,14.039 39.7663,29.5427 46.6413,34.4527 33.4576,23.8945 45.1184,33.2028 81.5,65.0575 35.7802,31.3282 54.7682,44.1929 77.5,52.5077 4.5474,1.6633 7.6273,3.3758 7.8233,4.35 0.4228,2.1007 -1.8778,1.973 -8.8233,-0.4898 z m -17,-51.8951 c -14.5852,-3.9349 -23.7333,-7.3789 -36.2731,-13.6558 -21.2154,-10.6195 -48.1607,-28.1679 -82.9356,-54.0124 -11.3898,-8.4648 -25.542,-18.461 -31.4494,-22.2136 -10.7508,-6.8295 -13.1692,-9.1267 -9.608,-9.1267 3.3695,0 18.2115,9.6578 41.7661,27.1775 36.4931,27.1433 70.7029,49.1045 90.6571,58.1979 8.2661,3.767 26.1718,9.7252 35.1338,11.691 4.1935,0.9198 5.7107,1.6836 5.5,2.769 -0.4445,2.2902 -1.4863,2.2229 -12.7909,-0.8269 z m -772.24782,54.2975 3.2521,-3.422 -7.9622,-9.692 c -4.3792,-5.3306 -11.5589,-13.967 -15.9548,-19.192 -4.3959,-5.225 -8.0138,-10.2875 -8.0399,-11.25 -0.094,-3.4596 2.8131,-1.6295 8.0856,5.0908 8.7964,11.2118 23.0771,28.294 27.4854,32.8773 4.0297,4.1897 4.2599,4.2819 10.6849,4.2819 10.7978,0 13.1441,-1.6893 14.3263,-10.3143 0.6016,-4.3889 0.5963,-4.3979 -3.7636,-6.5103 -2.4013,-1.1635 -7.3386,-5.1664 -10.9717,-8.8954 -12.0337,-12.3512 -27.9565,-30.5935 -27.6102,-31.6322 0.841,-2.5231 2.867,-1.1574 9.754,6.5747 4.055,4.5526 12.2716,13.2931 18.2591,19.4232 12.5574,12.8566 15.1695,14.1457 25.7443,12.7053 7.43832,-1.0131 8.50162,-2.2436 7.53112,-8.7153 -0.6909,-4.6071 -0.8328,-4.7611 -7.1263,-7.7347 -7.99042,-3.7753 -9.53012,-5.6453 -26.95362,-32.7365 -10.1402,-15.7666 -13.429,-21.6282 -12.6001,-22.4571 1.6015,-1.6015 2.0856,-0.9678 17.5728,23.0026 7.537,11.6655 15.4068,22.7487 17.4883,24.6292 2.0816,1.8806 6.33542,4.3736 9.45302,5.54 9.5792,3.5841 13.6552,2.401 9.7811,-2.839 -2.9453,-3.9838 -13.5177,-25.1829 -17.14532,-34.3786 -4.2978,-10.8948 -6.4041,-14.8366 -13.4065,-25.0889 -7.3827,-10.809 -19.9099,-24.2566 -26.5894,-28.5428 -9.202,-5.9049 -31.2773,-12.2698 -57.0466,-16.4481 -28.5842,-4.6348 -31.537,-6.099 -51.2767,-25.4272 -14.6021,-14.2977 -29.1114,-30.7893 -51.1647,-58.1546 -5.9837,-7.425 -13.9291,-17.1 -17.6564,-21.5 -3.7274,-4.4 -9.7899,-11.6 -13.4724,-16 -8.0918,-9.6686 -9.9283,-11.7407 -49.6861,-56.0636 -17.2987,-19.285 -33.5195,-36.7576 -36.0462,-38.828 -2.8351,-2.3232 -5.0562,-5.1702 -5.8016,-7.4364 -2.0976,-6.3781 -7.5275,-19.2941 -12.7505,-30.3293 -2.7743,-5.8615 -5.8112,-13.0025 -6.7487,-15.8688 -1.1366,-3.4748 -3.4028,-7.0033 -6.8007,-10.5887 -4.2971,-4.5343 -6.0366,-5.6165 -11.096,-6.9037 -10.2137,-2.5985 -19.3415,-2.9602 -25.9824,-1.0296 -8.3323,2.4222 -20.2401,8.634 -25.4882,13.296 l -4.4707,3.9714 11.3962,17.3903 c 14.3489,21.8962 25.2065,39.4883 61.0337,98.8904 15.7568,26.125 38.4562,63.25 50.4431,82.5 11.9869,19.25 24.106,38.7358 26.9313,43.3018 l 5.137,8.3018 16.5,10.281 c 9.075,5.6546 24.15,14.689 33.5,20.0765 50.5435,29.1235 73.3633,52.2788 96.0225,97.4342 5.8349,11.6277 6.9857,13.2498 12.2098,17.211 6.2143,4.7119 25.2976,14.8937 27.9147,14.8937 1.0508,0 -0.271,-2.1381 -3.8639,-6.25 -7.8066,-8.9342 -12.7831,-15.6795 -12.7831,-17.3266 0,-2.9883 2.9243,-1.2051 7.0952,4.3266 5.7297,7.599 21.5212,24.9526 24.4569,26.8761 2.531,1.6584 11.0436,3.2739 13.4479,2.5522 0.825,-0.2476 2.9635,-1.9902 4.7522,-3.8723 z m -293.6738,2.6791 c 2.9432,-0.5581 5.7679,-1.4314 6.277,-1.9405 0.5677,-0.5677 -4.6757,-10.1361 -13.5544,-24.7352 -7.9641,-13.0952 -21.6865,-35.9594 -30.4942,-50.8094 -21.46,-36.1819 -21.9455,-36.988 -28.6062,-47.4924 -7.9074,-12.4703 -26.7648,-45.9788 -33.7703,-60.0076 -13.5881,-27.2105 -45.4524,-101.8285 -57.009,-133.5 -3.211,-8.8 -5.8569,-15.6448 -5.8798,-15.2106 -0.1217,2.3142 17.2486,121.3324 19.4418,133.2106 3.5654,19.3105 8.6176,39.4499 13.987,55.7557 4.8998,14.8795 5.2509,16.7443 3.1523,16.7443 -3.3845,0 -15.1961,-41.0823 -21.1319,-73.5 -2.6267,-14.3455 -11.474,-75.2708 -18.4548,-127.0855 -2.1552,-15.997 -5.2608,-35.572 -6.9014,-43.5 -1.6406,-7.928 -4.15,-22.2895 -5.5764,-31.9145 -1.4265,-9.625 -3.2462,-21.55 -4.0438,-26.5 -2.3565,-14.6241 -6.3566,-52.1324 -8.4785,-79.5 -2.2754,-29.3489 -2.7808,-34.8724 -4.0719,-44.5 -1.0521,-7.8455 -4.4072,-59.2136 -5.911,-90.49998 -0.5419,-11.275 -1.2572,-42.325 -1.5894,-69 -0.692,-55.553 -0.5236,-54.346 -9.1964,-65.91149 -5.0927,-6.79134 -5.669,-7.25939 -6.8869,-5.59381 -2.9102,3.9799 -7.4367,24.3984 -9.312,42.0053 -6.3484,59.6027 -6.3981,238.37308 -0.096,344.99998 1.6579,28.05 3.4811,59.55 4.0516,70 0.5705,10.45 2.4269,40.6 4.1254,67 3.4543,53.6904 3.9477,84.567 1.8897,118.2517 -2.0895,34.1984 -1.2693,36.5386 20.2434,57.7599 8.3697,8.2565 18.1427,18.1565 21.7177,22 11.4133,12.2708 20.5565,15.2606 42.5,13.8973 20.1299,-1.2507 27.4369,-0.9266 35.7006,1.5834 10.8327,3.2904 18.4161,7.4867 41.923,23.1987 20.0255,13.385 36.4754,22.9506 42.6971,24.8284 3.7826,1.1417 7.1021,1.1331 13.2577,-0.034 z m -28.7668,-182.2351 c -10.9647,-26.8925 -34.1718,-88.0872 -41.8104,-110.25 -5.1182,-14.85 -12.4988,-36 -16.4013,-47 -12.0944,-34.0909 -30.5286,-93.5935 -38.106,-123 -2.2675,-8.8 -7.4562,-28.6 -11.5304,-44 -4.0742,-15.4 -10.3194,-40.825 -13.8784,-56.5 -3.5589,-15.675 -7.8065,-34.125 -9.4391,-41 -1.6326,-6.875 -4.1636,-21.5 -5.6243,-32.49998 -1.4607,-11 -3.7081,-26.525 -4.9941,-34.5 -1.286,-7.975 -2.8878,-19.5503 -3.5595,-25.7228 -1.3428,-12.3396 -0.8463,-11.6517 -9.2676,-12.8412 -4.5632,-0.6446 -7.7005,-2.481 -7.7005,-4.5074 0,-1.6717 -1.9134,-0.9782 -5.0248,1.8214 l -3.0564,2.75 1.0179,36.0456 c 1.1507,40.75288 4.1273,91.51718 7.0628,120.45438 1.088,10.725 2.4504,26.025 3.0276,34 2.8565,39.4689 7.3637,79.1491 11.0749,97.5 9.452,46.7377 34.6342,94.0519 87.8185,165 17.4529,23.2821 62.0337,80.5 62.721,80.5 0.1201,0 -0.9283,-2.8125 -2.3299,-6.25 z m 146.8484,-102.25 c 8.8444,-26.4662 30.1276,-54.4619 53.34,-70.1628 23.6654,-16.0073 62.844,-33.9626 105.2008,-48.2131 25.3707,-8.5357 36.3742,-11.3611 54.7992,-14.071 20.68422,-3.0422 19.07752,-2.1414 14.70652,-8.2459 -2.0386,-2.847 -6.9302,-8.6241 -10.87032,-12.838 -7.9022,-8.4513 -8.6435,-10.1916 -10.3625,-24.3283 -1.8331,-15.075 -5.3128,-21.3536 -18.1927,-32.8263 -22.966,-20.4566 -25.3882,-23.4697 -32.2874,-40.1647 -2.3319,-5.6427 -7.6327,-15.6813 -11.7796,-22.308 -11.9201,-19.048 -19.4156,-32.7365 -35.086,-64.0749 l -14.6177,-29.23298 -6.2551,-3.1338 c -3.4404,-1.7235 -9.2407,-5.1062 -12.8897,-7.517 -3.6489,-2.4107 -7.5623,-4.3832 -8.6964,-4.3832 -1.1341,0 -4.8986,-1.6597 -8.3655,-3.6882 -19.3455,-11.3192 -34.8453,-25.4735 -64.7356,-59.1163 -4.058,-4.5675 -8.6361,-8.955 -10.1734,-9.75 -1.8732,-0.9687 -5.8631,-1.4309 -12.0949,-1.4012 l -9.2997,0.044 6.25,5.8301 c 3.4375,3.2066 6.25,6.3366 6.25,6.9557 0,2.6872 -3.71,0.6522 -10.3566,-5.6809 -12.8992,-12.2908 -12.7259,-12.1935 -21.7201,-12.1935 -4.3578,0 -7.9233,0.3021 -7.9233,0.6713 0,0.3692 0.7131,1.4592 1.5847,2.4223 0.8717,0.9632 1.8017,3.4736 2.0667,5.5788 1.4145,11.2336 -14.2485,35.6195 -26.4226,41.1375 -3.2237,1.4611 -7.4541,1.6813 -31.2288,1.6251 -23.0858,-0.054 -29.7472,-0.4149 -41.5,-2.2454 -22.1656,-3.4523 -35.3591,-7.478 -43.6544,-13.3202 -3.494,-2.4608 -4.0072,-2.3614 -3.2562,0.6306 0.3512,1.3996 0.1938,2.5 -0.3578,2.5 -0.5418,0 -3.5018,4.2171 -6.5776,9.3714 -7.7332,12.9589 -21.7563,30.5069 -44.1208,55.2116 -5.5183,6.0957 -11.9142,14.26148 -14.2132,18.14628 l -4.1799,7.0632 4.8697,20.8537 c 2.6784,11.4696 7.0983,30.5584 9.8221,42.4195 2.7238,11.8612 7.9704,32.9665 11.6592,46.9008 l 6.7069,25.335 8.3082,9.8787 c 6.4463,7.6648 19.2979,25.0878 26.6007,36.0627 0.3338,0.5017 5.5088,-2.3368 11.5,-6.3076 12.7407,-8.4442 20.5855,-12.231 28.8931,-13.9471 6.7639,-1.3972 19.0033,-0.7889 27.25,1.3544 2.8875,0.7504 5.25,0.9799 5.25,0.51 0,-0.47 -4.3823,-11.5416 -9.7384,-24.6036 -10.3983,-25.3584 -35.6043,-77.4516 -42.0902,-86.9877 -6.1854,-9.0943 -16.3797,-19.4789 -29.1915,-29.7365 -12.9722,-10.3859 -13.8154,-11.267 -11.5975,-12.1181 3.4895,-1.339 31.8539,23.5197 41.754,36.5933 2.8527,3.7672 10.9592,18.593 19.2812,35.2629 10.9334,21.901 14.4899,28.2231 14.9075,26.5 3.5457,-14.6295 3.886,-44.4531 0.8417,-73.7629 -3.6898,-35.5258 -6.6329,-78.93388 -5.433,-80.13378 1.9386,-1.9386 3.2662,0.1323 3.2662,5.0948 0,5.9109 3.2618,47.80648 5.9929,76.97428 1.1039,11.7894 2.0071,28.3114 2.0071,36.7156 0,14.3872 -1.9698,34.545 -3.9617,40.542 -0.7375,2.2203 0.2259,5.4251 5.4891,18.2592 8.4336,20.5655 7.7514,19.6816 9.9022,12.8295 3.6241,-11.5462 12.1023,-26.2816 15.1213,-26.2816 2.2201,0 1.7894,1.3849 -2.5537,8.2098 -4.4838,7.0462 -9.6451,19.582 -10.9598,26.6194 -1.1266,6.0304 1.4647,12.3077 5.8265,14.1144 4.325,1.7915 6.8829,4.9866 8.0507,10.0564 1.4767,6.4112 1.3323,10.8386 -0.5225,16.0144 l -1.6177,4.5143 6.6235,14.178 c 3.643,7.7979 8.2216,18.3665 10.1747,23.4857 1.9531,5.1192 4.4802,10.2972 5.6158,11.5067 l 2.0646,2.1991 4.8776,-8.1155 c 14.5239,-24.1656 42.5691,-54.6034 69.6875,-75.633 22.0529,-17.1014 31.1819,-22.4671 31.1819,-18.3278 0,0.4866 -3.2625,3.0463 -7.25,5.6884 -34.5939,22.9213 -67.6514,55.2828 -87.4226,85.5823 -8.9262,13.6795 -9.0325,12.2655 1.7866,23.7641 l 9.3314,9.9174 5.0273,-4.2684 c 9.6492,-8.1926 33.8178,-22.5057 38.0023,-22.5057 3.6089,0 0.9527,2.7861 -6.197,6.5 -14.4478,7.5049 -33.2208,20.5976 -33.26,23.1963 -0.01,0.658 7.7445,9.8378 17.232,20.3996 9.4875,10.5618 18.5203,20.7109 20.0728,22.5537 1.5525,1.8427 3.1688,3.3504 3.5917,3.3504 0.4229,0 1.3351,-1.9125 2.027,-4.25 3.2598,-11.0123 13.3569,-27.3592 28.7773,-46.5898 4.1191,-5.1368 10.889,-15.2618 15.0443,-22.5 8.9215,-15.5404 24.5024,-39.1458 34.905,-52.8822 9.2705,-12.2413 28.4888,-33.278 30.4015,-33.278 2.8988,0 1.189,2.5976 -9.478,14.3986 -5.9996,6.6376 -14.2645,16.4632 -18.3665,21.8348 -7.3896,9.6768 -25.1802,36.1363 -30.7721,45.7666 l -2.9033,5 8.8319,-7.8333 c 26.6735,-23.6577 58.5002,-41.2717 103.5171,-57.29 10.7666,-3.831 15.715,-5.163 16.45,-4.428 1.6917,1.6917 -0.03,2.6412 -13.3487,7.3622 -35.9765,12.7522 -66.5799,28.1081 -88.6654,44.4898 -12.5651,9.3201 -38.1455,35.3154 -48.9688,49.7632 -12.7075,16.963 -23.3658,36.7538 -23.3658,43.3867 0,1.238 4.4263,7.2661 10.7144,14.5919 l 10.7144,12.4824 1.3631,-6.7624 c 0.7497,-3.7194 2.2653,-9.4625 3.3681,-12.7625 z m 58.84,-124.5705 c 0,-2.9038 27.9613,-30.569 40.5324,-40.1032 10.5266,-7.9837 34.3999,-23.9271 38.8937,-25.9746 1.8517,-0.8437 2.9414,-0.8842 3.6884,-0.1372 1.2456,1.2456 1.5205,1.0353 -17.4675,13.3605 -7.6192,4.9456 -17.3376,11.6445 -21.5965,14.8865 -10.721,8.1613 -29.4494,25.5249 -36.0505,33.4234 -5.6863,6.804 -8,8.1183 -8,4.5446 z m -249.358,-194.6795 c -3.8284,-7.4698 -10.312,-24.1208 -16.0823,-41.30158 -5.2148,-15.527 -6.1325,-19.1751 -4.9392,-19.633 0.8062,-0.3094 1.6825,-0.3458 1.9473,-0.081 0.2649,0.2648 3.3843,9.0906 6.9321,19.6127 3.5478,10.5221 8.7117,24.19848 11.4753,30.39188 2.7637,6.1934 5.0248,11.8233 5.0248,12.5108 0,2.2945 -2.9303,1.2859 -4.358,-1.4999 z m 410.33142,263.2217 c -3.17372,-3.3782 -16.85232,-12.6244 -30.97342,-20.9367 -21.6801,-12.7619 -27.0057,-17.3346 -33.1009,-28.4219 -1.8484,-3.3622 -3.915,-6.1131 -4.5924,-6.1131 -0.6774,0 -3.7415,0.939 -6.809,2.0868 -4.2172,1.5778 -5.4648,2.4924 -5.1158,3.75 4.0883,14.7321 2.7729,13.0188 18.605,24.2343 5.7678,4.0859 15.1638,11.1569 20.88,15.7133 5.7162,4.5564 11.3471,8.8067 12.5131,9.4452 3.2083,1.7567 9.0355,2.507 20.5443,2.6452 l 10.42432,0.1252 z m 151.3544,-4.8484 c -36.004,-41.1665 -38.5627,-44.0069 -52.7271,-58.5331 -14.9163,-15.2973 -28.4383,-27.5784 -48.6007,-44.1408 -19.089,-15.6806 -30.9057,-26.3808 -38.851,-35.1798 -6.9182,-7.6616 -7.3666,-8.4374 -13.16082,-22.7696 -7.4101,-18.329 -17.5766,-39.4385 -22.5316,-46.7842 -0.1055,-0.1564 -4.9795,1.0601 -10.8313,2.7033 -5.8517,1.6431 -14.3481,3.4953 -18.8807,4.1159 -4.5327,0.6206 -8.3538,1.2409 -8.4913,1.3784 -0.3643,0.3643 4.5517,12.26 7.4738,18.0848 3.7999,7.5746 8.3392,12.6177 21.1194,23.4638 19.1196,16.2259 22.678,22.2275 25.1542,42.425 1.3422,10.9476 2.5032,13.2934 10.94452,22.113 3.6849,3.85 7.5672,8.5053 8.6273,10.3452 1.0601,1.8398 3.615,4.2115 5.6775,5.2703 2.0625,1.0588 3.75,2.5082 3.75,3.2208 0,0.7126 2.5875,2.349 5.75,3.6364 10.857,4.4196 43.7544,20.848 51.8303,25.8832 4.4441,2.7708 14.7263,10.1834 22.8492,16.4724 9.4079,7.2837 18.0908,13.0683 23.9198,15.9355 5.0329,2.4756 13.8735,7.254 19.6458,10.6186 5.7723,3.3647 10.6448,6.1176 10.8278,6.1176 0.183,0 -1.3898,-1.9695 -3.4951,-4.3767 z m -718.32782,-1.6171 c 0,-2.1965 -1.1173,-23.459 -2.4828,-47.25 -3.9576,-68.9497 -4.5048,-91.0904 -4.5043,-182.2562 7e-4,-122.75918 1.969,-164.99228 9.1347,-195.99998 1.1439,-4.95 3.0604,-11.07983 4.2588,-13.62185 4.1653,-8.83494 0.1471,-9.46917 -7.1125,-1.12264 -14.0858,16.19484 -23.8558,39.10889 -30.2602,70.97099 -5.6218,27.9685 -6.1076,37.4884 -5.8063,113.77348 0.2671,67.5991 0.2249,69.3553 -2.0784,86.5 -1.4022,10.4383 -2.9006,18.076 -3.7132,18.9275 -2.5654,2.6883 -2.6887,-1.395 -0.518,-17.1445 3.4392,-24.953 4.2676,-50.5709 2.968,-91.783 -1.2967,-41.11988 -0.7743,-69.83258 1.5912,-87.45278 6.1765,-46.0081 17.8701,-77.71754 35.803,-97.08676 l 6.4636,-6.98121 -2.4671,-3.48961 c -3.3437,-4.72962 -9.2765,-17.01622 -9.2765,-19.21141 0,-2.80608 -1.3984,-2.13035 -6.1499,2.97179 -24.1042,25.88276 -43.795,77.8442 -52.7688,139.25 -4.0823,27.9336 -5.7763,47.37418 -9.5854,109.99998 -5.7369,94.3234 -8.5828,134.343 -10.6166,149.2974 -2.6815,19.7165 -2.2789,25.8464 2.151,32.7499 5.9544,9.279 23.1404,22.464 38.5881,29.6043 4.3349,2.0037 13.5066,4.9855 20.3816,6.6262 6.875,1.6407 14.975,3.7682 18,4.7278 7.9618,2.5256 8,2.516 8,-1.9994 z m 163,-87.3823 c 14.0225,-7.2867 25.3941,-8.7659 40.2896,-5.241 9.1802,2.1724 11.8065,3.6956 16.4688,9.5511 2.1879,2.7479 4.2623,4.7119 4.6098,4.3644 0.9995,-0.9995 0.7249,-9.4228 -0.4444,-13.634 -0.9409,-3.3884 -1.7856,-4.1691 -7.2444,-6.6958 -8.9215,-4.1294 -21.1538,-6.333 -31.7886,-5.7266 -7.0516,0.402 -10.0562,1.1117 -15.5647,3.6761 -9.5341,4.4387 -28.4437,17.0636 -27.6441,18.4566 0.3553,0.6189 1.4889,2.3432 2.5191,3.8318 l 1.8732,2.7066 5.2128,-3.9558 c 2.8671,-2.1756 8.1379,-5.4756 11.7129,-7.3334 z m -251.0238,-15.3739 -0.024,-3.75 -9.22626,-2.938 c -19.22605,-6.1224 -34.59558,-15.851 -46.43781,-29.3942 -10.47221,-11.9763 -20.59348,-21.4921 -27.47819,-25.8342 -8.6381,-5.4481 -16.85336,-10.3336 -17.37639,-10.3336 -0.23845,0 -0.43355,3.2876 -0.43355,7.3057 0,8.7951 1.21192,10.7847 12.72755,20.8941 6.90415,6.061 17.45807,12.8002 20.0458,12.8002 0.54636,0 1.22874,-0.9 1.5164,-2 0.28766,-1.1 1.00352,-2 1.5908,-2 0.58729,0 5.53806,4.2249 11.00172,9.3887 11.29917,10.6791 15.53231,13.7831 26.11773,19.151 5.5927,2.8361 21.296,8.7187 27.75,10.3954 0.1375,0.036 0.2393,-1.6226 0.2262,-3.6851 z m 1.0067,-10 c -0.01,-0.9625 1.1762,-19.8918 2.6348,-42.0651 1.5338,-23.3154 2.279,-40.6688 1.7672,-41.1539 -0.4867,-0.4613 -8.3107,-3.3557 -17.38676,-6.4318 -15.83866,-5.3682 -17.2051,-5.6528 -34,-7.0804 -19.5975,-1.666 -28.35375,-3.7197 -40.88656,-9.5898 -4.61364,-2.161 -8.51218,-3.929 -8.66344,-3.929 -0.15125,0 -0.29684,4.7073 -0.32354,10.4607 -0.0267,5.7533 -0.53586,15.2515 -1.13148,21.1069 -1.27153,12.5003 -0.79753,13.766 6.74947,18.0227 13.85391,7.8138 21.70792,14.3391 33.59278,27.9097 13.99946,15.9851 24.13055,23.2386 42.16463,30.1886 12.2093,4.7052 15.5092,5.2511 15.4829,2.5614 z m 6.9151,-110.25 c 2.6306,-48.2004 5.1665,-77.59088 9.2322,-106.99998 l 2.1428,-15.5 -2.6251,-25.5 c -5.1586,-50.1088 -5.7491,-83.51895 -2.2008,-124.5 2.6526,-30.63518 5.5529,-71.24539 5.5529,-77.75133 0,-6.26302 -0.061,-6.40739 -3.3835,-7.99173 -5.3929,-2.5717 -10.2789,-7.4384 -13.0493,-12.99783 -2.2025,-4.41999 -2.5672,-6.47185 -2.5672,-14.44473 0,-11.44566 -1.624,-16.13823 -9.407,-27.18243 -3.11456,-4.41955 -6.60486,-10.19474 -7.75624,-12.83375 -1.15138,-2.63901 -4.28198,-7.77327 -6.9569,-11.40946 -2.67491,-3.6362 -6.00753,-9.11022 -7.40583,-12.16449 -1.91539,-4.18378 -4.20149,-6.91062 -9.27034,-11.0576 -9.69111,-7.92861 -35.73471,-34.83048 -42.55611,-43.95857 -8.10124,-10.84071 -17.13468,-26.14396 -27.70137,-46.92797 -8.95031,-17.60469 -9.0363,-17.72822 -13.22754,-19 -2.61216,-0.79263 -9.74042,-1.27215 -18.71867,-1.25921 -13.83886,0.0199 -14.92702,0.17199 -23.86532,3.33468 -6.35508,2.24865 -9.69259,2.98651 -10.38351,2.29559 -1.54634,-1.54634 4.30243,-4.66457 13.65059,-7.27772 8.6672,-2.42281 27.18642,-3.21365 36.78908,-1.57105 l 4.69085,0.8024 -3.05926,-6.88528 -3.05926,-6.88528 -10.65324,-2.67264 c -26.19627,-6.57201 -58.84118,-5.40183 -92.3552,3.31053 -13.48726,3.50618 -20.041196,5.91915 -27.627106,10.17154 -3.54719,1.98842 -5.70889,2.67506 -6.36287,2.02108 -1.62732,-1.62732 -0.0236,-3.0123 8.38192,-7.2385 8.81834,-4.43377 27.137076,-9.80866 44.853326,-13.16038 9.67176,-1.82979 15.19594,-2.18284 34.74815,-2.22077 12.78648,-0.0248 23.24898,-0.18582 23.25,-0.35782 0.001,-0.17199 -2.95776,-1.65466 -6.57507,-3.29483 -18.75658,-8.50464 -37.75324,-12.20914 -55.42308,-10.80795 -25.00939,1.9832 -56.314636,12.13096 -84.740496,27.46907 -8.73324,4.71231 -11.2595,5.37479 -11.2595,2.95269 0,-1.81038 24.44483,-14.22848 41.08621,-20.87201 17.47957,-6.97816 44.623696,-13.45681 57.413786,-13.70329 l 4,-0.0771 -5.5,-1.99064 c -3.025,-1.09484 -14.95,-4.21784 -26.5,-6.93998 -11.549996,-2.72215 -30.449996,-7.52308 -41.999996,-10.66875 -19.81525,-5.39671 -21.64879,-5.72037 -32.5,-5.73694 -6.81727,-0.0104 -13.41518,0.53904 -16.20337,1.34935 -4.5834201,1.33204 -4.7297001,1.49782 -5.7355801,6.5 -4.00347,19.90889 -6.05149,54.14768 -4.15521,69.46668 2.26431,18.29212 10.0478001,37.33983 23.3482701,57.1378 14.859,22.11785 27.98414,38.01879 46.40337,56.21709 16.30794,16.11234 22.88806,21.55265 43.851586,36.25558 21.66518,15.19504 34.81985,25.32267 35.61961,27.42312 1.32727,3.48587 26.93894,27.05038 35.95515,33.08122 17.17475,11.48801 33.91775,18.75978 50.78407,22.0564 9.71441,1.89873 12.87119,3.39062 9.72724,4.59706 -2.72697,1.04644 -15.10902,-1.36577 -26.42809,-5.1486 -5.68312,-1.89928 -10.47862,-3.45325 -10.65667,-3.45325 -0.17805,0 -0.64873,4.33485 -1.04595,9.633 -0.64881,8.65396 -0.49633,10.17798 1.50035,14.99533 1.98842,4.7974 2.15107,6.39 1.54392,15.117 -0.37325,5.36507 -1.07489,11.32967 -1.5592,13.25467 -0.59549,2.36692 -0.3947,6.08989 0.62024,11.5 1.02894,5.48473 1.78431,19.94752 2.40251,46 1.01589,42.8117 1.48554,52.4543 3.62858,74.5 1.63494,16.8189 6.73675,51.0577 11.39901,76.5 3.83803,20.94438 4.76932,27.51758 5.99206,42.29308 0.55952,6.7613 1.66339,13.8395 2.45303,15.7294 2.25478,5.3964 9.71854,11.861 18.77243,16.2594 12.02099,5.8397 20.71501,8.2063 34.28264,9.3319 21.91779,1.8184 27.55802,2.9113 43,8.3323 8.25,2.8962 15.2755,4.9931 15.6123,4.6598 0.3368,-0.3332 1.1404,-10.2809 1.7857,-22.1059 z m -102.898,-267.71962 c -15.07691,-1.72123 -33,-9.76995 -33,-14.81932 0,-2.04179 2.36341,-1.82194 4.38107,0.40754 2.65844,2.93755 14.37575,7.84735 22.82677,9.56491 9.20424,1.87063 12.6701,1.93591 21.8954,0.41238 4.92888,-0.81398 7.30134,-0.84129 8.04999,-0.0926 0.74865,0.74865 0.50619,1.35868 -0.82269,2.06987 -1.84739,0.98869 -16.33494,3.33187 -18.6529,3.01686 -0.6477,-0.088 -2.75264,-0.33984 -4.67764,-0.5596 z m -19.49307,-31.78954 c -6.04619,-2.46995 -11.10869,-4.49082 -11.25,-4.49082 -0.14131,0 -0.25693,-0.675 -0.25693,-1.5 0,-2.26133 2.00986,-1.87409 13.2294,2.54891 14.87986,5.866 14.7706,5.81474 14.7706,6.92965 0,2.10074 -5.83199,0.86746 -16.49307,-3.48774 z m 96.49307,-10.19373 c 0,-21.54863 5.78685,-47.84357 9.6738,-43.95667 0.3231,0.32313 -0.1784,3.63628 -1.11439,7.36256 -3.15034,12.54157 -3.75175,16.74297 -4.40684,30.78597 -0.57018,12.22286 -0.87351,14.03116 -2.40257,14.32332 -1.56002,0.29808 -1.75,-0.62631 -1.75,-8.51518 z m -24.40683,-6.14634 c -0.69146,-1.1188 2.27254,-18.47609 5.52742,-32.36872 2.31442,-9.87857 2.1693,-12.09743 -0.63881,-9.76691 -1.16776,0.96916 -1.85521,1.01145 -2.70053,0.16613 -1.59008,-1.59008 1.80282,-5.18125 4.89518,-5.18125 4.17566,0 4.70928,3.34515 2.3185,14.53417 -2.43502,11.39605 -4.56953,21.97395 -5.72839,28.3879 -0.77142,4.26959 -2.45224,6.20451 -3.67337,4.22868 z M 240.5398,705.55442 c -5.06128,-2.78047 -15.16027,-5.59645 -25.6705,-7.15788 -5.91694,-0.87905 -13.35575,-2.40675 -16.53069,-3.3949 -10.64424,-3.31286 -21.77633,-12.26273 -21.77633,-17.50752 0,-5.39632 19.92467,-22.74972 34.33055,-29.9002 10.36646,-5.14547 12.9483,-5.81894 13.42713,-3.50243 0.2309,1.11707 -1.11124,2.13272 -4.46375,3.37789 -7.20237,2.67506 -14.67505,7.13267 -22.63979,13.5051 -10.59523,8.47703 -16.65414,14.44004 -16.65414,16.39051 0,2.64821 6.78651,8.48003 13.76076,11.82497 3.8722,1.85716 9.78566,3.55896 15.5,4.46067 16.50104,2.60382 23.56194,4.40799 29.95753,7.65464 5.92602,3.00829 7.53438,4.9069 4.58453,5.41188 -0.71655,0.12266 -2.43794,-0.40057 -3.8253,-1.16273 z m -21.79453,-34.3103 c 0.83686,-4.44268 29.81135,-7.2806 30.62927,-3 0.29931,1.56642 -0.6532,1.75 -9.08,1.75 -5.47367,0 -11.46921,0.62335 -14.32333,1.48918 -6.36457,1.93075 -7.62681,1.88897 -7.22594,-0.23918 z m 740.89371,409.20378 c 11.5714,-3.027 19.3389,-6.4934 20.8415,-9.3009 1.256,-2.3469 -0.079,-7.5599 -2.0331,-7.9364 -0.809,-0.1558 -3.4767,1.2353 -5.9281,3.0914 -8.025,6.0764 -12.5045,7.4167 -37.7338,11.2897 l -3.2768,0.5031 1.7768,3.0612 c 1.7716,3.0523 1.7974,3.0597 8.8535,2.5399 3.8922,-0.2868 11.7672,-1.7484 17.5,-3.248 z m -9.0767,-9.0222 c 8.5856,-1.6236 20,-6.8034 20,-9.076 0,-2.336 -6.3959,-12.7411 -15.0127,-24.4235 -11.7626,-15.9473 -17.9151,-25.785 -27.4752,-43.93208 -10.3079,-19.5666 -16.5415,-29.1601 -27.3214,-42.0476 -15.1497,-18.1118 -23.2154,-24.0703 -45.2005,-33.3921 -8.4255,-3.5724 -47.8091,-15.0113 -48.7203,-14.1507 -0.7833,0.7398 30.0096,42.3658 38.534,52.0904 5.4158,6.1783 13.034,12.1656 20.4172,16.0461 l 6.7212,3.5326 -8.0885,-16.5123 c -7.3506,-15.0059 -9.1978,-21.1331 -5.7238,-18.9861 0.6292,0.3889 9.2014,17.0674 19.0493,37.0634 9.8479,19.996 18.2736,36.35628 18.7237,36.35628 1.4287,0 2.3268,-9.9218 2.6704,-29.49998 0.275,-15.6682 0.5897,-19.0538 1.7944,-19.3068 3.2935,-0.6918 3.3315,25.445 0.069,47.21068 l -1.4847,9.9039 7.6451,14.0961 c 4.2048,7.7529 10.8282,19.4331 14.7186,25.9561 l 7.0735,11.8601 7.0555,-0.6851 c 3.8805,-0.3768 10.4305,-1.3234 14.5555,-2.1034 z m -431.3788,-82.43158 c 4.3414,-4.675 12.2043,-13.675 17.4731,-20 5.2689,-6.325 11.6845,-13.9557 14.2571,-16.9571 4.7864,-5.5843 15.6486,-22.7175 15.6486,-24.683 0,-0.6008 -4.3875,-2.4905 -9.75,-4.1994 -11.8025,-3.7613 -20.8114,-9.4328 -25.8186,-16.2539 -2.0636,-2.8112 -4.3246,-4.8749 -5.1566,-4.7065 -0.8148,0.165 -2.3589,2.5499 -3.4311,5.2999 -3.1124,7.9823 -1.4291,14.907 6.4031,26.34 2.1076,3.0766 2.6624,4.6508 1.9056,5.4076 -1.5107,1.5107 -3.4899,-0.3695 -7.4986,-7.1234 -3.4246,-5.7698 -5.0511,-9.6002 -6.0738,-14.3033 l -0.5825,-2.679 -6.7487,1.9967 c -3.7119,1.0983 -7.8738,2.0865 -9.2488,2.1962 -1.375,0.1096 -4.0113,1.3167 -5.8585,2.6823 l -3.3584,2.4829 0.669,8.3532 c 0.3679,4.5943 1.7699,15.3849 3.1156,23.9791 2.1741,13.886 7.4323,51.39808 7.4323,53.02258 0,0.3431 1.9638,-2.2964 4.3639,-5.8656 2.4001,-3.5691 7.9159,-10.31428 12.2573,-14.98928 z m 319.6301,-34.25 c -8.6587,-10.9974 -26.5799,-35.1008 -32.035,-43.0861 -2.906,-4.2538 -6.6531,-8.5671 -8.3268,-9.5849 -3.1767,-1.9319 -23.6144,-6.6874 -24.582,-5.7198 -1.6068,1.6067 39.0943,43.5656 51.2733,52.8578 5.2779,4.0269 17.2815,11.773 18.2553,11.7804 0.1849,0 -1.8783,-2.8099 -4.5848,-6.2474 z m -147.445,-20.8011 c 9.7552,-4.2729 22.8424,-23.2372 23.9434,-34.6959 0.5564,-5.7903 -0.5079,-6.984 -7.0226,-7.8769 -4.9329,-0.6762 -13.7271,0.2783 -13.7271,1.4898 0,0.4088 1.6021,2.4924 3.5603,4.6302 2.5936,2.8315 3.4096,4.4877 3.0051,6.0992 -1.0056,4.0067 -8.2043,12.0431 -12.2311,13.6543 -11.2875,4.5163 -38.3582,5.3342 -60.2879,1.8214 -16.627,-2.6634 -39.0793,-7.4141 -44.9221,-9.5051 -5.8825,-2.1051 -6.0147,-2.0724 -7.6753,1.902 -1.9149,4.583 -1.8782,4.8302 1.172,7.8803 10.5437,10.5438 53.6415,18.3007 94.379,16.9868 12.1993,-0.3935 16.417,-0.9016 19.8063,-2.3861 z m -319.9081,-22.9489 c 10.2526,-42.5314 28.1932,-80.78023 46.6996,-99.56196 l 6.237,-6.32978 1.0798,-8.80413 c 2.1998,-17.93663 1.0696,-25.92305 -5.1361,-36.29208 -1.8064,-3.01837 -4.4731,-6.05765 -5.9258,-6.75394 -1.4528,-0.6963 -5.7868,-5.20172 -9.6312,-10.01205 -26.1998,-32.78331 -26.1188,-32.69287 -30.4376,-33.98425 -2.2775,-0.681 -4.2163,-1.131 -4.3085,-1 -0.092,0.13101 -0.9401,11.48819 -1.8844,25.23819 -0.9442,13.75 -2.6177,35.35 -3.7189,48 -2.5751,29.58095 -3.4632,70.96258 -1.9959,93 1.6311,24.4983 4.3732,51.6716 5.1235,50.7723 0.3543,-0.4248 2.1087,-6.8473 3.8985,-14.2723 z m 199.605,4 c 0.9121,-3.575 2.6117,-7.5246 3.777,-8.7768 2.0451,-2.1976 2.0778,-2.6322 0.9408,-12.5 -1.9273,-16.7265 -2.1381,-17.1061 -12.3033,-22.1571 -4.7932,-2.3818 -10.7541,-5.7335 -13.2465,-7.4483 -2.4923,-1.7148 -4.7187,-3.1178 -4.9474,-3.1178 -0.2286,0 -0.7109,5.8318 -1.0717,12.9596 -0.3607,7.1277 -1.1234,15.1397 -1.6949,17.8043 -1.0689,4.9841 -4.9158,10.2361 -7.4977,10.2361 -4.4268,0 3.4996,8.8798 11.6911,13.0972 5.821,2.997 21.1784,7.9366 22.0219,7.0832 0.3699,-0.3742 1.4187,-3.6054 2.3307,-7.1804 z m -72.9832,-1.3597 7.48,-7.3596 -0.022,-5.8904 c -0.012,-3.2396 -0.6196,-9.8677 -1.3505,-14.7291 -1.1301,-7.5163 -1.1204,-8.9187 0.065,-9.3735 0.7665,-0.2941 1.6095,-0.3189 1.8734,-0.055 1.1551,1.155 3.7004,24.5769 3.0471,28.0387 -0.3915,2.0742 -2.0862,5.3367 -3.766,7.25 -3.5159,4.0043 -3.5134,4.0055 3.999,1.8757 7.2037,-2.0423 8.5379,-3.4346 10.9764,-11.4551 1.9843,-6.5267 1.9845,-6.6097 0.045,-17.4226 -2.0557,-11.4599 -1.8952,-15.037 0.5584,-12.4469 1.4868,1.5695 4.5795,17.2331 4.5762,23.1775 v 3.75 h 4.345 c 8.254,0 9.4789,-3.4414 10.7864,-30.3049 l 1.0158,-20.87084 -5.2625,-9.16213 c -9.0185,-15.70143 -31.2388,-52.64648 -38.5899,-64.16213 -13.068,-20.47151 -20.8937,-36.62109 -24.2663,-50.07795 -2.3641,-9.43257 -3.1103,-10.62438 -9.0313,-14.42386 -4.3191,-2.77153 -5.7216,-3.17664 -9.5168,-2.74887 -12.4534,1.40368 -30.7762,15.72769 -37.9446,29.66343 -2.3466,4.56201 -1.5307,10.02926 2.2119,14.82034 5.1362,6.57522 8.1272,12.60587 9.8145,19.78922 1.4514,6.17887 1.4961,8.69493 0.3902,21.97769 -1.8175,21.83097 -0.7614,24.57382 19.7045,51.17844 14.0081,18.20966 13.6194,16.89982 14.0159,47.24076 0.1827,13.9805 0.4897,25.5766 0.6822,25.7692 0.1925,0.1925 4.4302,-3.5962 9.417,-8.4192 8.3882,-8.1127 9.1516,-9.1809 10.1971,-14.2692 0.6215,-3.025 1.077,-9.1 1.0122,-13.5 -0.1572,-10.6697 -0.1798,-10.5 1.4012,-10.5 2.0172,0 3.0024,12.8503 1.6388,21.3756 -1.4015,8.7617 -3.1102,12.0301 -9.2692,17.7303 -4.3803,4.054 -4.8429,4.8559 -3.8603,6.692 1.1463,2.1417 6.6472,3.8909 12.8782,4.095 2.7817,0.091 4.3867,-0.9917 10.75,-7.2526 z m 182.2289,2.0559 c 7.4925,-1.3642 10.7505,-3.4636 15.3893,-9.9164 l 1.9555,-2.7201 -4.0255,-5.0927 c -2.2141,-2.801 -4.5506,-6.845 -5.1923,-8.9868 l -1.1667,-3.8941 -4.1269,2.4185 c -5.44,3.1881 -14.4383,5.1943 -29.4363,6.5629 -12.7961,1.1677 -17.146,0.8039 -17.146,-1.4339 0,-0.9946 2.9515,-1.4805 11.75,-1.9342 13.2539,-0.6836 25.528,-2.7884 30.7727,-5.2772 3.1771,-1.5076 7.488,-5.7242 7.4705,-7.3071 0,-0.3383 -6.4162,-0.6711 -14.25,-0.7395 -16.1442,-0.1411 -46.7377,-2.9759 -48.2348,-4.4696 -1.4876,-1.4841 1.2784,-2.7969 4.9058,-2.3284 15.8331,2.0453 40.9361,3.5919 51.0784,3.1469 16.519,-0.7247 30.183,-5.4668 37.8533,-13.13704 4.8831,-4.88312 6.1766,-10.99648 6.0486,-28.58746 -0.1759,-24.18597 -5.6324,-45.768 -17.5664,-69.47982 -5.9557,-11.8336 -6.0385,-12.11464 -6.7874,-23.02648 -0.8942,-13.02913 -2.4479,-16.92513 -7.1222,-17.86001 -5.5917,-1.11834 -9.666,-0.68999 -17.6304,1.85354 -4.2835,1.36798 -8.9675,2.49298 -10.4089,2.5 -2.4573,0.012 -2.663,0.3848 -3.2954,5.97473 -0.5095,4.50356 -0.2902,6.70511 0.8965,9 1.8221,3.52355 3.0705,3.86373 3.8094,1.03804 0.4356,-1.66551 1.3641,-2 5.5516,-2 7.0021,0 9.8248,-1.33618 11.8849,-5.62589 1.8461,-3.84399 4.6753,-6.30598 5.8717,-5.10959 1.093,1.09309 -3.8268,9.81726 -6.7796,12.02182 -1.4942,1.1156 -4.9032,2.20758 -7.7438,2.48052 -4.109,0.39483 -5.0745,0.84207 -5.0745,2.35065 0,2.34876 7.2564,7.7186 16.6959,12.35526 7.8066,3.83458 10.3041,6.4401 10.3041,10.74974 0,3.92484 -2.3416,3.48724 -3.8637,-0.72206 -1.0701,-2.9595 -2.3743,-4.0159 -8.4509,-6.84552 -7.7586,-3.61287 -22.4271,-14.02031 -25.0614,-17.78132 -1.2391,-1.76916 -1.624,-4.71862 -1.624,-12.44608 0,-9.65086 0.1402,-10.32106 2.9803,-14.24162 3.8942,-5.37579 7.9895,-7.37924 16.2994,-7.97381 3.7376,-0.26742 6.6662,-0.84271 6.5079,-1.27841 -0.1582,-0.4357 -6.5181,-7.35487 -14.1332,-15.37592 l -13.8456,-14.58373 -5.6544,5.18308 c -11.0691,10.14642 -25.1883,17.77625 -44.9928,24.31357 -9.4216,3.11 -11.7295,2.57123 -8.7122,-2.0338 l 1.7467,-2.6658 -3.2122,1.86446 c -4.1391,2.40251 -19.2476,18.34948 -23.6903,25.00504 -1.8873,2.82733 -4.6702,8.19863 -6.1842,11.93622 -4.3691,10.78596 -7.3081,11.16822 -9.5837,1.24651 l -1.2209,-5.32332 -3.7263,4 c -10.2697,11.02429 -17.3647,33.65436 -11.6669,37.2127 1.0513,0.65658 5.3259,6.36454 9.4991,12.68434 4.3233,6.5471 9.7389,13.34317 12.588,15.79676 2.7502,2.36841 5.0005,4.83571 5.0008,5.48289 3e-4,0.64718 -2.4909,2.3173 -5.536,3.71138 -4.547,2.08172 -6.0214,2.34748 -8.25,1.48716 -3.8528,-1.48733 -13.5083,-1.32234 -16.8687,0.28824 -1.9959,0.95662 -2.8448,2.10401 -2.8448,3.84518 0,2.44407 0.1095,2.47663 7.2252,2.14791 8.1318,-0.37567 15.0064,1.43512 19.6931,5.18724 2.0848,1.66901 2.7215,2.84943 2.2292,4.13242 -0.6546,1.70589 -0.7854,1.709 -2.6053,0.0619 -3.0734,-2.78134 -4.3714,-0.9964 -3.6624,5.03614 0.3991,3.39586 0.2316,5.54781 -0.4653,5.97851 -2.0017,1.23717 -3.1007,-1.28679 -3.2423,-7.44654 -0.1512,-6.57811 -0.1876,-6.62123 -4.2699,-5.06911 -3.5425,1.34683 -5.8379,-0.48066 -3.1229,-2.48621 1.49,-1.10062 1.54,-1.40628 0.3077,-1.87917 -1.9681,-0.75521 -8.5871,0.36414 -8.5871,1.45217 0,0.47424 2.025,4.11623 4.5,8.09329 2.475,3.97707 4.5,7.71009 4.5,8.29561 0,1.64214 10.2766,7.48715 13.1637,7.48715 3.14,0 7.6581,-3.40111 8.9171,-6.71261 1.2666,-3.3312 3.4778,-2.31266 3.1799,1.4647 -0.3146,3.98834 4.477,8.3649 16.0869,14.69345 9.2047,5.0176 10.6328,6.2411 8.32,7.1286 -1.4696,0.5639 -10.7533,-3.7093 -18.0081,-8.28909 l -3.9145,-2.47111 0.7207,4.8056 c 0.3963,2.6431 1.3337,6.3975 2.083,8.3431 1.7164,4.4566 4.056,16.4588 4.9465,25.3756 0.6674,6.6835 0.7647,6.8724 4.2968,8.3483 6.7069,2.8023 42.6743,9.9619 58.708,11.6862 6.8355,0.7352 29.6409,-0.2913 37.2489,-1.6765 z m -0.3559,-77.27799 c 0.3339,-0.86998 0.607,-1.7624 0.607,-1.98315 0,-1.01447 10.3606,-5.51066 11.6012,-5.03459 2.2123,0.84893 1.635,2.55924 -1.2318,3.64919 -1.4468,0.55008 -3.8788,1.88894 -5.4044,2.97525 -3.4125,2.42991 -6.4354,2.64329 -5.572,0.3933 z m -29.9872,-8.64373 c -2.0673,-6.18677 -2.0581,-6.28216 0.5942,-6.14835 1.6435,0.0829 4.7268,-1.6692 9,-5.11432 12.1487,-9.79456 20.1391,-14.47654 26.4625,-15.5057 3.2108,-0.52258 7.3453,-1.44764 9.1877,-2.05568 2.5107,-0.82862 4.2771,-0.79951 7.0517,0.11621 2.7519,0.90819 3.7999,0.9281 4.0834,0.0776 0.8569,-2.57089 3.1551,-1.06006 3.2031,2.1058 0.027,1.7875 0.1534,4.58764 0.2805,6.22254 0.1669,2.14704 -0.2549,3.06995 -1.5189,3.32332 -1.3062,0.26184 -1.75,-0.30548 -1.75,-2.23723 0,-3.26155 -5.3027,-6.87628 -9,-6.13505 -14.6008,2.9272 -16.5281,3.62765 -24.406,8.87031 -11.2479,7.48533 -17.9972,13.5048 -18.6017,16.59032 -0.7498,3.82675 -3.2914,3.76595 -4.5865,-0.10973 z m 19.8442,-1.39027 c -0.6875,-0.30298 -1.25,-1.18838 -1.25,-1.96754 0,-1.02709 1.331,-1.41667 4.84,-1.41667 6.2583,0 18.5873,-3.16937 25.0309,-6.43456 5.7498,-2.91369 8.1291,-3.23045 8.1291,-1.08229 0,4.44792 -30.7175,13.55959 -36.75,10.90106 z m 11.4167,-34.05088 c -0.3667,-0.36666 -0.6667,-2.12323 -0.6667,-3.90348 0,-3.18889 -0.078,-3.24256 -5.25,-3.62416 -2.8875,-0.21304 -7.135,-9e-4 -9.4388,0.47142 -4.4726,0.91695 -8.3112,-0.30019 -8.3112,-2.63534 0,-1.42437 7.2132,-1.98299 21.1754,-1.63989 4.3696,0.10738 8.7365,-1.52205 14.1031,-5.26235 1.4496,-1.01033 1.9552,-0.96216 2.7347,0.26047 1.4569,2.28555 1.1745,4.00128 -0.7632,4.63604 -10.1524,3.32574 -11.4173,4.50752 -9,8.40804 1.0303,1.66245 0.9864,2.18465 -0.25,2.97112 -1.7693,1.12547 -3.4058,1.24562 -4.3333,0.31813 z m -94.6667,-16.84803 c 0,-2.16936 5.9181,-5.47717 9.8072,-5.48156 7.8996,-0.009 12.4575,-2.09577 18.9345,-8.66916 3.4329,-3.48402 7.0452,-6.33458 8.0275,-6.33458 2.4258,0 6.2308,2.78261 6.2308,4.5567 0,1.72391 -1.3919,1.83912 -4.1816,0.34612 -1.7899,-0.95793 -2.6769,-0.44006 -6.9882,4.08007 -5.7109,5.98762 -10.8983,8.55502 -19.3302,9.5671 -3.3,0.39611 -6.8876,1.3344 -7.9725,2.0851 -2.5961,1.79641 -4.5275,1.73251 -4.5275,-0.14979 z m -13.393,-11.06709 c -1.2473,-3.25034 -0.5383,-9.63261 1.5178,-13.66286 2.9172,-5.71815 12.4258,-14.9872 18.567,-18.09915 9.4363,-4.78175 23.7474,-5.28368 28.482,-0.99896 2.1715,1.9652 2.4022,6.61984 0.41,8.27318 -0.7789,0.64642 -5.2333,1.56914 -9.8988,2.05049 -5.2062,0.53715 -10.1135,1.70721 -12.7051,3.02935 -4.4103,2.24999 -13.4869,10.81357 -18.2725,17.23974 -2.9759,3.99601 -6.987,5.06966 -8.1004,2.16821 z m 14.1852,-14.69261 c 8.4372,-8.09148 13.6196,-10.58517 23.9472,-11.52304 6.1215,-0.55589 7.8042,-1.05563 8.0606,-2.39384 0.4818,-2.5149 -6.2457,-4.23337 -13.1808,-3.36688 -6.8092,0.85076 -13.6725,4.33257 -19.4874,9.88622 -7.3093,6.98085 -10.1323,11.4605 -10.1281,16.07198 v 4.09996 l 1.8604,-3 c 1.0233,-1.65 5.0392,-6.04848 8.9243,-9.7744 z m -18.2369,110.5244 c -0.5897,-4.2625 -1.5184,-7.73035 -2.0638,-7.70633 -0.5453,0.024 -2.904,0.60387 -5.2415,1.28855 -4.628,1.3556 -10.0656,0.4229 -13.6911,-2.34844 -2.5887,-1.97872 -3.5589,-1.87 -3.5589,0.39876 0,1.20845 2.238,3.3399 6.25,5.95253 7.7842,5.06903 16.9057,10.12283 18.3137,10.14683 0.751,0.013 0.7485,-2.261 -0.01,-7.7319 z m 173.6704,-23.81453 c 5.7975,-3.78391 6.8782,-6.25185 8.0846,-18.46192 0.8965,-9.07424 1.3672,-10.98921 2.6404,-10.74168 1.2789,0.24867 1.4909,1.69446 1.2145,8.28468 -0.4649,11.08654 -1.8265,16.50857 -4.9727,19.80185 l -2.6925,2.8184 4.4925,-0.3184 c 3.6445,-0.2583 4.7169,-0.79032 5.6811,-2.8184 1.8165,-3.82086 4.3238,-28.0237 4.3252,-41.75 0,-11.09597 0.6812,-14.19484 2.4774,-11.28843 0.3269,0.52886 0.6575,6.57825 0.7346,13.44309 l 0.1403,12.48153 2.8244,-2.01119 2.8245,-2.01119 v -21.03078 c 0,-24.66687 -0.16,-25.23378 -9.3934,-33.27619 -29.2633,-25.48872 -31.5135,-27.67968 -40.3923,-39.32949 -8.5389,-11.20371 -9.3726,-11.99704 -13.2594,-12.61858 -2.2812,-0.36478 -5.7918,-0.36514 -7.8013,-8e-4 -4.0947,0.74241 -10.6705,3.80135 -11.6788,5.43276 -0.3635,0.58812 1.5471,3.40705 4.2456,6.26429 7.5542,7.99841 10.3449,14.87358 11.2049,27.60495 0.6996,10.35586 0.8481,10.85537 6.7165,22.59003 3.3006,6.6 6.5142,13.48025 7.1414,15.28945 0.9532,2.74975 2.3361,3.83638 8.4285,6.62287 8.0373,3.67598 9.9306,5.39078 11.69,10.58768 1.5306,4.52133 2.5589,17.73147 1.7258,22.17206 -0.397,2.11608 -2.5777,5.61681 -5.6375,9.04976 -4.8009,5.38654 -4.99,5.82428 -4.99,11.55192 v 5.95323 l 5.25,-0.9299 c 2.8875,-0.51144 6.9266,-2.02416 8.9757,-3.3616 z m -10.4757,-17.59522 c 3.0349,-3.78807 3.25,-4.56679 3.25,-11.76689 0,-4.2407 -0.7037,-10.08008 -1.5639,-12.97641 -1.4665,-4.93851 -1.9059,-5.42268 -7.064,-7.78413 -3.0251,-1.38494 -5.6606,-2.35763 -5.8567,-2.16154 -0.1961,0.19609 0.7397,4.85477 2.0794,10.35262 1.3398,5.49786 2.9701,14.1586 3.6229,19.2461 0.6528,5.0875 1.4334,9.22677 1.7346,9.19839 0.3012,-0.0284 2.0102,-1.87705 3.7977,-4.10814 z m -199.1775,-5.97534 c 4.1856,-1.85151 6.0177,-2.05793 13.794,-1.55412 5.4757,0.35475 9.7271,0.17428 10.9189,-0.4635 1.814,-0.97083 1.5973,-1.40765 -3.0731,-6.19588 -2.7636,-2.83328 -7.6069,-9.20141 -10.7629,-14.15141 -3.156,-4.95 -7.0232,-10.47816 -8.5938,-12.2848 -3.2409,-3.72798 -3.4331,-5.82682 -1.4083,-15.38016 1.6724,-7.89039 6.2734,-17.56782 11.2259,-23.61173 3.8985,-4.75755 10.84,-9.64219 12.364,-8.70032 0.5295,0.32727 0.9628,2.81849 0.9628,5.53603 0,6.04399 1.2172,6.34279 3.0625,0.75175 2.2796,-6.90732 8.4708,-15.45623 19.1216,-26.40348 9.5946,-9.86159 17.4352,-15.37864 19.7885,-13.92422 0.5651,0.34923 1.0274,1.73341 1.0274,3.07595 0,3.03445 0.2422,3.02959 9.1904,-0.18465 9.8772,-3.54792 20.0678,-8.72493 27.3096,-13.87386 6.1716,-4.38796 15.7632,-13.8855 18.9364,-18.75051 1.7989,-2.75816 4.5636,-3.73837 4.5636,-1.61803 0,0.62258 -0.9643,2.69218 -2.1428,4.59911 l -2.1428,3.46716 7.7357,7.65088 7.7357,7.65088 -0.4154,-11.5 c -0.295,-8.16512 -0.9019,-12.42806 -2.093,-14.70034 -0.9225,-1.76019 -1.6774,-4.062 -1.6774,-5.11514 0,-3.28649 -3.8161,-6.96869 -10.7684,-10.39057 -6.2242,-3.06347 -7.3585,-3.28652 -16.212,-3.18772 -6.7797,0.0756 -11.3904,0.71953 -16.0196,2.2371 -7.78,2.5505 -8,2.56855 -8,0.65667 0,-1.23712 -1.8216,-1.5 -10.394,-1.5 -29.1628,0 -57.6881,6.97111 -74.9245,18.31024 -7.119,4.68335 -22.7101,19.92414 -31.014,30.3172 -3.1321,3.9201 -9.3115,13.1359 -13.7319,20.47956 -6.2396,10.36577 -7.9002,13.89787 -7.4248,15.79219 1.6008,6.37801 7.4529,18.1116 16.0455,32.1713 5.1863,8.48623 14.4953,23.85356 20.6867,34.14962 6.1913,10.29607 11.3123,18.73357 11.3799,18.75 0.068,0.0164 2.2949,-0.9309 4.9496,-2.1052 z m -116.4532,-84.54799 c 10.6319,-16.31849 34.0444,-30.26057 44.2694,-26.36228 1.5888,0.60572 3.0477,0.94231 3.242,0.74796 0.5334,-0.53335 -16.2274,-24.44419 -23.8935,-34.08638 -3.7055,-4.66059 -6.7372,-8.96698 -6.7372,-9.56976 0,-0.60278 -1.125,-1.52369 -2.5,-2.04646 -2.9074,-1.10539 -3.3702,-4 -0.6395,-4 1.0232,0 3.4566,1.08323 5.4076,2.40719 l 3.5472,2.40718 0.5787,-2.15718 c 1.7034,-6.34979 -0.2211,-10.36254 -13.111,-27.33661 -9.8093,-12.91739 -19.945,-30.25516 -22.9657,-39.2844 -1.2027,-3.5949 -2.9138,-12.83618 -3.8025,-20.53618 -2.1082,-18.26667 -2.8252,-21.03716 -8.6473,-33.41109 -6.1737,-13.12103 -13.4039,-23.89341 -24.4455,-36.42132 -7.4428,-8.44469 -8.9474,-10.77345 -10.661,-16.5 -2.7423,-9.16436 -4.7638,-11.65052 -11.5341,-14.18531 -6.1096,-2.28742 -26.67455,-6.66602 -44.7269,-9.52307 -11.39202,-1.80295 -13.68248,-2.67673 -11.84174,-4.51747 1.21432,-1.21432 17.0024,1.12859 40.29829,5.98017 7.94547,1.65471 14.56655,2.88836 14.71345,2.74145 0.1469,-0.14692 -0.9335,-5.04453 -2.4009,-10.88357 -2.2546,-8.97137 -2.8591,-10.35793 -3.9013,-8.94812 -0.84019,1.1367 -1.56328,1.34373 -2.26913,0.64968 -0.71286,-0.70095 -0.11007,-3.89788 1.93263,-10.25005 4.5178,-14.04865 4.1989,-17.45845 -3.00191,-32.08963 -6.74519,-13.7055 -8.27805,-18.43189 -10.58639,-32.64167 -1.84139,-11.33536 -7.70732,-24.90839 -17.8144,-41.22035 -16.98924,-27.41914 -29.01585,-39.57346 -48.8786,-49.3976 -8.37734,-4.14345 -11.05205,-6.88205 -6.72148,-6.88205 2.35875,0 12.07025,4.7465 19.97148,9.76106 9.74012,6.18162 21.24073,18.09691 30.4164,31.51311 2.15402,3.1495 4.12161,5.52116 4.37241,5.27035 1.33761,-1.33761 -3.4179,-45.63208 -6.8759,-64.04452 -3.6845,-19.61849 -14.67364,-48.94683 -22.91632,-61.16016 -2.24167,-3.32153 -2.81248,-4.92395 -2.03202,-5.70441 0.78046,-0.78046 1.71038,-0.69054 3.31039,0.32012 1.22377,0.77301 4.92504,2.93142 8.22504,4.79646 12.15825,6.87144 28.43595,20.92457 26.97497,23.28849 -1.18457,1.91667 -3.14782,0.85298 -8.50913,-4.61025 -5.06627,-5.16258 -19.03235,-15.43025 -20.98822,-15.43025 -0.47016,0 1.33459,4.6125 4.01055,10.25 12.89574,27.16776 18.93515,55.11955 22.0927,102.25 l 1.20593,18 4.78741,8.5 c 8.3226,14.77669 10.75705,21.28287 13.38624,35.77531 2.21878,12.23027 3.13005,14.97867 9.00721,27.1658 3.59624,7.45739 6.53724,14.12139 6.53554,14.80889 0,1.75252 0.7621,1.58422 6.9968,-1.53619 4.797,-2.40086 6.3308,-3.98906 12,-12.42635 7.9259,-11.79574 9.7928,-13.81258 15.8255,-17.09597 4.6346,-2.52248 24.7553,-8.69149 28.3479,-8.69149 1.0046,0 1.8266,0.66243 1.8266,1.47207 0,0.93245 -2.0161,2.03216 -5.5,3 -3.025,0.84036 -8.0683,2.24262 -11.2073,3.11613 -8.4382,2.34815 -14.3698,5.68686 -18.9704,10.67802 -4.3556,4.7252 -6.808,8.58137 -5.9826,9.40679 0.2759,0.27594 3.0481,-0.0269 6.1603,-0.67301 3.1122,-0.6461 5.9035,-0.92982 6.2028,-0.63049 1.6328,1.63277 -1.3652,3.40368 -8.5058,5.02443 -6.2976,1.42939 -8.6417,2.47374 -10.8637,4.83997 -1.5583,1.6595 -5.526,4.3065 -8.817,5.88222 l -5.9837,2.86494 -1.0653,6.50947 c -0.5859,3.5802 -0.6834,6.50946 -0.2166,6.50946 0.4667,0 2.1041,-0.64922 3.6385,-1.44272 1.5345,-0.7935 8.3746,-3.07412 15.2004,-5.06805 23.7947,-6.95091 22.8071,-6.23431 61.9104,-44.92326 56.1913,-55.59585 81.5,-77.64309 81.5,-70.99718 0,0.58783 -3.825,4.14583 -8.5,7.90668 -9.9599,8.01229 -33.8994,29.69749 -42.5,38.49782 -4.9272,5.04167 -5.5024,5.95267 -3.2171,5.09527 1.5306,-0.57424 9.0333,-2.17647 16.6726,-3.5605 25.1185,-4.55077 47.8603,-13.79381 63.1884,-25.68194 3.9683,-3.07768 6.8561,-3.65906 6.8561,-1.38026 0,1.96484 -17.711,13.62056 -27.5298,18.11758 -11.4459,5.24219 -26.4061,9.94294 -38.1523,11.98812 l -10.1821,1.77284 2.6821,2.6911 c 1.4751,1.48011 4.9812,5.34462 7.7913,8.5878 5.93,6.84397 15.0601,12.60119 24.3908,15.3802 3.575,1.06476 14.375,3.31014 24,4.98972 26.3088,4.59096 46,10.78587 46,14.47175 0,2.08819 -1.0665,1.9722 -7.7801,-0.84611 -9.551,-4.00941 -18.8932,-6.42587 -37.2199,-9.62739 -24.1033,-4.21063 -29.749,-5.81924 -41.2312,-11.74805 -0.4021,-0.20764 -0.027,1.30694 0.8329,3.36574 0.8602,2.0588 3.0968,9.85598 4.9702,17.32706 4.5066,17.97215 8.5707,26.11693 16.9368,33.94305 8.8009,8.23276 18.6926,12.82222 42.2442,19.60003 10.5892,3.04738 19.4767,5.5407 19.75,5.5407 0.2734,0 0.4971,0.9 0.4971,2 0,1.1 -0.1834,2 -0.4076,2 -0.2242,0 -9.0845,-2.49919 -19.6896,-5.55376 -18.8242,-5.4219 -27.3823,-8.45703 -31.3753,-11.1272 -1.0849,-0.72547 -2.2502,-1.31904 -2.5897,-1.31904 -0.3395,0 0.8548,6.47665 2.6539,14.39255 4.6262,20.35548 8.4802,27.60648 26.8982,50.60745 14.9987,18.73082 23.7027,32.2989 35.2829,55 8.9748,17.59357 23.2345,48.81021 29.4634,64.5 l 2.382,6 9.4409,0.30946 c 5.1925,0.17021 12.9137,-0.18976 17.1582,-0.79993 12.7382,-1.83117 24.6661,1.27658 32.6768,8.51376 3.0958,2.79689 4.4467,5.06014 5.7121,9.56997 0.9115,3.24871 1.851,5.90674 2.0877,5.90674 0.2367,0 2.6972,-0.74147 5.4679,-1.64771 4.1823,-1.36796 5.1792,-1.41852 5.8719,-0.29775 1.1393,1.84343 0.4987,2.58897 -2.7894,3.24661 -1.5386,0.30771 -3.9104,1.43359 -5.2708,2.50197 -2.4113,1.89362 -2.4654,2.22877 -2.1505,13.31969 0.3208,11.29494 0.3477,11.40611 3.723,15.37719 l 3.3999,4 5.2771,-3 c 4.9642,-2.82215 5.9169,-3 16.0715,-3 h 10.7945 l -0.6138,-2.5 c -0.3376,-1.375 -3.8451,-8.4328 -7.7945,-15.684 -5.9466,-10.91811 -7.6089,-13.23831 -9.6721,-13.5 -1.4507,-0.18399 -2.6351,-1.07283 -2.8352,-2.12766 -0.2959,-1.55906 0.2596,-1.76821 3.9839,-1.5 3.6733,0.26453 4.5494,0.76536 5.7932,3.31166 2.0241,4.14369 2.4948,1.35571 1.1881,-7.03738 -1.0701,-6.87373 -2.9901,-11.36374 -11.102,-25.96262 -2.7505,-4.95 -6.636,-13.05 -8.6344,-18 -3.6222,-8.97177 -3.6312,-9.03137 -2.8588,-19 1.4114,-18.21386 1.1921,-20.64042 -2.5273,-27.96836 -2.0343,-4.00777 -6.7221,-10.2671 -11.8559,-15.83024 -11.7046,-12.68348 -13.7939,-15.81732 -16.7196,-25.07873 -2.1156,-6.69722 -2.6108,-10.51263 -2.932,-22.59044 -0.4203,-15.80377 -2.4003,-24.86248 -8.6167,-39.4218 -1.6697,-3.91074 -4.8152,-13.18543 -6.9899,-20.61043 -4.6042,-15.71989 -6.8681,-20.8187 -17.1676,-38.66522 -8.5864,-14.8782 -14.8361,-29.88793 -20.7129,-49.746 -2.2118,-7.47383 -5.8486,-19.77628 -8.0816,-27.33878 -10.9052,-36.93153 -28.6163,-69.61874 -52.2872,-96.5 -3.2691,-3.7125 -6.5114,-6.75 -7.205,-6.75 -1.1877,0 -4.625,7.36182 -9.391,20.11326 -1.4451,3.86626 -4.2702,7.99615 -9.0774,13.26964 -3.8386,4.211 -6.9793,8.24448 -6.9793,8.96329 0,1.84214 -10.506,17.38715 -14.8657,21.9956 -9.6388,10.18905 -34.4103,29.73743 -43.555,34.3714 -8.0352,4.07173 -30.3805,11.02733 -39.3883,12.26065 -12.7734,1.74893 -21.6664,-0.45435 -29.9428,-7.41845 -1.6703,-1.40546 -3.2635,-2.55539 -3.5404,-2.55539 -0.2769,0 0.3747,3.42795 1.448,7.61766 2.4068,9.39544 2.0721,11.09309 -4.7096,23.88234 -2.9165,5.5 -6.5078,13.0375 -7.9808,16.75 -1.5169,3.82333 -3.2823,6.75 -4.0717,6.75 -3.2234,0 -1.2452,-5.73679 8.8623,-25.70145 l 6.1772,-12.20144 -1.3112,-5.79856 c -0.7211,-3.1892 -1.8311,-8.05945 -2.4666,-10.82278 -1.019,-4.43114 -6.8015,-13.47577 -8.6154,-13.47577 -0.3438,0 -1.16,1.99965 -1.8137,4.44367 -0.6537,2.44403 -2.6169,6.07054 -4.3627,8.05892 -3.8962,4.43751 -10.6437,8.11734 -12.1402,6.62081 -1.1782,-1.17821 0.7297,-4.1234 2.6712,-4.1234 0.6323,0 2.817,-1.37435 4.8549,-3.05412 2.6316,-2.1692 4.1463,-4.53974 5.2278,-8.1815 2.2297,-7.50817 2.0097,-8.63866 -3.4766,-17.86081 -2.7496,-4.62196 -4.9996,-8.89235 -5,-9.48976 -4e-4,-0.5974 -2.7217,-4.8724 -6.0473,-9.5 -7.56979,-10.53333 -12.2411,-20.12076 -14.81859,-30.41381 -2.21891,-8.86109 -4.13481,-21.58654 -4.13481,-27.46348 0,-2.98861 -0.87552,-4.875 -4.02751,-8.67764 -5.20432,-6.27862 -6.63448,-11.34591 -8.55145,-30.29917 -1.64644,-16.27856 -1.36462,-30.21658 0.99196,-49.05971 l 1.1881,-9.5 -4.05055,-0.65985 c -2.2278,-0.36292 -10.12555,-0.97797 -17.55055,-1.36678 -47.57825,-2.49145 -104.29045,16.81744 -138,46.98507 -4.125,3.69158 -14.925,14.52668 -24,24.07801 -9.075,9.55133 -19.38445,19.75048 -22.90989,22.6648 -14.637706,12.1003 -14.603976,12.05826 -14.466836,18.03002 0.0829,3.60947 2.10898,11.41159 6.18525,23.81826 3.3341,10.14776 8.744116,27.90623 12.022276,39.46326 8.45621,29.81212 11.57089,36.76531 21.87807,48.84048 4.40085,5.15574 5.348,7.64673 2.90749,7.64673 -1.8266,0 -7.83963,-6.73076 -12.61868,-14.12488 -5.4371,-8.41225 -9.35479,-18.38721 -14.57065,-37.09873 -5.572756,-19.99193 -17.580826,-57.7792 -18.357766,-57.76869 -0.31309,0.004 -1.65569,1.90934 -2.98354,4.23357 -2.61162,4.57126 -11.79369,14.75873 -13.30221,14.75873 -0.5095,0 -1.60137,-0.675 -2.42637,-1.5 -0.88343,-0.88343 -3.32726,-1.5 -5.94539,-1.5 -3.98263,0 -4.90792,0.48271 -8.8884,4.63698 -5.50901,5.74951 -11.47473,17.10098 -15.05655,28.64933 -2.25057,7.25616 -2.63997,10.04258 -2.23602,16 0.49223,7.25934 1.03436,8.85558 9.62563,28.3416 5.67252,12.86596 8.79646,24.23654 12.12838,44.14519 3.44546,20.587 4.90792,23.80382 13.74201,30.2269 3.41299,2.48151 6.20801,5.28497 6.23118,6.25 0.0568,2.36517 -0.51974,2.23971 -6.06765,-1.32037 -5.78064,-3.70943 -11.58174,-9.94683 -13.4829,-14.49694 -0.76903,-1.84054 -2.33619,-9.32834 -3.48258,-16.63956 -2.20262,-14.04733 -5.92516,-30.12671 -8.59061,-37.10681 -3.21951,-8.43103 -10.60872,-24.68632 -11.22172,-24.68632 -0.34689,0 -1.46324,3.7125 -2.4808,8.25 -3.65167,16.28356 -6.87625,25.50578 -14.59801,41.75 -4.31384,9.075 -8.3128201,18.3 -8.8866201,20.5 -2.30271,8.82886 -4.18946,22.75721 -3.54678,26.18299 0.65799,3.50739 0.71833,3.54912 2.28775,1.5821 1.11797,-1.40118 4.1463501,-2.51748 9.8822501,-3.64269 14.8111,-2.90552 22.09848,-2.06913 50.3779,5.78196 8.99348,2.49682 25.35179,6.60871 36.351786,9.13754 11,2.52882 26.075,6.57101 33.5,8.98264 7.425,2.41163 17.59183,5.2698 22.59295,6.3515 10.0672,2.17744 19.82286,5.74839 41.21846,15.08756 7.87127,3.4358 14.54131,6.01702 14.8223,5.73603 0.73831,-0.73831 -16.24637,-33.57802 -22.91101,-44.29821 -3.11107,-5.00422 -9.18841,-13.77922 -13.50518,-19.5 -17.84779,-23.65267 -25.75116,-37.46466 -31.62335,-55.26519 -2.9369,-8.9027 -3.2157,-11.63623 -1.18679,-11.63623 0.89246,0 2.56961,3.52295 4.58401,9.62896 6.37353,19.31929 10.71011,27.10974 28.03919,50.37104 5.94118,7.975 13.34518,18.55 16.45332,23.5 6.08321,9.68804 21.05071,38.85766 29.50437,57.5 14.7641,32.55838 30.97334,62.21288 41.91931,76.6906 12.67483,16.76441 40.09056,43.23768 54.80918,52.92502 3.73078,2.45549 9.82074,5.39033 13.53324,6.52186 4.5064,1.3735 6.75,2.56729 6.75,3.59159 0,2.40043 -6.85722,1.03568 -15.55837,-3.09647 -8.54624,-4.05859 -8.55411,-4.19621 0.47326,8.27166 3.34681,4.62234 6.08511,8.904 6.08511,9.51481 0,1.73368 3.79618,8.39135 7.9757,13.98769 2.0921,2.80128 5.077,7.56824 6.6331,10.59324 2.5407,4.93907 2.8419,6.57087 2.9532,16 0.101,8.55853 0.515,11.26331 2.2391,14.62821 3.0611,5.97408 10.2482,11.86712 17.4317,14.29304 3.3629,1.13567 6.1786,1.95549 6.257,1.82181 0.078,-0.13368 0.6062,-3.62215 1.173,-7.75214 1.2258,-8.93254 4.4972,-16.99092 6.8975,-16.99092 1.9197,0 1.7171,1.38341 -1.4643,10 -1.1169,3.025 -2.0454,7.81649 -2.0634,10.64776 -0.03,4.75615 0.401,5.70709 5.6676,12.5 3.1352,4.04373 8.9035,11.17724 12.8187,15.85224 3.9151,4.675 8.2125,10.00034 9.5497,11.83408 l 2.4314,3.33409 0.721,-4.21992 c 0.3966,-2.32096 2.6008,-7.10506 4.8983,-10.63133 z m -23.1193,-59.62075 c 0,-3.32426 15.2772,-13.64751 20.25,-13.6835 3.7723,-0.0273 1.4421,2.94358 -4.5,5.73726 -3.4375,1.61614 -7.7601,4.35856 -9.6058,6.09426 -3.4973,3.28897 -6.1442,4.08679 -6.1442,1.85198 z m 216.57,-85.82831 c -12.2724,-9.3435 -30.57,-27.33008 -30.57,-30.05031 0,-0.99965 0.3007,-1.81755 0.6683,-1.81755 0.3675,0 5.88,5.07192 12.25,11.27094 6.3699,6.19902 16.0525,14.63923 21.5168,18.75603 5.4643,4.11679 9.8756,7.93237 9.8028,8.47905 -0.3428,2.57567 -3.7207,0.9351 -13.6679,-6.63816 z m -274.07,-73.47147 c -13.6139,-10.31674 -25.31987,-15.19649 -38.6053,-16.093 -10.61725,-0.71645 -12.08421,0.55341 -4.86523,4.21155 4.81803,2.44147 6.04735,4.67206 2.88766,5.23961 -0.77942,0.14 -3.77963,-1.1066 -6.66713,-2.77023 -3.99318,-2.30066 -5.25,-3.58911 -5.25,-5.3821 0,-4.11686 2.4798,-5.11304 12.40859,-4.98476 14.40969,0.18617 27.84364,5.53439 42.78971,17.03512 5.4127,4.16498 6.6837,6.2657 4.2392,7.00655 -0.5156,0.15627 -3.6375,-1.76197 -6.9375,-4.26274 z m 238.2538,-2.80275 c -10.6697,-4.65828 -20.5196,-10.98723 -31.9108,-20.50391 -12.1896,-10.18371 -22.1962,-23.09121 -20.2911,-26.17365 1.1197,-1.8117 2.444,-0.84409 4.5629,3.33392 2.6016,5.12977 16.7428,19.3752 26.3852,26.57971 6.7081,5.01207 22.4156,13.5721 29.25,15.94015 3.4143,1.18304 4.5011,4.23887 1.5,4.21793 -0.9625,-0.007 -5.2358,-1.53408 -9.4962,-3.39415 z M 76.330274,326.5658 c -4.8026,-6.22476 -9.9776,-13.72279 -11.5,-16.66229 -2.58602,-4.99318 -2.76474,-6.13555 -2.7185,-17.37696 0.0497,-12.07316 1.15671,-18.39647 3.86274,-22.06333 2.55271,-3.45912 3.74704,-0.5737 1.88131,4.54515 -1.00089,2.74607 -1.80522,8.87049 -2.07396,15.79176 -0.42733,11.00584 -0.35787,11.47045 2.61655,17.5 1.68054,3.40669 5.47127,9.11899 8.42383,12.69399 6.72687,8.14498 11.74004,15.04128 11.74004,16.15004 0,0.46748 -0.7875,0.82508 -1.75,0.79468 -1.01381,-0.032 -5.42337,-4.81642 -10.48201,-11.37304 z M 511.02338,300.93111 c -0.3614,-0.58466 0.087,-1.88535 0.9968,-2.89043 2.0646,-2.28142 12.7631,-8.04656 14.9321,-8.04656 2.713,0 1.7878,2.68371 -1.3771,3.99466 -1.6429,0.68051 -5.129,2.76011 -7.7468,4.62132 -5.1922,3.6915 -5.8247,3.90723 -6.805,2.32101 z m -341.10749,-4.45789 c -1.2861,-3.3515 9.27978,-11.67347 24.09155,-18.97514 16.73055,-8.24757 23.68351,-10.5076 32.27329,-10.49031 8.12829,0.0164 11.28155,0.74392 11.28155,2.60298 0,1.07571 -2.00859,1.38337 -9.03155,1.38337 -10.75688,0 -16.18929,1.61764 -32.31647,9.62306 -11.76706,5.84109 -15.81829,8.47151 -21.86816,14.19877 -3.35507,3.17616 -3.78556,3.3372 -4.43021,1.65727 z m 77.78208,-90.2291 c -5.26975,-10.37376 -10.13569,-32.69726 -10.13569,-46.49954 0,-6.68834 0.24346,-7.84762 1.59056,-7.57378 1.27055,0.25827 1.66198,2.04871 1.94554,8.89899 0.46637,11.2668 3.77364,27.19118 7.96437,38.34815 1.85412,4.93621 3.14845,9.33522 2.87631,9.77556 -1.01743,1.64624 -2.39225,0.69015 -4.24109,-2.94938 z m 234.33721,511.23216 3.6449,-6.51783 -3.5016,-6.87094 c -7.2341,-14.19492 -15.5589,-26.6145 -29.4838,-43.98654 l -7.5293,-9.39315 -1.1158,4.89315 c -0.6137,2.69123 -1.6456,5.86903 -2.2931,7.06176 -1.0359,1.90792 -0.6585,2.80951 3.1396,7.5 2.3744,2.93227 6.956,9.15639 10.1814,13.83139 3.2253,4.675 9.6742,13.84809 14.331,20.38464 6.7137,9.4239 8.2563,12.22164 7.4503,13.51227 -0.915,1.46506 -0.09,6.10309 1.0852,6.10309 0.2454,0 2.0864,-2.93303 4.0912,-6.51784 z m 191.1205,2.45139 c 3.5654,-1.24737 8.5821,-2.09535 12.6566,-2.13937 3.7125,-0.0401 6.75,-0.39046 6.75,-0.77857 0,-0.3881 -0.9485,-1.56288 -2.1077,-2.61062 -1.6086,-1.4539 -3.5622,-1.89246 -8.25,-1.85206 -9.017,0.0777 -13.1282,1.16442 -16.5707,4.38015 -5.7793,5.3987 -2.7673,6.60019 7.5218,3.00047 z m -178.2842,-22.0235 c 12.2872,-16.5735 26.5714,-30.58739 38.5615,-37.83191 12.871,-7.77682 36.227,-14.58401 53.6293,-15.63047 4.95,-0.29766 10.8754,-0.76717 13.1676,-1.04335 l 4.1676,-0.50216 -4.297,-10.20108 c -12.8515,-30.50881 -30.2977,-66.73213 -39.2999,-81.59763 -5.6567,-9.34087 -12.6888,-19.22023 -20.7159,-29.10345 -20.3795,-25.09181 -25.6747,-34.86835 -29.5785,-54.61059 -2.7998,-14.15984 -3.5562,-15.81827 -10.9198,-23.94368 -8.2443,-9.09727 -12.3455,-17.62339 -16.9931,-35.32749 -4.7022,-17.91223 -8.79,-26.75837 -16.3379,-35.35554 -7.3501,-8.37187 -9.925,-9.5107 -16.5377,-7.31431 -8.0801,2.68378 -12.7751,6.49619 -31.6798,25.72463 -9.8866,10.05586 -20.2256,20.24491 -22.9756,22.64232 -7.0504,6.14647 -16.0378,10.40958 -32.0319,15.1942 -7.6138,2.27765 -15.5938,5.03427 -17.7334,6.12582 -3.7967,1.93692 -3.8748,2.08535 -3.2472,6.17463 1.0687,6.96357 4.4928,19.75122 6.1434,22.94313 0.8534,1.65039 3.2606,4.6311 5.3493,6.6238 2.8831,2.75056 4.3046,5.33015 5.903,10.71156 1.756,5.91238 3.1948,8.31818 8.6717,14.5 17.5606,19.8208 29.0962,39.28654 32.8373,55.41152 0.8933,3.85 2.2865,12.92842 3.0961,20.17427 1.7483,15.64802 3.8734,21.85907 12.3817,36.18814 8.6578,14.58071 17.3194,26.27169 25.1878,33.99694 13.2829,13.04126 32.4274,38.91947 42.0443,56.83257 2.4188,4.50556 4.6639,7.88056 4.989,7.5 0.325,-0.38055 3.1232,-4.1074 6.2181,-8.28187 z m -85.8152,-367.42623 c 9.7704,-2.06955 24.8002,-7.16312 32.506,-11.01622 12.0855,-6.04302 37.2448,-26.25487 45.7012,-36.71424 4.9773,-6.15627 11.5186,-15.86688 11.0225,-16.36301 -0.1396,-0.13955 -2.8471,0.4681 -6.0168,1.35034 -5.6163,1.56323 -5.9072,1.54431 -11.4266,-0.74336 -3.9486,-1.63659 -5.7822,-1.9916 -6.0553,-1.17237 -0.6421,1.92632 -3.225,1.33112 -3.225,-0.74317 0,-5.61416 2.3749,-6.32823 8.5,-2.5557 2.2,1.35501 5.3615,2.46597 7.0255,2.46879 4.5357,0.008 19.4745,-7.86073 19.4745,-10.25742 0,-1.03844 -14.0716,-0.38264 -18.6936,0.87122 -4.671,1.26714 -10.2911,-8.05053 -6.9023,-11.44332 1.3854,-1.38699 4.3875,-1.72105 17.9599,-1.99852 l 16.2964,-0.33316 3.1357,-7.61766 c 1.7246,-4.18971 3.0087,-7.7446 2.8535,-7.89974 -0.1551,-0.15514 -1.8243,0.16023 -3.7092,0.70082 -7.9663,2.28471 -10.4587,0.38992 -7.5394,-5.7318 0.9266,-1.9431 1.5079,-3.70977 1.2917,-3.92594 -0.2162,-0.21616 -4.398,0.59495 -9.2929,1.80248 -19.8535,4.89768 -57.7416,1.63797 -59.8971,-5.15327 -0.325,-1.02397 0.104,-3.52475 0.9532,-5.55729 0.8493,-2.03254 1.5441,-3.80777 1.5441,-3.94495 0,-0.13719 -4.8375,-0.4915 -10.75,-0.78737 -21.6603,-1.0839 -27.4634,-6.18553 -13.972,-12.28304 l 6.222,-2.81203 -4,-0.79014 c -11.6012,-2.29163 -16.0362,-4.36205 -27.9603,-13.05286 -6.6218,-4.82632 -12.7748,-8.77643 -13.6733,-8.77801 -2.768,-0.005 -8.7872,7.71308 -13.1165,16.8184 -3.663,7.70374 -5.3693,9.88356 -15.1882,19.40356 -6.084,5.89867 -11.8388,10.73617 -12.7886,10.75 -0.9499,0.0138 -2.3732,-0.98734 -3.16308,-2.22484 -1.39791,-2.19019 -3.81988,-15.13037 -5.10029,-27.25 -1.4583,-13.80343 -4.94044,-20.98464 -9.58628,-19.76973 -8.92,2.33263 -13.02759,25.87948 -6.96874,39.94843 2.64132,6.13325 4.82371,8.32406 9.17957,9.21493 4.03917,0.82609 4.82425,2.82769 1.44206,3.67656 -2.28769,0.57418 -2.5156,1.03873 -2.10316,4.28689 0.25441,2.0036 0.95204,7.46792 1.55028,12.14292 1.50119,11.73114 4.53207,22.25914 8.71668,30.27806 1.9454,3.72793 3.70126,6.61385 3.90196,6.41315 0.2007,-0.20069 -0.76166,-4.9181 -2.13859,-10.48311 -2.84119,-11.48298 -3.12144,-15.2081 -1.14415,-15.2081 0.91249,0 2.26441,3.86268 4.11244,11.75 6.1222,26.12938 14.8262,44.00213 28.475,58.47062 16.2152,17.18903 24.0457,20.18216 42.5472,16.2632 z m 7.9127,-11.51449 c -8.7958,-1.74385 -18.4067,-8.04763 -18.4067,-12.07292 0,-2.74531 1.7127,-2.33759 5.3157,1.26544 3.9488,3.94877 10.1768,6.75384 16.7145,7.52813 5.2869,0.62616 7.1598,1.94219 4.8479,3.40651 -1.5916,1.00811 -2.8397,0.98938 -8.4714,-0.12716 z m 21.6142,-7.4441 c -0.7524,-0.90668 -2.9397,-1.53514 -5.3933,-1.54968 -6.3595,-0.0377 -12.6822,-1.81142 -17.6276,-4.94521 -2.475,-1.56835 -6.4001,-3.40929 -8.7225,-4.09099 -4.2228,-1.23952 -8.2775,-4.168 -8.2775,-5.97831 0,-2.09207 3.9489,-0.6875 17.7448,6.31162 8.1471,4.13327 21.527,6.85559 23.5841,4.79848 1.8243,-1.82437 3.6711,-1.18355 3.6711,1.27387 0,1.28976 -0.8355,3.10111 -1.8566,4.02523 -1.6574,1.49992 -1.9925,1.51655 -3.1225,0.15499 z m -9.8209,-12.72523 c -1.7603,-1.7603 -1.4782,-2.75904 1.05,-3.71706 3.1594,-1.19723 5.0592,0.44905 3.4647,3.00234 -1.3751,2.20176 -2.8018,2.42763 -4.5147,0.71472 z m 8.107,-4.11425 c -3.1939,-2.92283 -7.2752,-5.9048 -9.0697,-6.62659 -3.3788,-1.35901 -4.6708,-3.96434 -4.0702,-8.20745 0.4602,-3.25129 2.1172,-2.68281 3.4232,1.17443 0.7406,2.18742 2.1627,3.67112 4.4342,4.62622 1.8392,0.77332 5.7674,3.69795 8.7293,6.49918 5.0162,4.74416 5.6572,5.05667 9.3549,4.5607 6.1215,-0.82106 6.8913,-1.95318 6.8913,-10.13468 0,-3.94766 0.385,-7.60506 0.8555,-8.12756 0.4705,-0.5225 1.5701,-3.2 2.4437,-5.95 4.1315,-13.00652 11.6613,-24.8785 14.6195,-23.05022 1.8017,1.11349 1.2216,3.29469 -1.4311,5.38135 -4.6892,3.6885 -11.1291,20.58463 -12.8233,33.64389 -1.3611,10.49191 -2.3849,11.48571 -11.8573,11.51024 -5.4891,0.0142 -5.9009,-0.17556 -11.5,-5.29951 z m -43.1266,-1.92553 c 0.3517,-2.46492 3.4068,-3.573 5.1221,-1.85775 0.7867,0.78671 0.5484,1.49963 -0.8562,2.56198 -2.8861,2.18268 -4.6365,1.8937 -4.2659,-0.70423 z m 34.3171,-31.76427 c -0.3772,-0.61029 -0.4386,-2.09654 -0.1365,-3.30279 0.516,-2.06053 0.2042,-2.19693 -5.1559,-2.25553 -7.06,-0.0772 -12.5384,-2.74815 -19.8817,-9.69312 -5.0338,-4.76072 -6.6649,-7.74451 -4.2337,-7.74451 0.5994,0 3.5935,2.23151 6.6535,4.9589 7.9046,7.04522 11.4285,8.56836 19.4431,8.40388 7.4698,-0.1533 7.8923,0.21652 6.9402,6.07438 -0.6382,3.9264 -2.3589,5.61381 -3.629,3.55879 z m 9.3371,-18.52169 c -3.4841,-1.93915 -10.6096,-5.63583 -15.8346,-8.21484 -9.071,-4.47734 -9.9516,-4.70629 -19.5,-5.06965 -10.6148,-0.40394 -12.5,-1.10631 -12.5,-4.65723 0,-2.92364 2.4076,-4.89314 8.4281,-6.89439 9.2211,-3.06515 18.3405,-1.42433 35.0889,6.31347 15.3552,7.09411 23.4029,13.48756 21.9017,17.39961 -0.4616,1.203 -8.6267,4.64877 -11.0157,4.64877 -0.1286,0 -3.0844,-1.58658 -6.5684,-3.52574 z m 12.6342,-2.547 c 1.4521,-1.4578 -1.9518,-3.88616 -14.4688,-10.32209 -11.8853,-6.11113 -22.2262,-9.60517 -28.4272,-9.60517 -4.4888,0 -13.5728,2.66021 -13.5728,3.97472 0,0.4327 4.1625,1.00035 9.25,1.26146 10.5677,0.54236 17.8299,3.21744 32.0487,11.80536 6.4295,3.88331 8.8427,4.84193 11.1701,4.43721 1.6328,-0.28394 3.4328,-0.98211 4,-1.55149 z m -124.76513,-45.67726 -1.41257,-4.75 -1.1208,2.75 c -1.24112,3.04523 -4.17243,3.74877 -4.16656,1 0.002,-0.9625 0.90526,-3.22865 2.00712,-5.03588 1.83925,-3.01667 1.88049,-3.52354 0.50338,-6.18659 -0.82501,-1.59539 -1.95322,-3.1808 -2.50713,-3.52313 -1.50924,-0.93277 -1.21277,-3.5044 0.404,-3.5044 3.65717,0 8.53433,9.64377 10.24106,20.25 0.48227,2.99695 0.28823,3.75 -0.96624,3.75 -1.00768,0 -2.07543,-1.70067 -2.98226,-4.75 z m 180.01113,55.823 c 4.9934,-0.0587 6.4109,-0.43934 7.2124,-1.93698 0.9056,-1.69212 0.473,-1.91812 -4.6919,-2.45118 -5.3068,-0.54771 -20.1934,0.0106 -22.9684,0.86139 -1.7264,0.52928 -0.3926,3.47172 1.9698,4.34564 1.0772,0.39849 4.2771,0.39368 7.1109,-0.0107 2.8338,-0.40436 7.9491,-0.76805 11.3672,-0.8082 z m 18.7852,-29.29497 c 10.7462,-4.15934 27.1134,-20.10385 32.9705,-32.11897 4.3591,-8.94211 5.6501,-18.54356 5.6685,-42.15906 0.021,-26.67002 -4.0689,-47.477473 -14.6823,-74.700173 -6.864,-17.6058 -11.8359,-27.11884 -16.9567,-32.44438 -4.2262,-4.39515 -7.5118,-5.66093 -17.75,-6.83819 -4.5037,-0.51787 -5.75,-1.03228 -5.75,-2.37338 0,-2.22378 -9.1053,-11.08595 -15.5,-15.08614 -11.3094,-7.0745602 -33.3012,-11.4590202 -57,-11.3639902 -37.1728,0.14907 -65.427,10.8179002 -89.3054,33.7218302 -13.82817,13.26382 -21.30402,26.4342 -26.62131,46.89932 -3.23108,12.43574 -8.49426,54.035413 -9.19611,72.685103 l -0.54568,14.5 2.64406,-4.25525 c 4.76704,-7.67189 12.39355,-9.56588 16.90925,-4.19928 3.1813,3.78076 4.13291,7.29472 6.08087,22.45453 1.84012,14.32047 3.38462,22.28946 4.44742,22.94628 0.4282,0.26464 5.2922,-4.11502 10.8089,-9.73256 8.1278,-8.27638 10.8331,-11.826 14.2624,-18.71372 2.3276,-4.675 5.3316,-9.96297 6.6755,-11.75105 3.0086,-4.00287 7.8074,-6.59947 10.8058,-5.84691 1.2377,0.31063 7.1517,4.1067 13.1423,8.43571 13.7536,9.9388 15.2161,10.66828 25.4636,12.70076 13.3351,2.6449 14.2573,5.24167 3.5592,10.02236 -3.6173,1.61652 -6.5891,3.20502 -6.6039,3.53 -0.063,1.39573 12.245,3.21159 21.2839,3.14001 11.463,-0.0908 12.1823,0.51613 8.8182,7.44047 -1.1915,2.45252 -1.9242,4.85103 -1.6281,5.33003 0.296,0.47899 4.0169,1.68713 8.2686,2.68476 11.7268,2.75154 36.8704,2.4998 47.8971,-0.47956 4.4917,-1.21362 8.7667,-2.20307 9.5,-2.19878 2.0267,0.0119 3.9609,4.8854 2.7999,7.05481 -2.3773,4.44205 -0.4654,4.58552 9.5335,0.71542 z"
     style="fill:#000000" />
</svg>
