<?xml version="1.0" encoding="UTF-8" standalone="no"?>
<svg
   xmlns:dc="http://purl.org/dc/elements/1.1/"
   xmlns:cc="http://creativecommons.org/ns#"
   xmlns:rdf="http://www.w3.org/1999/02/22-rdf-syntax-ns#"
   xmlns:svg="http://www.w3.org/2000/svg"
   xmlns="http://www.w3.org/2000/svg"
   viewBox="0 0 524.8324 434.45645"
   height="434.45645"
   width="524.8324"
   id="svg869"
   version="1.1">
  <metadata
     id="metadata875">
    <rdf:RDF>
      <cc:Work
         rdf:about="">
        <dc:format>image/svg+xml</dc:format>
        <dc:type
           rdf:resource="http://purl.org/dc/dcmitype/StillImage" />
        <dc:title></dc:title>
      </cc:Work>
    </rdf:RDF>
  </metadata>
  <defs
     id="defs873" />
  <path
     id="path879"
     d="m 146.44542,433.20646 c -0.2197,-0.6875 -0.88467,-6.65 -1.4777,-13.25 -1.81961,-20.25074 -5.2365,-44.10445 -9.48664,-66.22733 -1.95865,-10.19517 -2.30292,-13.85397 -1.50184,-15.96096 0.57163,-1.50351 0.75554,-3.87621 0.40868,-5.27268 -0.76481,-3.0792 -12.6216,-23.03903 -13.68593,-23.03903 -0.41593,0 -0.98608,1.0125 -1.267,2.25 -0.45132,1.98811 -7.31259,29.75914 -11.05619,44.75 -3.69412,14.79269 -13.121293,36.62341 -23.318853,54 -3.066323,5.225 -6.548169,12.18106 -7.737436,15.45791 -2.288086,6.30448 -3.86171,7.86029 -4.838253,4.78347 -0.959069,-3.02175 1.857129,-10.61975 7.791356,-21.02079 6.978415,-12.23122 16.150742,-31.57862 19.305042,-40.72059 3.295324,-9.55067 9.379674,-32.46653 13.702344,-51.60797 0.19972,-0.88438 -0.0759,-2.39238 -0.61239,-3.35111 -2.38057,-4.25384 5.13977,-13.31916 9.05214,-10.91182 4.93391,3.0359 18.08582,27.31228 18.94993,34.97861 0.48469,4.3002 0.37983,4.57304 -1.52523,3.9684 -2.30673,-0.73213 -2.54488,-2.6385 2.17671,17.42389 1.35912,5.775 2.75068,13.425 3.09237,17 0.34168,3.575 1.45514,12.35 2.47436,19.5 2.26742,15.90644 4.01676,31.34161 4.01676,35.44158 0,2.4075 -0.43233,3.05842 -2.03138,3.05842 -1.11727,0 -2.21115,-0.5625 -2.43085,-1.25 z m 281.84318,-6 c 0.3623,-3.4375 0.88736,-13.675 1.1668,-22.75 0.27944,-9.075 0.66091,-18.37413 0.84771,-20.66472 0.33145,-4.06423 0.24028,-4.20168 -3.77791,-5.69591 -2.26465,-0.84215 -9.74255,-3.1974 -16.61755,-5.23389 -6.875,-2.03649 -17,-5.69218 -22.5,-8.12375 -9.80114,-4.33312 -39.64444,-12.99076 -52.5,-15.23042 -9.03947,-1.57483 -13.13695,-2.95922 -15.71028,-5.30794 -1.77063,-1.61609 -3.01381,-1.89066 -6.25,-1.38037 -2.22185,0.35035 -5.95222,0.93186 -8.28972,1.29225 -2.3375,0.36039 -5.68591,1.74352 -7.44092,3.07363 -7.14839,5.41771 -20.15394,8.71552 -28.46022,7.21665 -12.86636,-2.32175 -11.63762,-2.53293 -20.84886,3.58329 -4.675,3.10418 -10.6375,6.73766 -13.25,8.07441 -3.1818,1.62805 -4.75,3.06647 -4.75,4.35691 0,2.42918 -3.6444,5.03986 -7.03542,5.03986 -1.53277,0 -3.68751,-1.14513 -5.27749,-2.80472 -3.87758,-4.04732 -3.64018,-8.7094 0.72437,-14.22487 3.21503,-4.06283 3.32348,-4.4453 1.88363,-6.6428 -1.55325,-2.37055 -1.47532,-12.78305 0.12326,-16.46821 0.60932,-1.40465 -0.24614,-1.30591 -5.9483,0.68658 -8.2649,2.88798 -18.39644,4.71736 -24.97005,4.50866 -5.81321,-0.18455 -12.13335,-3.74561 -13.03688,-7.34557 -0.80477,-3.20645 0.88385,-7.04925 3.67515,-8.36355 4.53716,-2.13635 23.69795,-7.34665 27.51381,-7.4817 2.76412,-0.0978 3.14378,-0.26544 1.34792,-0.59508 -2.8778,-0.52825 -5.63467,-3.1332 -6.15047,-5.81156 -0.3083,-1.60085 -1.42013,-1.86086 -8.35258,-1.95334 -8.95954,-0.11952 -25.81819,-3.01527 -26.33028,-4.52265 -0.18334,-0.53966 -1.30834,-0.98808 -2.5,-0.9965 -3.36605,-0.0238 -4.68737,-1.33738 -5.33026,-5.29909 -0.74891,-4.61496 1.24353,-9.57539 4.31518,-10.74323 1.28659,-0.48917 6.5133,-0.61521 11.6149,-0.28009 5.29159,0.34759 13.13226,0.10064 18.25458,-0.57495 13.98965,-1.8451 12.94853,-1.25494 13.19643,-7.4805 0.2155,-5.41211 0.188,-5.46805 -3,-6.10032 -7.08631,-1.40542 -17.28107,-4.80836 -18.32774,-6.11767 -0.61064,-0.76386 -1.86397,-1.38884 -2.78519,-1.38884 -0.92121,0 -2.7841,-0.72675 -4.13975,-1.61501 -5.54176,-3.6311 -1.25536,-13.38499 5.8821,-13.38499 1.89332,0 6.30231,0.87796 9.79774,1.95102 6.02598,1.84991 18.42331,4.57394 23.85534,5.24167 1.62796,0.20012 3.19763,-0.49055 4.5,-1.98002 2.50642,-2.86652 7.76321,-3.47739 8.28414,-0.96267 0.21015,1.0145 -0.2336,1.75 -1.05583,1.75 -1.40716,0 -4.72831,3.04049 -4.72831,4.32874 0,0.36919 1.4625,0.68595 3.25,0.70391 1.7875,0.0179 5.725,0.94052 8.75,2.05014 9.68634,3.55313 13.17819,4.15981 15.81627,2.74795 2.07358,-1.10975 2.568,-1.02571 3.78894,0.64403 0.78543,1.07414 1.12704,2.82472 0.77525,3.97277 -0.8725,2.84741 -1.13323,3.00253 -2.76727,1.6464 -1.10195,-0.91454 -1.60459,-0.91687 -2.16503,-0.0101 -0.54416,0.88046 -5.26734,0.99914 -18.56059,0.46635 l -17.8307,-0.71464 -2.41673,2.6077 c -3.14231,3.39065 -4.0394,7.55675 -1.62719,7.55675 0.95458,0 3.70467,0.70775 6.11132,1.57278 2.40665,0.86503 9.09567,1.87753 14.86448,2.25 8.55416,0.55231 10.54616,0.97767 10.80001,2.30618 0.62974,3.29561 -14.46831,3.18176 -27.06183,-0.20407 -2.07519,-0.55792 -4.14518,-0.78443 -4.59998,-0.50335 -2.66028,1.64414 -28.36345,4.59016 -37.93829,4.34838 l -10.68866,-0.26992 -0.21387,3.5 c -0.19603,3.20801 0.0627,3.02844 1.32753,-0.92153 0.30942,-0.96623 1.21033,-0.32567 2.81287,2 1.29672,1.88184 2.15466,3.75903 1.90655,4.17153 -0.24811,0.4125 -0.0227,0.75 0.50091,0.75 1.20915,0 2.16601,-2.46582 2.16601,-5.58179 0,-1.39224 0.58692,-2.41821 1.38337,-2.41821 1.44256,0 2.57959,2.92872 2.60298,6.70469 0.011,1.76887 0.75494,2.32532 3.76365,2.81495 2.0625,0.33565 5.775,0.96694 8.25,1.40287 6.93616,1.22167 14.87511,-0.0481 20.18272,-3.2281 2.5755,-1.54308 7.0755,-3.43074 10,-4.1948 10.99508,-2.87259 20.86745,-4.78278 21.49182,-4.15841 1.6159,1.6159 -3.2345,4.53785 -9.48787,5.71562 -3.67767,0.69265 -8.13472,1.86323 -9.90455,2.60128 -1.76984,0.73804 -4.31072,1.3419 -5.64641,1.3419 -2.85445,0 -8.63571,6.04843 -8.63571,9.0348 0,2.38424 1.87601,2.49301 9.36313,0.54286 3.0034,-0.78228 10.67079,-1.74317 17.03865,-2.13531 7.82394,-0.4818 11.94515,-1.15545 12.71052,-2.07766 2.52051,-3.03703 6.60069,-0.92873 7.11945,3.67874 0.20709,1.83929 -0.30512,2.50491 -2.24662,2.91952 -2.44671,0.52249 -6.46991,2.99271 -9.83244,6.03705 -0.91123,0.825 -4.8423,3.86781 -8.73571,6.76181 -6.48715,4.82193 -7.17666,5.68519 -8.24796,10.32629 -1.21293,5.25471 -1.55096,10.9119 -0.652,10.9119 0.28436,0 3.99686,-2.1135 8.25,-4.69667 4.25314,-2.58318 10.65798,-5.946 14.23298,-7.47295 5.91025,-2.52438 7.61524,-2.77873 18.79181,-2.80333 11.02075,-0.0242 12.51877,0.18439 14.4866,2.01771 1.87597,1.74772 1.97884,2.18878 0.70819,3.03625 -0.81763,0.54533 -3.05374,0.7615 -4.96912,0.48038 -2.67322,-0.39234 -4.35805,0.0956 -7.25,2.09975 -2.07212,1.43597 -3.76748,2.96286 -3.76748,3.39307 0,0.43022 -0.29307,1.54595 -0.65127,2.4794 -0.52789,1.37566 -0.24372,1.56784 1.5,1.0144 1.28451,-0.40769 2.15127,-0.25273 2.15127,0.3846 0,0.60905 2.07203,1.06739 4.82538,1.06739 4.20894,0 6.15715,-0.83351 15.25,-6.52442 5.73354,-3.58844 11.54962,-6.79167 12.92462,-7.1183 7.42473,-1.76373 17.65279,-9.98955 18.58238,-14.94471 0.77149,-4.11241 1.94234,-5.08426 3.26909,-2.7135 0.91363,1.63257 1.33835,1.59891 6.81146,-0.53979 6.11653,-2.39012 10.20894,-4.18829 19.33707,-8.49653 5.37081,-2.53489 14.46726,-6.66214 22.5,-10.20873 7.43743,-3.28374 21.95667,-11.79432 57,-33.41103 3.85,-2.37489 12.625,-7.69468 19.5,-11.82175 6.875,-4.12706 17.45,-10.74296 23.5,-14.70199 10.44724,-6.83651 20.30196,-12.92627 30.03695,-18.56144 2.41546,-1.3982 5.44929,-3.5357 6.74185,-4.75 3.01343,-2.83097 5.7212,-2.88257 5.7212,-0.10902 0,2.04226 -5.28814,7.90121 -7.13144,7.90121 -0.50595,0 -0.2801,1.2375 0.50191,2.75 1.79504,3.47184 8.22747,26.28501 9.07543,32.18676 0.3506,2.44021 2.46109,11.66521 4.68998,20.5 4.99051,19.78124 5.24696,21.12319 4.43907,23.22851 -1.70875,4.45295 -5.42226,-5.18403 -10.46783,-27.16527 -1.64121,-7.15 -3.2856,-14.8 -3.6542,-17 -0.85742,-5.11754 -7.35672,-28.72631 -8.35101,-30.3351 -0.8168,-1.32161 -16.11335,7.05111 -30.10191,16.47658 -4.125,2.77942 -13.4763,8.60962 -20.78066,12.956 -7.30437,4.34639 -16.19882,9.70252 -19.76546,11.90252 -19.76858,12.19382 -40.00835,24.38261 -47.70388,28.72822 -4.8125,2.71759 -8.75,5.11212 -8.75,5.32118 0,0.20905 4.36961,1.74596 9.71024,3.41535 9.46204,2.95767 10.22411,3.03525 29.81349,3.03525 h 20.10325 l 2.31164,-8 c 1.83006,-6.33339 2.70222,-8 4.18651,-8 2.36905,0 2.36709,1.83131 -0.0103,9.64829 l -1.86989,6.14829 11.62753,0.48299 c 10.87202,0.45161 27.76379,2.12645 32.87753,3.25985 1.40829,0.31213 2.25,1.23974 2.25,2.47963 0,2.2941 -1.1945,2.36951 -13.5,0.85228 -4.4,-0.54251 -24.425,-1.29871 -44.5,-1.68044 l -36.5,-0.69406 -10.5,-3.8602 c -11.74568,-4.31816 -14.46452,-4.56224 -19.79907,-1.77745 -10.65627,5.5629 -31.40379,14.26197 -37.45093,15.70253 -1.77633,0.42316 -2.75,1.31194 -2.75,2.51024 0,1.04102 -2.57195,3.99553 -5.86071,6.73247 l -5.8607,4.87733 7.3607,-0.47238 c 7.2895,-0.46781 7.36071,-0.44848 7.36071,1.99906 0,2.81534 3.48835,4.25029 12.87156,5.29477 5.25855,0.58536 32.83184,7.72906 42.66311,11.05318 2.73093,0.92338 7.02356,2.71835 9.53918,3.98883 2.51561,1.27047 12.18744,4.66118 21.49295,7.53491 9.3055,2.87373 18.37843,5.8347 20.16207,6.57995 1.78363,0.74525 5.53028,1.84554 8.3259,2.4451 5.13816,1.10193 7.13175,3.10831 5.10367,5.13639 -0.78379,0.78379 -2.38751,0.81414 -5.49111,0.10394 l -4.38398,-1.0032 -0.51295,24.15406 c -0.52065,24.51735 -1.14222,28.50364 -4.44447,28.50364 -1.37081,0 -1.50804,-0.90765 -0.94498,-6.25 z M 224.63252,366.41738 c -1.68291,-1.37587 -1.94474,-2.1042 -1.07487,-2.98994 0.87614,-0.89212 1.62869,-0.69229 3.16012,0.83914 l 2.01012,2.01012 2.33988,-2.53386 c 1.28693,-1.39363 5.48988,-5.02098 9.33988,-8.06078 3.85,-3.03979 8.0483,-6.60307 9.32954,-7.91839 1.28125,-1.31532 3.08125,-2.19632 4,-1.95778 1.05319,0.27345 3.10419,-1.18907 5.55041,-3.95786 l 3.87996,-4.39157 h -4.15215 c -2.87161,0 -6.68965,1.274 -12.37996,4.13093 -8.22705,4.13056 -16.95354,9.5995 -17.53788,10.99108 -0.17054,0.40615 -2.53027,3.67126 -5.24385,7.25582 -4.84256,6.39687 -4.89572,6.54403 -2.87523,7.95923 1.1322,0.79303 2.91812,1.21708 3.96872,0.94234 1.8157,-0.47481 1.80013,-0.58948 -0.31469,-2.31848 z m -17.72487,-33.14731 c 3.025,-1.06835 8.30856,-2.75506 11.74125,-3.74823 4.79446,-1.38718 7.75005,-3.13043 12.75,-7.52014 3.57981,-3.1429 6.50875,-6.18644 6.50875,-6.76341 0,-1.17866 -20.99355,-0.22747 -22.13004,1.00269 -0.36355,0.39351 -0.18947,1.84048 0.38684,3.21548 0.88488,2.1112 1.11491,2.21958 1.47907,0.6969 0.3425,-1.43209 0.72269,-1.56122 1.84768,-0.62756 1.62727,1.35051 1.90063,3.93066 0.41645,3.93066 -0.55,0 -1,0.64844 -1,1.44098 0,3.01638 -2.05036,2.52126 -3.67597,-0.88767 -0.93195,-1.95432 -1.94861,-3.55066 -2.25924,-3.54742 -1.17945,0.0123 -22.32456,5.92055 -22.76485,6.36084 -0.25409,0.25409 0.0245,1.37093 0.61904,2.48188 1.44967,2.70873 1.36773,5.86459 -0.16898,6.50847 -3.52534,1.47711 11.54467,-0.88166 16.25,-2.54347 z m -20.5,-2.39694 c 0,-1.37497 -0.7027,-1.91667 -2.4863,-1.91667 -2.96622,0 -4.0445,3.09697 -1.32079,3.79346 2.79029,0.71351 3.80709,0.21225 3.80709,-1.87679 z m 44.22159,-63.32067 c 1.50431,-0.87564 1.30139,-1.03987 -1.3166,-1.06559 -1.79415,-0.0176 -3.85577,-0.87103 -4.90499,-2.03041 -1.15641,-1.27782 -3.07997,-2 -5.32706,-2 -4.50424,0 -19.20091,-2.74577 -24.27059,-4.53445 -3.85948,-1.36171 -3.90235,-1.34951 -3.90235,1.11019 0,2.83088 -2.76762,4.41829 -4.05932,2.32828 -0.4716,-0.76307 -0.6024,-2.40364 -0.29066,-3.64571 0.31174,-1.24207 0.18051,-2.25217 -0.29161,-2.24466 -2.38282,0.0379 -5.35476,1.35068 -5.32681,2.35298 0.0533,1.91152 4.76453,6.63049 6.67043,6.68138 0.98889,0.0264 6.6202,1.27971 12.51403,2.78512 9.48872,2.42362 11.74749,2.6547 19.72159,2.01758 4.95304,-0.39574 9.80581,-1.18536 10.78394,-1.75471 z m -20.22159,-1.096 c -0.81551,-1.31952 0.38021,-3.19207 1.5691,-2.45729 1.21461,0.75067 1.20672,3.45729 -0.0101,3.45729 -0.51754,0 -1.2191,-0.45 -1.55902,-1 z M 0.34613973,424.13887 c -0.3873907,-0.99968 -0.4608643,-4.14968 -0.1632746,-7 0.82730917,-7.924 9.31860007,-40.67822 13.35811287,-51.52746 6.276229,-16.85656 18.802794,-42.28973 24.949017,-50.65495 1.212313,-1.65 2.417206,-4.8 2.677539,-7 0.553373,-4.6764 3.940846,-22.93007 6.773582,-36.5 3.703662,-17.74201 13.348801,-45.14822 20.549339,-58.38999 12.314538,-22.6464 15.255256,-27.03603 24.702332,-36.87337 5.135529,-5.34769 8.244913,-7.57591 14.854953,-10.64526 9.43776,-4.38238 26.41242,-10.22281 46.85991,-16.12297 2.475,-0.71417 17.18693,-7.50844 32.69319,-15.09837 39.82079,-19.49132 40.36923,-20.11132 42.34575,-47.870039 0.58244,-8.17988 0.5253,-15.34346 -0.16533,-20.72735 -0.58046,-4.52505 -0.85248,-8.80005 -0.60449,-9.5 0.24798,-0.69996 -0.58411,-3.34189 -1.8491,-5.87096 -2.39346,-4.78521 -5.34583,-15.572789 -7.43095,-27.15169 -1.05881,-5.879678 -1.49458,-6.75 -3.37979,-6.75 -3.42703,0 -6.30364,-2.632839 -8.14523,-7.4549526 -1.94389,-5.09 -1.34089,-10.517653 0.95664,-8.61087105 0.73605,0.61087205 1.58615,2.35002905 1.8891,3.86479305 0.59696,2.984762 4.26238,8.2010306 5.76279,8.2010306 0.51008,0 0.92742,-1.1625 0.92742,-2.5833326 0,-3.590254 2.19882,-2.583373 3.63144,1.6629066 0.63469,1.881234 2.3761,9.045426 3.86979,15.920426 1.49369,6.875 4.09515,15.80012 5.78103,19.8336 2.16903,5.18946 2.72901,7.5414 1.91529,8.04431 -0.86331,0.53355 -0.8483,1.69664 0.0602,4.66639 0.76518,2.50116 1.18194,10.39057 1.13341,21.4557 -0.0624,14.22737 -0.46661,19.054929 -2.16143,25.814799 -2.26767,9.04472 -4.41015,13.1852 -6.82265,13.1852 -0.85072,0 -3.56309,1.38726 -6.02747,3.0828 -8.46667,5.82522 -54.49232,27.58231 -66.37965,31.37877 -28.8359,9.20931 -33.99396,11.01268 -41.5,14.50929 -6.05194,2.81924 -9.50913,5.28546 -14.197484,10.12793 -7.145316,7.3802 -12.243052,13.90266 -14.772541,18.90121 -0.974136,1.925 -2.342704,4.175 -3.041261,5 -0.698558,0.825 -4.017704,6.70921 -7.375881,13.07602 -8.607546,16.31915 -19.960564,52.02143 -23.030202,72.42398 -0.579246,3.85 -1.479905,9.025 -2.001463,11.5 -0.521558,2.475 -0.716567,5.46403 -0.433354,6.6423 0.559774,2.32884 -1.275401,6.44058 -5.875826,13.16488 -4.515042,6.59955 -13.898994,25.43522 -20.080872,40.30682 -5.182718,12.46794 -16.6910798,53.40762 -16.6910798,59.3766 0,1.16993 -0.6428609,3.00065 -1.4285799,4.06827 -1.3626109,1.85149 -1.4611052,1.8572 -2.13292657,0.12354 z M 180.15972,391.35219 c -2.33635,-1.15647 -5.5408,-3.74362 -7.12099,-5.74921 -2.59501,-3.2936 -9.13108,-15.2311 -9.13108,-16.67702 0,-1.67274 2.34151,1.27388 4.64967,5.85127 3.89997,7.73418 8.01178,12.444 13.72451,15.72054 5.86897,3.36616 4.26052,4.01377 -2.12211,0.85442 z m 100.74793,0.69316 c 0,-2.65157 5.90203,-6.58889 9.87673,-6.58889 4.09504,0 6.12327,1.4099 6.12327,4.25654 0,1.78067 -0.11989,1.78571 -2.93395,0.1234 -2.86939,-1.69499 -3.02296,-1.67423 -6.97856,0.94347 -4.54634,3.00862 -6.08749,3.329 -6.08749,1.26548 z m 62.5,-4.14555 c -6.05,-1.31167 -11.9,-2.81755 -13,-3.34641 -3.71782,-1.78747 3.8731,-1.24132 14.26745,1.0265 10.61634,2.31626 33.06993,3.08967 45.23255,1.55802 4.02435,-0.50679 6.11913,-0.46355 5.5,0.11352 -2.59416,2.41793 -8.71414,3.20029 -24.39922,3.11912 -13.52255,-0.07 -18.64048,-0.52812 -27.60078,-2.47075 z m 60,-31.52072 c -4.95,-1.65051 -14.08399,-4.32175 -20.29775,-5.9361 -12.33635,-3.205 -21.55351,-6.89484 -19.30948,-7.73001 1.55974,-0.5805 15.32606,2.96658 34.10723,8.78819 6.875,2.13105 14.85845,4.37921 17.741,4.9959 2.88256,0.6167 5.49661,1.53485 5.80902,2.04033 1.22092,1.9755 -9.49541,0.6941 -18.05002,-2.15831 z m -68.5,-14.71987 c -2.10108,-0.70405 -2.83733,-2.10878 -2.2608,-4.31345 0.59984,-2.29379 1.17112,-2.34084 4.03829,-0.3326 3.59994,2.52149 2.26843,6.0018 -1.77749,4.64605 z M 249.40328,330.4494 c -0.34231,-0.55389 0.19363,-1.25189 1.19099,-1.55112 0.99736,-0.29923 3.12136,-1.21557 4.72,-2.03631 3.83184,-1.96727 5.55719,-0.36932 2.69338,2.49449 -2.18626,2.18626 -7.51067,2.86257 -8.60437,1.09294 z M 92.030415,314.67463 c 0.617945,-1.71217 21.821655,-23.21817 22.891815,-23.21817 2.90702,0 0.0184,4.43484 -7.81608,12 -8.139464,7.85962 -15.96533,13.68302 -15.075735,11.21817 z M 205.40212,298.44751 c -0.34296,-0.55492 -0.33167,-1.92861 0.0251,-3.05265 0.51792,-1.63182 0.934,-1.80687 2.06455,-0.8686 1.84504,1.53125 1.82775,4.9302 -0.0251,4.9302 -0.79254,0 -1.72159,-0.45403 -2.06455,-1.00895 z M 336.72959,294.965 c -0.7642,-1.67723 -0.81872,-3.2007 -0.16683,-4.66163 0.93392,-2.093 1.01482,-2.05799 2.275,0.98435 1.23415,2.9795 1.53586,3.1233 5.43826,2.59182 l 4.13163,-0.56271 -2.36078,2.06982 c -3.35588,2.94225 -7.87783,2.73761 -9.31728,-0.42165 z m -88.82194,-2.3861 c 0,-1.03265 0.66968,-2.43333 1.48817,-3.11262 1.20519,-1.00022 1.60583,-0.92843 2.10699,0.37756 0.34035,0.88694 0.3598,2.28762 0.0432,3.11262 -0.82406,2.1475 -3.63836,1.85546 -3.63836,-0.37756 z m 67.42946,-7.54748 c -0.3531,-1.40687 -0.47997,-6.12598 -0.28193,-10.48692 0.19804,-4.36094 0.14945,-7.71835 -0.10798,-7.46092 -0.25743,0.25743 -1.61093,2.58414 -3.00776,5.17047 -4.36892,8.08931 -6.32182,2.84561 -2.15339,-5.78205 1.17124,-2.42418 1.79025,-4.74441 1.37556,-5.15604 -0.91822,-0.91149 -11.45173,-3.30109 -24.25396,-5.50218 -7.92966,-1.36335 -10.92377,-1.44523 -18.11334,-0.49533 -9.72527,1.28492 -15.24303,1.4483 -16.21132,0.48002 -1.33423,-1.33424 1.67229,-3.34201 5.00448,-3.34201 1.88921,0 6.61265,-0.52479 10.49654,-1.1662 5.45583,-0.90101 9.47907,-0.88544 17.69263,0.0685 10.63765,1.23544 24.12973,4.00616 29.55809,6.07002 2.59875,0.98804 3.44431,0.71061 8.47975,-2.78227 3.07625,-2.13386 8.34231,-5.47329 11.70238,-7.42096 17.63789,-10.22385 35.52342,-25.65361 47.05794,-40.59666 8.10099,-10.49491 8.22335,-10.81789 4.41487,-11.65438 -1.6825,-0.36953 -3.3158,-1.08726 -3.62957,-1.59495 -0.79268,-1.28258 2.9419,-1.15613 5.91921,0.20042 2.28985,1.04332 2.91749,0.64152 8.79706,-5.63172 3.4822,-3.71536 7.45628,-8.41705 8.83128,-10.4482 1.375,-2.03115 4.26072,-5.82008 6.41272,-8.41985 3.3621,-4.06166 3.71391,-4.92254 2.5,-6.11743 -0.777,-0.76486 -9.28772,-5.36358 -18.91272,-10.21941 -27.70237,-13.97591 -43.77989,-25.69199 -47.47654,-34.5973 -0.72822,-1.75428 -2.08979,-7.23961 -3.02572,-12.18961 -1.45939,-7.718539 -1.60531,-12.773179 -1.02489,-35.499999 0.41875,-16.39608 1.18691,-28.59704 2.01471,-32 0.73586,-3.025 1.84993,-10.225 2.47573,-16 0.62579,-5.775 1.37038,-11.2875 1.65465,-12.25 0.69631,-2.3577016 2.38206,-2.2284696 2.38206,0.182612 0,2.404356 3.87197,3.851547 5.14874,1.9244 0.49448,-0.746357 1.43545,-3.2837976 2.09105,-5.6387576 0.81774,-2.937358 1.67368,-4.190076 2.72611,-3.989785 2.01772,0.384002 2.4589,3.954353 1.02536,8.2980236 -1.57618,4.775865 -3.53591,6.473507 -7.47292,6.473507 h -3.3388 l -0.69508,8.75 c -0.3823,4.8125 -1.22938,11.225 -1.88242,14.25 -1.63392,7.56874 -2.14138,54.95651 -0.67039,62.603599 2.5319,13.16237 3.18564,14.7606 7.8407,19.16834 8.98612,8.50872 27.0877,19.61161 47.7236,29.27204 5.66738,2.65311 10.60082,5.30358 10.9632,5.88993 1.30372,2.10945 3.12234,0.87718 8.04085,-5.44836 4.78673,-6.15606 8.16614,-8.42795 10.44316,-7.02068 2.07023,1.27947 0.97994,3.81043 -4.69316,10.89458 -3.1625,3.9491 -7.42322,9.64627 -9.46827,12.66037 -2.04504,3.0141 -8.44312,10.59285 -14.21796,16.84168 -5.77483,6.24882 -13.32661,14.97993 -16.78173,19.40247 -10.98149,14.05624 -15.0594,18.4568 -24.50192,26.44054 -12.93149,10.93369 -13.96919,11.68401 -27.53756,19.91143 -6.66395,4.04081 -13.63925,8.69527 -15.50067,10.34324 l -3.3844,2.99632 -0.37698,11.27225 c -0.30297,9.05952 -0.67457,11.33437 -1.89301,11.58869 -0.93183,0.1945 -1.76344,-0.66926 -2.15804,-2.24148 z m -28.92946,-2.07312 c 5.60896,-1.64147 13.44995,-2.02919 11.95,-0.59089 -0.5225,0.50102 -4.55,1.16817 -8.95,1.48255 l -8,0.5716 z m 100,-15.09306 c 5.68143,-5.12963 34.52945,-24.71267 35.28764,-23.95448 1.01365,1.01365 -2.43214,3.84993 -16.18816,13.3247 -23.96453,16.5061 -28.24888,18.89055 -19.09948,10.62978 z m -271.47142,-0.59976 c 0.0157,-0.71996 2.54677,-8.50902 5.62457,-17.30902 3.07781,-8.8 7.16521,-20.5 9.08313,-26 2.59754,-7.44894 3.67644,-12.55106 4.22923,-20 0.40815,-5.5 0.90013,-10.45 1.09328,-11 0.19315,-0.55 -0.21683,-2.65984 -0.91107,-4.68854 -0.9124,-2.66618 -2.49366,-4.41019 -5.70499,-6.29215 -4.44376,-2.60422 -5.71498,-4.51931 -2.99989,-4.51931 2.72387,0 8.63128,4.24263 10.2624,7.37034 1.22961,2.35779 1.58624,5.51966 1.446,12.82022 -0.22836,11.88888 -3.11396,23.86607 -10.00709,41.53626 -2.74054,7.02525 -6.19054,16.26282 -7.66667,20.52794 -2.49142,7.19871 -4.51619,10.63679 -4.4489,7.55426 z m 125.22142,-12.15041 c -7.89722,-1.93757 -3.84662,-4.33946 4.42297,-2.6227 3.43513,0.71313 5.32703,1.61343 5.32703,2.53499 0,1.64747 -3.27263,1.67691 -9.75,0.0877 z m -87.74751,-8.65078 c -0.67178,-2.11658 0.62785,-9.83965 3.16141,-18.78678 1.50747,-5.32352 7.14552,-12.22105 9.9895,-12.22105 2.00523,0 1.65743,1.16454 -1.49991,5.02216 -4.09115,4.99853 -4.66606,6.39028 -7.11253,17.2182 -2.26775,10.03692 -3.42563,12.27373 -4.53847,8.76747 z m 136.16418,-18.6745 c -2.4722,-2.4722 2.26292,-12.33333 5.92222,-12.33333 2.10567,0 1.73872,1.68395 -1.66228,7.62827 -3.29074,5.75162 -3.25399,5.71102 -4.25994,4.70506 z m -16.09233,-4.2572 c -2.10736,-2.15813 -4.8857,-4.18844 -6.17409,-4.51181 -1.28838,-0.32336 -2.82134,-1.48262 -3.40657,-2.57613 -0.90245,-1.68623 -0.75008,-1.98819 1.00325,-1.98819 5.40845,0 14.98769,7.18518 14.99844,11.25 0.007,2.81883 -2.31286,2.03327 -6.42103,-2.17387 z m 192.62554,-10.19448 c 0.55455,-1.68651 6.58016,-5.88165 8.448,-5.88165 2.7094,0 1.23652,1.74506 -3.7751,4.47272 -3.26206,1.77544 -4.96195,2.28797 -4.6729,1.40893 z m -130.69988,-8.61658 c 1.31008,-1.3011 9.61947,-3.29304 13.19282,-3.1626 1.89333,0.0691 1.0167,0.51313 -2.69282,1.36393 -3.025,0.6938 -6.85,1.60578 -8.5,2.02663 -1.98762,0.50697 -2.66254,0.43004 -2,-0.22796 z m -67.09328,-25.79314 c -3.35131,-1.26512 -10.55131,-2.82749 -16,-3.47191 -5.4487,-0.64443 -12.38172,-2.01445 -15.40672,-3.0445 -9.73266,-3.31406 -21.5,-8.51252 -21.5,-9.49806 0,-2.35761 6.2915,-1.37667 15.39091,2.39968 9.14874,3.79682 12.90327,4.69427 29.64324,7.08565 7.56455,1.08064 20.57934,5.89768 21.23305,7.8588 0.64915,1.94745 -6.58715,1.22729 -13.36048,-1.32966 z m 29.16331,-3.35862 c -0.30141,-0.48768 0.0145,-1.35356 0.70208,-1.92418 1.5902,-1.31975 21.81365,-7.41094 31.98379,-9.63334 4.86878,-1.06394 8.83112,-2.59958 10.64435,-4.12531 2.82215,-2.37468 7.09975,-3.30665 7.09975,-1.54684 0,0.486 -1.76815,2.48105 -3.92922,4.43345 -3.60482,3.25674 -9.18985,5.66348 -13.1747,5.67733 -0.88215,0.003 -7.70071,1.80558 -15.15235,4.00558 -13.86987,4.0949 -17.21308,4.66762 -18.1737,3.11331 z m -0.90336,-35.77998 c -0.99358,-0.99357 -0.77634,-24.61181 0.24116,-26.21843 1.90604,-3.00964 2.78932,2.56016 2.32089,14.6351 -0.44288,11.41616 -0.85699,13.2884 -2.56205,11.58333 z m 0.30858,-35.89843 c -0.53639,-1.4108 -0.97525,-3.02887 -0.97525,-3.59571 0,-0.566829 -0.7875,-2.383089 -1.75,-4.036139 -1.71094,-2.93845 -1.88391,-2.99242 -7.75,-2.4184 -7.47114,0.73108 -10.19354,-0.56068 -4.66961,-2.21569 5.82078,-1.74395 11.57807,-1.48008 13.47648,0.61764 3.57571,3.95111 6.22433,14.213399 3.66838,14.213399 -0.56361,0 -1.46361,-1.15429 -2,-2.5651 z M 267.24112,79.355881 c -5.40841,-2.80531 -12.75847,-6.59826 -16.33347,-8.42876 -6.53253,-3.34483 -17,-12.1589 -17,-14.31473 0,-2.62257 3.85692,-0.89059 12,5.3887 3.025,2.33263 6.625,4.56483 8,4.96043 1.375,0.39561 5.2921,2.46289 8.70467,4.59396 14.72028,9.19249 24.10132,10.22454 36.84823,4.05383 9.20464,-4.45593 19.04576,-12.02595 24.14862,-18.57569 3.90756,-5.01553 6.29848,-5.87165 6.29848,-2.2553 0,6.43968 -14.50819,18.94896 -30.3054,26.12999 -6.67865,3.03595 -8.86802,3.54815 -15.16653,3.54815 -6.90076,0 -7.97611,-0.31899 -17.1946,-5.10058 z m 6.15766,-24.74162 c -0.26058,-0.26058 0.0274,-1.07769 0.63999,-1.81579 0.6973,-0.8402 3.28095,-1.34201 6.90954,-1.34201 6.53075,0 8.95934,0.65674 8.95934,2.42278 0,0.84455 -2.41591,1.2088 -8.01754,1.2088 -4.40965,0 -8.23075,-0.2132 -8.49133,-0.47378 z"
     style="fill:#000000" />
</svg>
